mdu_core_test.vcd
$date
	Mon Dec 15 23:31:01 2025
$end
$version
	Icarus Verilog
$end
$timescale
	1s
$end
$scope module test_mdu_core_integration $end
$var wire 32 ! remainder [31:0] $end
$var wire 32 " quotient [31:0] $end
$var wire 64 # product [63:0] $end
$var wire 1 $ done $end
$var wire 1 % busy $end
$var parameter 2 & CPU_DONE $end
$var parameter 2 ' CPU_IDLE $end
$var parameter 2 ( CPU_MULDIV $end
$var reg 32 ) a [31:0] $end
$var reg 32 * b [31:0] $end
$var reg 1 + clk $end
$var reg 2 , cpu_state [1:0] $end
$var reg 3 - funct3 [2:0] $end
$var reg 2 . mdu_pending [1:0] $end
$var reg 1 / mdu_start $end
$var reg 1 0 rst_n $end
$var reg 1 1 test_running $end
$scope module uut $end
$var wire 32 2 a [31:0] $end
$var wire 32 3 b [31:0] $end
$var wire 1 + clk $end
$var wire 3 4 funct3 [2:0] $end
$var wire 1 5 is_div $end
$var wire 1 6 is_mul $end
$var wire 1 7 mul_signed_a $end
$var wire 1 0 rst_n $end
$var wire 1 / start $end
$var wire 1 8 mul_signed_b $end
$var wire 2 9 div_op_sel [1:0] $end
$var parameter 2 : DIV $end
$var parameter 2 ; IDLE $end
$var parameter 2 < MUL $end
$var reg 32 = a_latched [31:0] $end
$var reg 64 > acc [63:0] $end
$var reg 32 ? b_latched [31:0] $end
$var reg 1 % busy $end
$var reg 1 $ done $end
$var reg 1 @ done_next $end
$var reg 6 A mul_count [5:0] $end
$var reg 1 B mul_sign $end
$var reg 64 C multiplicand [63:0] $end
$var reg 32 D multiplier [31:0] $end
$var reg 3 E op_latched [2:0] $end
$var reg 64 F product [63:0] $end
$var reg 32 G quotient [31:0] $end
$var reg 32 H remainder [31:0] $end
$var reg 2 I state [1:0] $end
$upscope $end
$upscope $end
$enddefinitions $end
$comment Show the parameter values. $end
$dumpall
b1 <
b0 ;
b10 :
b1 (
b0 '
b10 &
$end
#0
$dumpvars
b0 I
b0 H
b0 G
b0 F
b0 E
b0 D
b0 C
xB
b0 A
0@
b0 ?
b0 >
b0 =
b11 9
08
07
16
05
b0 4
b0 3
b0 2
01
00
0/
b0 .
b0 -
b0 ,
0+
b0 *
b0 )
0%
0$
b0 #
b0 "
b0 !
$end
#5
1+
#10
0+
#15
1+
#20
0+
10
#25
1+
#30
0+
11
b101 -
b101 4
b1010 *
b1010 3
b1100100 )
b1100100 2
#35
b1 ,
1/
1+
#40
0+
#45
06
15
b1 9
0/
b1010 "
b1010 G
b10 I
1%
b1010 ?
b1100100 =
b101 E
1+
#50
0+
#55
b0 I
1@
0%
1+
#60
0+
#65
0@
1$
1+
#70
0+
#75
0$
b1 .
1+
#80
0+
#85
b10 .
1+
#90
0+
#95
b10 ,
1+
