test_division_final.vcd
$date
	Tue Dec 16 00:31:55 2025
$end
$version
	Icarus Verilog
$end
$timescale
	1ps
$end
$scope module test_division_final $end
$var wire 32 ! remainder [31:0] $end
$var wire 32 " quotient [31:0] $end
$var wire 1 # done $end
$var wire 1 $ busy $end
$var reg 32 % a [31:0] $end
$var reg 32 & b [31:0] $end
$var reg 1 ' clk $end
$var reg 3 ( funct3 [2:0] $end
$var reg 1 ) rst_n $end
$var reg 1 * start $end
$var integer 32 + test_count [31:0] $end
$scope module uut $end
$var wire 32 , a [31:0] $end
$var wire 1 - ack $end
$var wire 32 . b [31:0] $end
$var wire 1 ' clk $end
$var wire 3 / funct3 [2:0] $end
$var wire 1 0 is_div $end
$var wire 1 1 is_mul $end
$var wire 1 2 mul_signed_a $end
$var wire 1 ) rst_n $end
$var wire 1 * start $end
$var wire 1 3 mul_signed_b $end
$var wire 2 4 div_op_sel [1:0] $end
$var parameter 2 5 DIV $end
$var parameter 2 6 DIV2 $end
$var parameter 2 7 IDLE $end
$var parameter 2 8 MUL $end
$var reg 32 9 a_latched [31:0] $end
$var reg 64 : acc [63:0] $end
$var reg 32 ; b_latched [31:0] $end
$var reg 1 $ busy $end
$var reg 6 < div_count [5:0] $end
$var reg 1 = div_sign_q $end
$var reg 1 > div_sign_r $end
$var reg 32 ? dividend [31:0] $end
$var reg 32 @ divisor [31:0] $end
$var reg 1 # done $end
$var reg 6 A mul_count [5:0] $end
$var reg 1 B mul_sign $end
$var reg 64 C multiplicand [63:0] $end
$var reg 32 D multiplier [31:0] $end
$var reg 3 E op_latched [2:0] $end
$var reg 64 F product [63:0] $end
$var reg 32 G quotient [31:0] $end
$var reg 32 H quotient_reg [31:0] $end
$var reg 32 I remainder [31:0] $end
$var reg 33 J remainder_reg [32:0] $end
$var reg 2 K state [1:0] $end
$upscope $end
$scope task run_div_test $end
$var reg 32 L a_val [31:0] $end
$var reg 32 M b_val [31:0] $end
$var reg 32 N expected_q [31:0] $end
$var reg 32 O expected_r [31:0] $end
$var reg 3 P op_val [2:0] $end
$upscope $end
$upscope $end
$enddefinitions $end
$comment Show the parameter values. $end
$dumpall
b1 8
b0 7
b11 6
b10 5
$end
#0
$dumpvars
bx P
bx O
bx N
bx M
bx L
b0 K
b0 J
b0 I
b0 H
b0 G
b0 F
b0 E
b0 D
b0 C
xB
b0 A
b0 @
b0 ?
0>
0=
b0 <
b0 ;
b0 :
b0 9
b11 4
03
02
11
00
bx /
bx .
z-
bx ,
b0 +
0*
0)
bx (
0'
bx &
bx %
0$
0#
b0 "
b0 !
$end
#5000
1'
#10000
0'
#15000
1'
#20000
0'
#25000
1'
#30000
0'
#35000
1'
#40000
0'
#45000
b1 +
b0 O
b101 N
b100 P
b100 M
b10100 L
1)
1'
#50000
0'
#55000
01
10
b0 4
b10 K
b100 @
b10100 ?
1$
b100 ;
b10100 9
b100 E
1*
b100 (
b100 /
b100 &
b100 .
b10100 %
b10100 ,
1'
#60000
0'
#65000
b1 <
0*
1'
#70000
0'
#75000
b10 <
1'
#80000
0'
#85000
b11 <
1'
#90000
0'
#95000
b100 <
1'
#100000
0'
#105000
b101 <
1'
#110000
0'
#115000
b110 <
1'
#120000
0'
#125000
b111 <
1'
#130000
0'
#135000
b1000 <
1'
#140000
0'
#145000
b1001 <
1'
#150000
0'
#155000
b1010 <
1'
#160000
0'
#165000
b1011 <
1'
#170000
0'
#175000
b1100 <
1'
#180000
0'
#185000
b1101 <
1'
#190000
0'
#195000
b1110 <
1'
#200000
0'
#205000
b1111 <
1'
#210000
0'
#215000
b10000 <
1'
#220000
0'
#225000
b10001 <
1'
#230000
0'
#235000
b10010 <
1'
#240000
0'
#245000
b10011 <
1'
#250000
0'
#255000
b10100 <
1'
#260000
0'
#265000
b10101 <
1'
#270000
0'
#275000
b10110 <
1'
#280000
0'
#285000
b10111 <
1'
#290000
0'
#295000
b11000 <
1'
#300000
0'
#305000
b11001 <
1'
#310000
0'
#315000
b11010 <
1'
#320000
0'
#325000
b11011 <
1'
#330000
0'
#335000
b11100 <
b1 J
1'
#340000
0'
#345000
b11101 <
b10 J
1'
#350000
0'
#355000
b11110 <
b1 H
b1 J
1'
#360000
0'
#365000
b11111 <
b10 H
b10 J
1'
#370000
0'
#375000
b100000 <
b101 H
b0 J
1'
#380000
0'
#385000
b11 K
1'
#390000
0'
#395000
b0 K
1#
0$
b101 "
b101 G
1'
#400000
0'
#405000
b10 +
b1 O
b10101 L
1'
#410000
0'
#415000
b10 K
b0 <
b0 H
b10101 ?
1$
b10101 9
0#
1*
b10101 %
b10101 ,
1'
#420000
0'
#425000
b1 <
0*
1'
#430000
0'
#435000
b10 <
1'
#440000
0'
#445000
b11 <
1'
#450000
0'
#455000
b100 <
1'
#460000
0'
#465000
b101 <
1'
#470000
0'
#475000
b110 <
1'
#480000
0'
#485000
b111 <
1'
#490000
0'
#495000
b1000 <
1'
#500000
0'
#505000
b1001 <
1'
#510000
0'
#515000
b1010 <
1'
#520000
0'
#525000
b1011 <
1'
#530000
0'
#535000
b1100 <
1'
#540000
0'
#545000
b1101 <
1'
#550000
0'
#555000
b1110 <
1'
#560000
0'
#565000
b1111 <
1'
#570000
0'
#575000
b10000 <
1'
#580000
0'
#585000
b10001 <
1'
#590000
0'
#595000
b10010 <
1'
#600000
0'
#605000
b10011 <
1'
#610000
0'
#615000
b10100 <
1'
#620000
0'
#625000
b10101 <
1'
#630000
0'
#635000
b10110 <
1'
#640000
0'
#645000
b10111 <
1'
#650000
0'
#655000
b11000 <
1'
#660000
0'
#665000
b11001 <
1'
#670000
0'
#675000
b11010 <
1'
#680000
0'
#685000
b11011 <
1'
#690000
0'
#695000
b11100 <
b1 J
1'
#700000
0'
#705000
b11101 <
b10 J
1'
#710000
0'
#715000
b11110 <
b1 H
b1 J
1'
#720000
0'
#725000
b11111 <
b10 H
b10 J
1'
#730000
0'
#735000
b100000 <
b101 H
b1 J
1'
#740000
0'
#745000
b11 K
1'
#750000
0'
#755000
b0 K
1#
0$
b1 !
b1 I
1'
#760000
0'
#765000
b11 +
b0 O
b11111111111111111111111111111011 N
b11111111111111111111111111101100 L
1'
#770000
0'
#775000
b10 K
b0 <
b0 J
b0 H
1>
1=
b10100 ?
1$
b11111111111111111111111111101100 9
0#
1*
b11111111111111111111111111101100 %
b11111111111111111111111111101100 ,
1'
#780000
0'
#785000
b1 <
0*
1'
#790000
0'
#795000
b10 <
1'
#800000
0'
#805000
b11 <
1'
#810000
0'
#815000
b100 <
1'
#820000
0'
#825000
b101 <
1'
#830000
0'
#835000
b110 <
1'
#840000
0'
#845000
b111 <
1'
#850000
0'
#855000
b1000 <
1'
#860000
0'
#865000
b1001 <
1'
#870000
0'
#875000
b1010 <
1'
#880000
0'
#885000
b1011 <
1'
#890000
0'
#895000
b1100 <
1'
#900000
0'
#905000
b1101 <
1'
#910000
0'
#915000
b1110 <
1'
#920000
0'
#925000
b1111 <
1'
#930000
0'
#935000
b10000 <
1'
#940000
0'
#945000
b10001 <
1'
#950000
0'
#955000
b10010 <
1'
#960000
0'
#965000
b10011 <
1'
#970000
0'
#975000
b10100 <
1'
#980000
0'
#985000
b10101 <
1'
#990000
0'
#995000
b10110 <
1'
#1000000
0'
#1005000
b10111 <
1'
#1010000
0'
#1015000
b11000 <
1'
#1020000
0'
#1025000
b11001 <
1'
#1030000
0'
#1035000
b11010 <
1'
#1040000
0'
#1045000
b11011 <
1'
#1050000
0'
#1055000
b11100 <
b1 J
1'
#1060000
0'
#1065000
b11101 <
b10 J
1'
#1070000
0'
#1075000
b11110 <
b1 H
b1 J
1'
#1080000
0'
#1085000
b11111 <
b10 H
b10 J
1'
#1090000
0'
#1095000
b100000 <
b101 H
b0 J
1'
#1100000
0'
#1105000
b11 K
1'
#1110000
0'
#1115000
b0 K
1#
0$
b0 !
b0 I
b11111111111111111111111111111011 "
b11111111111111111111111111111011 G
1'
#1120000
0'
#1125000
b100 +
b11111111111111111111111111111111 O
b11111111111111111111111111101011 L
1'
#1130000
0'
#1135000
b10 K
b0 <
b0 H
b10101 ?
1$
b11111111111111111111111111101011 9
0#
1*
b11111111111111111111111111101011 %
b11111111111111111111111111101011 ,
1'
#1140000
0'
#1145000
b1 <
0*
1'
#1150000
0'
#1155000
b10 <
1'
#1160000
0'
#1165000
b11 <
1'
#1170000
0'
#1175000
b100 <
1'
#1180000
0'
#1185000
b101 <
1'
#1190000
0'
#1195000
b110 <
1'
#1200000
0'
#1205000
b111 <
1'
#1210000
0'
#1215000
b1000 <
1'
#1220000
0'
#1225000
b1001 <
1'
#1230000
0'
#1235000
b1010 <
1'
#1240000
0'
#1245000
b1011 <
1'
#1250000
0'
#1255000
b1100 <
1'
#1260000
0'
#1265000
b1101 <
1'
#1270000
0'
#1275000
b1110 <
1'
#1280000
0'
#1285000
b1111 <
1'
#1290000
0'
#1295000
b10000 <
1'
#1300000
0'
#1305000
b10001 <
1'
#1310000
0'
#1315000
b10010 <
1'
#1320000
0'
#1325000
b10011 <
1'
#1330000
0'
#1335000
b10100 <
1'
#1340000
0'
#1345000
b10101 <
1'
#1350000
0'
#1355000
b10110 <
1'
#1360000
0'
#1365000
b10111 <
1'
#1370000
0'
#1375000
b11000 <
1'
#1380000
0'
#1385000
b11001 <
1'
#1390000
0'
#1395000
b11010 <
1'
#1400000
0'
#1405000
b11011 <
1'
#1410000
0'
#1415000
b11100 <
b1 J
1'
#1420000
0'
#1425000
b11101 <
b10 J
1'
#1430000
0'
#1435000
b11110 <
b1 H
b1 J
1'
#1440000
0'
#1445000
b11111 <
b10 H
b10 J
1'
#1450000
0'
#1455000
b100000 <
b101 H
b1 J
1'
#1460000
0'
#1465000
b11 K
1'
#1470000
0'
#1475000
b0 K
1#
0$
b11111111111111111111111111111111 !
b11111111111111111111111111111111 I
1'
#1480000
0'
#1485000
b101 +
b0 O
b101 N
b101 P
b10100 L
1'
#1490000
0'
#1495000
b1 4
b10 K
b0 <
b0 J
b0 H
0>
0=
b10100 ?
1$
b10100 9
b101 E
0#
1*
b101 (
b101 /
b10100 %
b10100 ,
1'
#1500000
0'
#1505000
b1 <
0*
1'
#1510000
0'
#1515000
b10 <
1'
#1520000
0'
#1525000
b11 <
1'
#1530000
0'
#1535000
b100 <
1'
#1540000
0'
#1545000
b101 <
1'
#1550000
0'
#1555000
b110 <
1'
#1560000
0'
#1565000
b111 <
1'
#1570000
0'
#1575000
b1000 <
1'
#1580000
0'
#1585000
b1001 <
1'
#1590000
0'
#1595000
b1010 <
1'
#1600000
0'
#1605000
b1011 <
1'
#1610000
0'
#1615000
b1100 <
1'
#1620000
0'
#1625000
b1101 <
1'
#1630000
0'
#1635000
b1110 <
1'
#1640000
0'
#1645000
b1111 <
1'
#1650000
0'
#1655000
b10000 <
1'
#1660000
0'
#1665000
b10001 <
1'
#1670000
0'
#1675000
b10010 <
1'
#1680000
0'
#1685000
b10011 <
1'
#1690000
0'
#1695000
b10100 <
1'
#1700000
0'
#1705000
b10101 <
1'
#1710000
0'
#1715000
b10110 <
1'
#1720000
0'
#1725000
b10111 <
1'
#1730000
0'
#1735000
b11000 <
1'
#1740000
0'
#1745000
b11001 <
1'
#1750000
0'
#1755000
b11010 <
1'
#1760000
0'
#1765000
b11011 <
1'
#1770000
0'
#1775000
b11100 <
b1 J
1'
#1780000
0'
#1785000
b11101 <
b10 J
1'
#1790000
0'
#1795000
b11110 <
b1 H
b1 J
1'
#1800000
0'
#1805000
b11111 <
b10 H
b10 J
1'
#1810000
0'
#1815000
b100000 <
b101 H
b0 J
1'
#1820000
0'
#1825000
b11 K
1'
#1830000
0'
#1835000
b0 K
1#
0$
b0 !
b0 I
b101 "
b101 G
1'
