sim/tb_debug_shifts.vcd
$date
	Sat Dec 13 11:14:13 2025
$end
$version
	Icarus Verilog
$end
$timescale
	1ps
$end
$scope module tb_debug_shifts $end
$var wire 32 ! dwb_dat_i [31:0] $end
$var wire 1 " dwb_err_i $end
$var wire 32 # iwb_dat_i [31:0] $end
$var wire 1 $ iwb_stb_o $end
$var wire 1 % iwb_cyc_o $end
$var wire 32 & iwb_adr_o [31:0] $end
$var wire 1 ' dwb_we_o $end
$var wire 1 ( dwb_stb_o $end
$var wire 4 ) dwb_sel_o [3:0] $end
$var wire 32 * dwb_dat_o [31:0] $end
$var wire 1 + dwb_cyc_o $end
$var wire 32 , dwb_adr_o [31:0] $end
$var reg 1 - clk $end
$var reg 1 . dmem_ack $end
$var reg 32 / dmem_data [31:0] $end
$var reg 1 0 imem_ack $end
$var reg 32 1 imem_data [31:0] $end
$var reg 32 2 interrupts [31:0] $end
$var reg 1 3 rst_n $end
$var integer 32 4 i [31:0] $end
$scope module dut $end
$var wire 1 - clk $end
$var wire 1 . dwb_ack_i $end
$var wire 32 5 dwb_adr_o [31:0] $end
$var wire 1 + dwb_cyc_o $end
$var wire 32 6 dwb_dat_i [31:0] $end
$var wire 32 7 dwb_dat_o [31:0] $end
$var wire 1 " dwb_err_i $end
$var wire 4 8 dwb_sel_o [3:0] $end
$var wire 1 ( dwb_stb_o $end
$var wire 1 ' dwb_we_o $end
$var wire 1 9 interrupt_req $end
$var wire 32 : interrupts [31:0] $end
$var wire 1 0 iwb_ack_i $end
$var wire 32 ; iwb_adr_o [31:0] $end
$var wire 1 % iwb_cyc_o $end
$var wire 32 < iwb_dat_i [31:0] $end
$var wire 1 $ iwb_stb_o $end
$var wire 1 = rd_wen $end
$var wire 1 3 rst_n $end
$var wire 1 > stall $end
$var wire 32 ? trap_vector [31:0] $end
$var wire 32 @ rs2_data [31:0] $end
$var wire 5 A rs2_addr [4:0] $end
$var wire 32 B rs1_data [31:0] $end
$var wire 5 C rs1_addr [4:0] $end
$var wire 1 D reg_write $end
$var wire 32 E rd_data [31:0] $end
$var wire 5 F rd_addr [4:0] $end
$var wire 7 G opcode [6:0] $end
$var wire 1 H mem_write $end
$var wire 1 I mem_read $end
$var wire 32 J mdu_remainder [31:0] $end
$var wire 32 K mdu_quotient [31:0] $end
$var wire 64 L mdu_product [63:0] $end
$var wire 1 M mdu_done $end
$var wire 1 N mdu_busy $end
$var wire 1 O is_system $end
$var wire 1 P is_mret $end
$var wire 1 Q is_m $end
$var wire 1 R is_jump $end
$var wire 1 S is_ecall $end
$var wire 1 T is_ebreak $end
$var wire 1 U is_branch $end
$var wire 1 V interrupt_pending $end
$var wire 1 W interrupt_enabled $end
$var wire 32 X interrupt_cause [31:0] $end
$var wire 1 Y instr_retired $end
$var wire 32 Z immediate [31:0] $end
$var wire 1 [ illegal_instr $end
$var wire 7 \ funct7 [6:0] $end
$var wire 3 ] funct3 [2:0] $end
$var wire 32 ^ exception_val [31:0] $end
$var wire 1 _ exception_taken $end
$var wire 32 ` exception_cause [31:0] $end
$var wire 32 a epc_out [31:0] $end
$var wire 32 b csr_wdata [31:0] $end
$var wire 1 c csr_valid $end
$var wire 32 d csr_rdata [31:0] $end
$var wire 3 e csr_op [2:0] $end
$var wire 12 f csr_addr [11:0] $end
$var wire 1 g alu_zero $end
$var wire 1 h alu_src_imm $end
$var wire 32 i alu_result [31:0] $end
$var wire 32 j alu_operand_b [31:0] $end
$var wire 32 k alu_operand_a [31:0] $end
$var wire 4 l alu_op [3:0] $end
$var parameter 32 m RESET_VECTOR $end
$var parameter 3 n STATE_DECODE $end
$var parameter 3 o STATE_EXECUTE $end
$var parameter 3 p STATE_FETCH $end
$var parameter 3 q STATE_MEM $end
$var parameter 3 r STATE_MULDIV $end
$var parameter 3 s STATE_TRAP $end
$var parameter 3 t STATE_WRITEBACK $end
$var reg 32 u alu_result_reg [31:0] $end
$var reg 32 v dwb_adr_reg [31:0] $end
$var reg 1 w dwb_cyc_reg $end
$var reg 32 x dwb_dat_reg [31:0] $end
$var reg 4 y dwb_sel_reg [3:0] $end
$var reg 1 z dwb_stb_reg $end
$var reg 1 { dwb_we_reg $end
$var reg 32 | instruction [31:0] $end
$var reg 1 } iwb_cyc_reg $end
$var reg 1 ~ iwb_stb_reg $end
$var reg 32 !" mdu_result_reg [31:0] $end
$var reg 1 "" mdu_start $end
$var reg 32 #" pc [31:0] $end
$var reg 3 $" state [2:0] $end
$var reg 32 %" trap_cause [31:0] $end
$var reg 1 &" trap_entry $end
$var reg 32 '" trap_pc [31:0] $end
$var reg 1 (" trap_return $end
$var reg 32 )" trap_val [31:0] $end
$scope module alu_inst $end
$var wire 32 *" operand_a [31:0] $end
$var wire 32 +" operand_b [31:0] $end
$var wire 1 g zero $end
$var wire 4 ," alu_op [3:0] $end
$var reg 32 -" result [31:0] $end
$upscope $end
$scope module csr_inst $end
$var wire 1 - clk $end
$var wire 12 ." csr_addr [11:0] $end
$var wire 3 /" csr_op [2:0] $end
$var wire 1 c csr_valid $end
$var wire 32 0" csr_wdata [31:0] $end
$var wire 32 1" epc_out [31:0] $end
$var wire 1 Y instr_retired $end
$var wire 1 W interrupt_enabled $end
$var wire 1 V interrupt_pending $end
$var wire 32 2" interrupts_i [31:0] $end
$var wire 32 3" pending_and_enabled [31:0] $end
$var wire 1 3 rst_n $end
$var wire 32 4" trap_cause [31:0] $end
$var wire 1 &" trap_entry $end
$var wire 32 5" trap_pc [31:0] $end
$var wire 1 (" trap_return $end
$var wire 32 6" trap_val [31:0] $end
$var wire 2 7" mtvec_mode [1:0] $end
$var wire 32 8" mtvec_base [31:0] $end
$var wire 1 9" mpie_bit $end
$var wire 1 :" mie_bit $end
$var wire 1 ;" csr_write $end
$var parameter 32 <" MARCHID $end
$var parameter 32 =" MHARTID $end
$var parameter 32 >" MIMPID $end
$var parameter 32 ?" MISA $end
$var parameter 32 @" MVENDORID $end
$var reg 32 A" csr_rdata [31:0] $end
$var reg 32 B" csr_wdata_final [31:0] $end
$var reg 32 C" interrupt_cause [31:0] $end
$var reg 32 D" mcause [31:0] $end
$var reg 64 E" mcycle [63:0] $end
$var reg 32 F" mepc [31:0] $end
$var reg 32 G" mie [31:0] $end
$var reg 64 H" minstret [63:0] $end
$var reg 32 I" mip [31:0] $end
$var reg 32 J" mscratch [31:0] $end
$var reg 32 K" mstatus [31:0] $end
$var reg 32 L" mtval [31:0] $end
$var reg 32 M" mtvec [31:0] $end
$var reg 32 N" trap_vector [31:0] $end
$var reg 1 O" valid $end
$var integer 32 P" i [31:0] $end
$upscope $end
$scope module decoder_inst $end
$var wire 32 Q" instruction [31:0] $end
$var wire 5 R" rs2_addr [4:0] $end
$var wire 5 S" rs1_addr [4:0] $end
$var wire 5 T" rd_addr [4:0] $end
$var wire 7 U" opcode [6:0] $end
$var wire 7 V" funct7 [6:0] $end
$var wire 3 W" funct3 [2:0] $end
$var reg 4 X" alu_op [3:0] $end
$var reg 1 h alu_src_imm $end
$var reg 1 [ illegal_instr $end
$var reg 32 Y" immediate [31:0] $end
$var reg 1 U is_branch $end
$var reg 1 T is_ebreak $end
$var reg 1 S is_ecall $end
$var reg 1 R is_jump $end
$var reg 1 Q is_m $end
$var reg 1 P is_mret $end
$var reg 1 O is_system $end
$var reg 1 Z" is_wfi $end
$var reg 1 I mem_read $end
$var reg 1 H mem_write $end
$var reg 1 D reg_write $end
$upscope $end
$scope module exc_unit $end
$var wire 1 " bus_error $end
$var wire 1 T ebreak $end
$var wire 1 S ecall $end
$var wire 1 [ illegal_instr $end
$var wire 32 [" instruction [31:0] $end
$var wire 32 \" mem_addr [31:0] $end
$var wire 1 I mem_read $end
$var wire 1 H mem_write $end
$var wire 32 ]" pc [31:0] $end
$var reg 32 ^" exception_cause [31:0] $end
$var reg 1 _ exception_taken $end
$var reg 32 _" exception_val [31:0] $end
$upscope $end
$scope module mdu_inst $end
$var wire 1 - clk $end
$var wire 3 `" funct3 [2:0] $end
$var wire 1 a" is_div $end
$var wire 1 b" is_mul $end
$var wire 1 c" mul_signed_a $end
$var wire 1 3 rst_n $end
$var wire 1 "" start $end
$var wire 1 d" mul_signed_b $end
$var wire 2 e" div_op_sel [1:0] $end
$var wire 32 f" b [31:0] $end
$var wire 32 g" a [31:0] $end
$var parameter 2 h" DIV $end
$var parameter 2 i" IDLE $end
$var parameter 2 j" MUL $end
$var reg 32 k" a_latched [31:0] $end
$var reg 64 l" acc [63:0] $end
$var reg 32 m" b_latched [31:0] $end
$var reg 1 N busy $end
$var reg 6 n" div_count [5:0] $end
$var reg 32 o" dividend_abs [31:0] $end
$var reg 1 p" dividend_neg $end
$var reg 64 q" dividend_shift [63:0] $end
$var reg 32 r" divisor_abs [31:0] $end
$var reg 1 s" divisor_neg $end
$var reg 1 M done $end
$var reg 6 t" mul_count [5:0] $end
$var reg 1 u" mul_sign $end
$var reg 64 v" multiplicand [63:0] $end
$var reg 32 w" multiplier [31:0] $end
$var reg 3 x" op_latched [2:0] $end
$var reg 64 y" product [63:0] $end
$var reg 32 z" quotient [31:0] $end
$var reg 32 {" quotient_reg [31:0] $end
$var reg 32 |" remainder [31:0] $end
$var reg 32 }" remainder_reg [31:0] $end
$var reg 2 ~" state [1:0] $end
$upscope $end
$scope module regfile_inst $end
$var wire 1 - clk $end
$var wire 5 !# rd_addr [4:0] $end
$var wire 32 "# rd_data [31:0] $end
$var wire 1 = rd_wen $end
$var wire 5 ## rs1_addr [4:0] $end
$var wire 5 $# rs2_addr [4:0] $end
$var wire 1 3 rst_n $end
$var wire 32 %# rs2_data [31:0] $end
$var wire 32 &# rs1_data [31:0] $end
$var integer 32 '# i [31:0] $end
$upscope $end
$upscope $end
$upscope $end
$enddefinitions $end
$comment Show the parameter values. $end
$dumpall
b1 j"
b0 i"
b10 h"
b0 @"
b1000000000000000000000100000000 ?"
b1 >"
b0 ="
b0 <"
b100 t
b110 s
b101 r
b11 q
b0 p
b10 o
b1 n
b0 m
$end
#0
$dumpvars
b100000 '#
bx &#
bx %#
bx $#
bx ##
bx "#
bx !#
b0 ~"
b0 }"
b0 |"
b0 {"
b0 z"
b0 y"
b0 x"
b0 w"
b0 v"
xu"
b0 t"
0s"
b0 r"
b0 q"
0p"
bx o"
b0 n"
b0 m"
b0 l"
b0 k"
bx g"
bx f"
b11 e"
0d"
0c"
1b"
0a"
bx `"
b0 _"
b0 ^"
b0 ]"
bx \"
bx ["
xZ"
bx Y"
bx X"
bx W"
bx V"
bx U"
bx T"
bx S"
bx R"
bx Q"
b11111111111111111111111111111111 P"
0O"
b0 N"
b0 M"
b0 L"
b0 K"
b0 J"
b0 I"
b0 H"
b0 G"
b0 F"
b0 E"
b0 D"
b0 C"
b0 B"
b0 A"
x;"
0:"
09"
b0 8"
b0 7"
b0 6"
b0 5"
b0 4"
b0 3"
b0 2"
b0 1"
bx 0"
bx /"
bx ."
bx -"
bx ,"
bx +"
bx *"
b0 )"
0("
b0 '"
0&"
b0 %"
b0 $"
b0 #"
0""
b0 !"
0~
0}
bx |
x{
0z
bx y
bx x
0w
bx v
bx u
bx l
bx k
bx j
bx i
xh
xg
bx f
bx e
b0 d
0c
bx b
b0 a
b0 `
0_
b0 ^
bx ]
bx \
x[
bx Z
0Y
b0 X
0W
0V
xU
xT
xS
xR
xQ
xP
xO
0N
0M
b0 L
b0 K
b0 J
xI
xH
bx G
bx F
bx E
xD
bx C
bx B
bx A
bx @
b0 ?
0>
0=
b10011 <
b0 ;
b0 :
09
bx 8
bx 7
b0 6
bx 5
b10000000000 4
03
b0 2
b10011 1
00
b0 /
0.
0-
bx ,
0+
bx *
bx )
0(
x'
b0 &
0%
0$
b10011 #
0"
b0 !
$end
#5000
b100000 '#
1-
#10000
0-
#15000
b100000 '#
1-
#20000
0-
13
#25000
0c
0O"
1$
1~
1%
1}
b1 E"
1-
#30000
0-
#35000
0c
0O"
b10 E"
10
b10000000000000000000000010110111 #
b10000000000000000000000010110111 <
b10000000000000000000000010110111 1
1-
#40000
0-
#45000
b0 b
b0 0"
0g
b10000000000000000000000000000000 i
b10000000000000000000000000000000 -"
b10000000000000000000000000000000 j
b10000000000000000000000000000000 +"
b0 k
b0 *"
0;"
b0 e
b0 /"
b0 B
b0 g"
b0 &#
b0 @
b0 f"
b0 %#
b100000000000 f
b100000000000 ."
0[
0Z"
0P
0T
0S
0Q
0O
0R
0U
1D
0H
0I
1h
b0 l
b0 ,"
b0 X"
b10000000000000000000000000000000 Z
b10000000000000000000000000000000 Y"
b110111 G
b110111 U"
b0 ]
b0 W"
b0 `"
b1000000 \
b1000000 V"
b0 C
b0 S"
b0 ##
b0 A
b0 R"
b0 $#
b1 F
b1 T"
b1 !#
0c
0O"
00
b1 $"
0$
0~
0%
0}
b10000000000000000000000010110111 |
b10000000000000000000000010110111 Q"
b10000000000000000000000010110111 ["
b11 E"
1-
#50000
0-
#55000
0c
0O"
b100 E"
b10 $"
1-
#60000
0-
#65000
b10000000000000000000000000000000 E
b10000000000000000000000000000000 "#
1=
0c
0O"
1Y
b100 $"
b10000000000000000000000000000000 u
b101 E"
1-
#70000
0-
#75000
0=
0c
0O"
b1 H"
b110 E"
0Y
b0 $"
b100 &
b100 ;
b100 #"
b100 ]"
1-
#80000
0-
#85000
0c
0O"
1$
1~
1%
1}
b111 E"
1-
#90000
0-
#95000
0c
0O"
b1000 E"
10
b10000000000000100010011 #
b10000000000000100010011 <
b10000000000000100010011 1
1-
#100000
0-
#105000
b100 i
b100 -"
b100 j
b100 +"
b100 f
b100 ."
1D
1h
b100 Z
b100 Y"
b10011 G
b10011 U"
b0 \
b0 V"
b100 A
b100 R"
b100 $#
b10 F
b10 T"
b10 !#
0c
0O"
00
b1 $"
0$
0~
0%
0}
b10000000000000100010011 |
b10000000000000100010011 Q"
b10000000000000100010011 ["
b1001 E"
1-
#110000
0-
#115000
0c
0O"
b1010 E"
b10 $"
1-
#120000
0-
#125000
b100 E
b100 "#
1=
0c
0O"
1Y
b100 $"
b100 u
b1011 E"
1-
#130000
0-
#135000
0=
0c
0O"
b10 H"
b1100 E"
0Y
b0 $"
b1000 &
b1000 ;
b1000 #"
b1000 ]"
1-
#140000
0-
#145000
0c
0O"
1$
1~
1%
1}
b1101 E"
1-
#150000
0-
#155000
0c
0O"
b1110 E"
10
b1000001101000110110011 #
b1000001101000110110011 <
b1000001101000110110011 1
1-
#160000
0-
#165000
b1 b
b1 0"
b10000000000000000000000000000000 k
b10000000000000000000000000000000 *"
0g
b1000000000000000000000000000 i
b1000000000000000000000000000 -"
b10000000000000000000000000000000 B
b10000000000000000000000000000000 g"
b10000000000000000000000000000000 &#
b100 @
b100 f"
b100 %#
b10 f
b10 ."
b110 l
b110 ,"
b110 X"
1D
0h
b0 Z
b0 Y"
b110011 G
b110011 U"
b101 ]
b101 W"
b101 `"
b1 C
b1 S"
b1 ##
b10 A
b10 R"
b10 $#
b11 F
b11 T"
b11 !#
0c
0O"
00
b1 $"
0$
0~
0%
0}
b1000001101000110110011 |
b1000001101000110110011 Q"
b1000001101000110110011 ["
b1111 E"
1-
#170000
0-
#175000
0c
0O"
b10000 E"
b10 $"
1-
#180000
0-
#185000
b1000000000000000000000000000 E
b1000000000000000000000000000 "#
1=
0c
0O"
1Y
b100 $"
b1000000000000000000000000000 u
b10001 E"
1-
#190000
0-
#195000
0=
0c
0O"
b11 H"
b10010 E"
0Y
b0 $"
b1100 &
b1100 ;
b1100 #"
b1100 ]"
1-
#200000
0-
#205000
0c
0O"
1$
1~
1%
1}
b10011 E"
1-
#210000
0-
#215000
0c
0O"
b10100 E"
10
b1000000001000001101001000110011 #
b1000000001000001101001000110011 <
b1000000001000001101001000110011 1
1-
#220000
0-
#225000
b11111000000000000000000000000000 i
b11111000000000000000000000000000 -"
b10000000010 f
b10000000010 ."
1D
b111 l
b111 ,"
b111 X"
b100000 \
b100000 V"
b100 F
b100 T"
b100 !#
0c
0O"
00
b1 $"
0$
0~
0%
0}
b1000000001000001101001000110011 |
b1000000001000001101001000110011 Q"
b1000000001000001101001000110011 ["
b10101 E"
1-
#230000
0-
#235000
0c
0O"
b10110 E"
b10 $"
1-
#240000
0-
#245000
b11111000000000000000000000000000 E
b11111000000000000000000000000000 "#
1=
0c
0O"
1Y
b100 $"
b11111000000000000000000000000000 u
b10111 E"
1-
#250000
0-
#255000
0=
0c
0O"
b100 H"
b11000 E"
0Y
b0 $"
b10000 &
b10000 ;
b10000 #"
b10000 ]"
1-
#260000
0-
#265000
0c
0O"
1$
1~
1%
1}
b11001 E"
1-
#270000
0-
#275000
0c
0O"
b11010 E"
10
b10000001101001010010011 #
b10000001101001010010011 <
b10000001101001010010011 1
1-
#280000
0-
#285000
b1000000000000000000000000000 i
b1000000000000000000000000000 -"
b11111000000000000000000000000000 @
b11111000000000000000000000000000 f"
b11111000000000000000000000000000 %#
b100 f
b100 ."
1h
1D
b110 l
b110 ,"
b110 X"
b100 Z
b100 Y"
b10011 G
b10011 U"
b0 \
b0 V"
b100 A
b100 R"
b100 $#
b101 F
b101 T"
b101 !#
0c
0O"
00
b1 $"
0$
0~
0%
0}
b10000001101001010010011 |
b10000001101001010010011 Q"
b10000001101001010010011 ["
b11011 E"
1-
#290000
0-
#295000
0c
0O"
b11100 E"
b10 $"
1-
#300000
0-
#305000
b1000000000000000000000000000 E
b1000000000000000000000000000 "#
1=
0c
0O"
1Y
b100 $"
b1000000000000000000000000000 u
b11101 E"
1-
#310000
0-
#315000
0=
0c
0O"
b101 H"
b11110 E"
0Y
b0 $"
b10100 &
b10100 ;
b10100 #"
b10100 ]"
1-
#320000
0-
#325000
0c
0O"
1$
1~
1%
1}
b11111 E"
1-
#330000
0-
#335000
0c
0O"
b100000 E"
10
b1000000010000001101001100010011 #
b1000000010000001101001100010011 <
b1000000010000001101001100010011 1
1-
#340000
0-
#345000
b11111000000000000000000000000000 i
b11111000000000000000000000000000 -"
b10000000100 j
b10000000100 +"
b10000000100 f
b10000000100 ."
1D
1h
b111 l
b111 ,"
b111 X"
b10000000100 Z
b10000000100 Y"
b100000 \
b100000 V"
b110 F
b110 T"
b110 !#
0c
0O"
00
b1 $"
0$
0~
0%
0}
b1000000010000001101001100010011 |
b1000000010000001101001100010011 Q"
b1000000010000001101001100010011 ["
b100001 E"
1-
#350000
0-
#355000
0c
0O"
b100010 E"
b10 $"
1-
#360000
0-
#365000
b11111000000000000000000000000000 E
b11111000000000000000000000000000 "#
1=
0c
0O"
1Y
b100 $"
b11111000000000000000000000000000 u
b100011 E"
1-
#370000
0-
#375000
0=
0c
0O"
b110 H"
b100100 E"
0Y
b0 $"
b11000 &
b11000 ;
b11000 #"
b11000 ]"
1-
#380000
0-
#385000
0c
0O"
1$
1~
1%
1}
b100101 E"
1-
#390000
0-
#395000
0c
0O"
b100110 E"
10
b1111111100000000001110010011 #
b1111111100000000001110010011 <
b1111111100000000001110010011 1
1-
#400000
0-
#405000
b0 k
b0 *"
b0 b
b0 0"
b11111111 i
b11111111 -"
b11111111 j
b11111111 +"
b0 B
b0 g"
b0 &#
b0 @
b0 f"
b0 %#
b11111111 f
b11111111 ."
1D
1h
b0 l
b0 ,"
b0 X"
b11111111 Z
b11111111 Y"
b0 ]
b0 W"
b0 `"
b111 \
b111 V"
b0 C
b0 S"
b0 ##
b11111 A
b11111 R"
b11111 $#
b111 F
b111 T"
b111 !#
0c
0O"
00
b1 $"
0$
0~
0%
0}
b1111111100000000001110010011 |
b1111111100000000001110010011 Q"
b1111111100000000001110010011 ["
b100111 E"
1-
#410000
0-
#415000
0c
0O"
b101000 E"
b10 $"
1-
#420000
0-
#425000
b11111111 E
b11111111 "#
1=
0c
0O"
1Y
b100 $"
b11111111 u
b101001 E"
1-
#430000
0-
#435000
0=
0c
0O"
b111 H"
b101010 E"
0Y
b0 $"
b11100 &
b11100 ;
b11100 #"
b11100 ]"
1-
#440000
0-
#445000
0c
0O"
1$
1~
1%
1}
b101011 E"
1-
#450000
0-
#455000
0c
0O"
b101100 E"
10
b1111000000000000010000010011 #
b1111000000000000010000010011 <
b1111000000000000010000010011 1
1-
#460000
0-
#465000
b11110000 i
b11110000 -"
b11110000 j
b11110000 +"
b11110000 f
b11110000 ."
1D
1h
b11110000 Z
b11110000 Y"
b10000 A
b10000 R"
b10000 $#
b1000 F
b1000 T"
b1000 !#
0c
0O"
00
b1 $"
0$
0~
0%
0}
b1111000000000000010000010011 |
b1111000000000000010000010011 Q"
b1111000000000000010000010011 ["
b101101 E"
1-
#470000
0-
#475000
0c
0O"
b101110 E"
b10 $"
1-
#480000
0-
#485000
b11110000 E
b11110000 "#
1=
0c
0O"
1Y
b100 $"
b11110000 u
b101111 E"
1-
#490000
0-
#495000
0=
0c
0O"
b1000 H"
b110000 E"
0Y
b0 $"
b100000 &
b100000 ;
b100000 #"
b100000 ]"
1-
#500000
0-
#505000
0c
0O"
1$
1~
1%
1}
b110001 E"
1-
#510000
0-
#515000
0c
0O"
b110010 E"
10
b100000111111010010110011 #
b100000111111010010110011 <
b100000111111010010110011 1
1-
#520000
0-
#525000
b111 b
b111 0"
b11111111 k
b11111111 *"
0g
b11110000 i
b11110000 -"
b11111111 B
b11111111 g"
b11111111 &#
b11110000 @
b11110000 f"
b11110000 %#
b1000 f
b1000 ."
b10 l
b10 ,"
b10 X"
1D
0h
b0 Z
b0 Y"
b110011 G
b110011 U"
b111 ]
b111 W"
b111 `"
b0 \
b0 V"
b111 C
b111 S"
b111 ##
b1000 A
b1000 R"
b1000 $#
b1001 F
b1001 T"
b1001 !#
0c
0O"
00
b1 $"
0$
0~
0%
0}
b100000111111010010110011 |
b100000111111010010110011 Q"
b100000111111010010110011 ["
b110011 E"
1-
#530000
0-
#535000
0c
0O"
b110100 E"
b10 $"
1-
#540000
0-
#545000
1=
0c
0O"
1Y
b100 $"
b110101 E"
1-
#550000
0-
#555000
0=
0c
0O"
b1001 H"
b110110 E"
0Y
b0 $"
b100100 &
b100100 ;
b100100 #"
b100100 ]"
1-
#560000
0-
#565000
0c
0O"
1$
1~
1%
1}
b110111 E"
1-
#570000
0-
#575000
0c
0O"
b111000 E"
10
b100000111110010100110011 #
b100000111110010100110011 <
b100000111110010100110011 1
1-
#580000
0-
#585000
b11111111 i
b11111111 -"
1D
b11 l
b11 ,"
b11 X"
b110 ]
b110 W"
b110 `"
b1010 F
b1010 T"
b1010 !#
0c
0O"
00
b1 $"
0$
0~
0%
0}
b100000111110010100110011 |
b100000111110010100110011 Q"
b100000111110010100110011 ["
b111001 E"
1-
#590000
0-
#595000
0c
0O"
b111010 E"
b10 $"
1-
#600000
0-
#605000
b11111111 E
b11111111 "#
1=
0c
0O"
1Y
b100 $"
b11111111 u
b111011 E"
1-
#610000
0-
#615000
0=
0c
0O"
b1010 H"
b111100 E"
0Y
b0 $"
b101000 &
b101000 ;
b101000 #"
b101000 ]"
1-
#620000
0-
#625000
0c
0O"
1$
1~
1%
1}
b111101 E"
1-
#630000
0-
#635000
0c
0O"
b111110 E"
10
b100000111100010110110011 #
b100000111100010110110011 <
b100000111100010110110011 1
1-
#640000
0-
#645000
b1111 i
b1111 -"
1D
b100 l
b100 ,"
b100 X"
b100 ]
b100 W"
b100 `"
b1011 F
b1011 T"
b1011 !#
0c
0O"
00
b1 $"
0$
0~
0%
0}
b100000111100010110110011 |
b100000111100010110110011 Q"
b100000111100010110110011 ["
b111111 E"
1-
#650000
0-
#655000
0c
0O"
b1000000 E"
b10 $"
1-
#660000
0-
#665000
b1111 E
b1111 "#
1=
0c
0O"
1Y
b100 $"
b1111 u
b1000001 E"
1-
#670000
0-
#675000
0=
0c
0O"
b1011 H"
b1000010 E"
0Y
b0 $"
b101100 &
b101100 ;
b101100 #"
b101100 ]"
1-
#680000
0-
#685000
0c
0O"
1$
1~
1%
1}
b1000011 E"
1-
#690000
0-
#695000
0c
0O"
b1000100 E"
10
b10011 #
b10011 <
b10011 1
1-
#700000
0-
#705000
1g
b0 k
b0 *"
b0 b
b0 0"
b0 j
b0 +"
b0 i
b0 -"
b0 B
b0 g"
b0 &#
b0 @
b0 f"
b0 %#
b0 f
b0 ."
1h
1D
b0 l
b0 ,"
b0 X"
b10011 G
b10011 U"
b0 ]
b0 W"
b0 `"
b0 C
b0 S"
b0 ##
b0 A
b0 R"
b0 $#
b0 F
b0 T"
b0 !#
0c
0O"
00
b1 $"
0$
0~
0%
0}
b10011 |
b10011 Q"
b10011 ["
b1000101 E"
1-
#710000
0-
#715000
0c
0O"
b1000110 E"
b10 $"
1-
#720000
0-
#725000
b0 E
b0 "#
1=
0c
0O"
1Y
b100 $"
b0 u
b1000111 E"
1-
#730000
0-
#735000
0=
0c
0O"
b1100 H"
b1001000 E"
0Y
b0 $"
b110000 &
b110000 ;
b110000 #"
b110000 ]"
1-
#740000
0-
#745000
0c
0O"
1$
1~
1%
1}
b1001001 E"
1-
#750000
0-
#755000
0c
0O"
b1001010 E"
10
1-
#760000
0-
#765000
0c
0O"
00
b1 $"
0$
0~
0%
0}
b1001011 E"
1-
#770000
0-
#775000
0c
0O"
b1001100 E"
b10 $"
1-
#780000
0-
#785000
1=
0c
0O"
1Y
b100 $"
b1001101 E"
1-
#790000
0-
#795000
0=
0c
0O"
b1101 H"
b1001110 E"
0Y
b0 $"
b110100 &
b110100 ;
b110100 #"
b110100 ]"
1-
#800000
0-
#805000
0c
0O"
1$
1~
1%
1}
b1001111 E"
1-
#810000
0-
#815000
0c
0O"
b1010000 E"
10
1-
#820000
0-
#825000
0c
0O"
00
b1 $"
0$
0~
0%
0}
b1010001 E"
1-
#830000
0-
#835000
0c
0O"
b1010010 E"
b10 $"
1-
#840000
0-
#845000
1=
0c
0O"
1Y
b100 $"
b1010011 E"
1-
#850000
0-
#855000
0=
0c
0O"
b1110 H"
b1010100 E"
0Y
b0 $"
b111000 &
b111000 ;
b111000 #"
b111000 ]"
1-
#860000
0-
#865000
0c
0O"
1$
1~
1%
1}
b1010101 E"
1-
#870000
0-
#875000
0c
0O"
b1010110 E"
10
1-
#880000
0-
#885000
0c
0O"
00
b1 $"
0$
0~
0%
0}
b1010111 E"
1-
#890000
0-
#895000
0c
0O"
b1011000 E"
b10 $"
1-
#900000
0-
#905000
1=
0c
0O"
1Y
b100 $"
b1011001 E"
1-
#910000
0-
#915000
0=
0c
0O"
b1111 H"
b1011010 E"
0Y
b0 $"
b111100 &
b111100 ;
b111100 #"
b111100 ]"
1-
#920000
0-
#925000
0c
0O"
1$
1~
1%
1}
b1011011 E"
1-
#930000
0-
#935000
0c
0O"
b1011100 E"
10
1-
#940000
0-
#945000
0c
0O"
00
b1 $"
0$
0~
0%
0}
b1011101 E"
1-
#950000
0-
#955000
0c
0O"
b1011110 E"
b10 $"
1-
#960000
0-
#965000
1=
0c
0O"
1Y
b100 $"
b1011111 E"
1-
#970000
0-
#975000
0=
0c
0O"
b10000 H"
b1100000 E"
0Y
b0 $"
b1000000 &
b1000000 ;
b1000000 #"
b1000000 ]"
1-
#980000
0-
#985000
0c
0O"
1$
1~
1%
1}
b1100001 E"
1-
#990000
0-
#995000
0c
0O"
b1100010 E"
10
1-
#1000000
0-
#1005000
0c
0O"
00
b1 $"
0$
0~
0%
0}
b1100011 E"
1-
#1010000
0-
#1015000
0c
0O"
b1100100 E"
b10 $"
1-
#1020000
0-
#1025000
1=
0c
0O"
1Y
b100 $"
b1100101 E"
1-
#1030000
0-
#1035000
0=
0c
0O"
b10001 H"
b1100110 E"
0Y
b0 $"
b1000100 &
b1000100 ;
b1000100 #"
b1000100 ]"
1-
#1040000
0-
#1045000
0c
0O"
1$
1~
1%
1}
b1100111 E"
1-
#1050000
0-
#1055000
0c
0O"
b1101000 E"
10
1-
#1060000
0-
#1065000
0c
0O"
00
b1 $"
0$
0~
0%
0}
b1101001 E"
1-
#1070000
0-
#1075000
0c
0O"
b1101010 E"
b10 $"
1-
#1080000
0-
#1085000
1=
0c
0O"
1Y
b100 $"
b1101011 E"
1-
#1090000
0-
#1095000
0=
0c
0O"
b10010 H"
b1101100 E"
0Y
b0 $"
b1001000 &
b1001000 ;
b1001000 #"
b1001000 ]"
1-
#1100000
0-
#1105000
0c
0O"
1$
1~
1%
1}
b1101101 E"
1-
#1110000
0-
#1115000
0c
0O"
b1101110 E"
10
1-
#1120000
0-
#1125000
0c
0O"
00
b1 $"
0$
0~
0%
0}
b1101111 E"
1-
#1130000
0-
#1135000
0c
0O"
b1110000 E"
b10 $"
1-
#1140000
0-
#1145000
1=
0c
0O"
1Y
b100 $"
b1110001 E"
1-
#1150000
0-
#1155000
0=
0c
0O"
b10011 H"
b1110010 E"
0Y
b0 $"
b1001100 &
b1001100 ;
b1001100 #"
b1001100 ]"
1-
#1160000
0-
#1165000
0c
0O"
1$
1~
1%
1}
b1110011 E"
1-
#1170000
0-
#1175000
0c
0O"
b1110100 E"
10
1-
#1180000
0-
#1185000
0c
0O"
00
b1 $"
0$
0~
0%
0}
b1110101 E"
1-
#1190000
0-
#1195000
0c
0O"
b1110110 E"
b10 $"
1-
#1200000
0-
#1205000
1=
0c
0O"
1Y
b100 $"
b1110111 E"
1-
#1210000
0-
#1215000
0=
0c
0O"
b10100 H"
b1111000 E"
0Y
b0 $"
b1010000 &
b1010000 ;
b1010000 #"
b1010000 ]"
1-
#1220000
0-
#1225000
0c
0O"
1$
1~
1%
1}
b1111001 E"
1-
#1230000
0-
#1235000
0c
0O"
b1111010 E"
10
1-
#1240000
0-
#1245000
0c
0O"
00
b1 $"
0$
0~
0%
0}
b1111011 E"
1-
#1250000
0-
#1255000
0c
0O"
b1111100 E"
b10 $"
1-
#1260000
0-
#1265000
1=
0c
0O"
1Y
b100 $"
b1111101 E"
1-
#1270000
0-
