sim/tb_hierarchical_core.vcd
$date
	Thu Dec 18 22:48:47 2025
$end
$version
	Icarus Verilog
$end
$timescale
	1ps
$end
$scope module tb_hierarchical_core $end
$var wire 4 ! dwb_sel [3:0] $end
$var wire 1 " iwb_stb $end
$var wire 1 # iwb_cyc $end
$var wire 32 $ iwb_adr [31:0] $end
$var wire 1 % dwb_we $end
$var wire 1 & dwb_stb $end
$var wire 32 ' dwb_dat_out [31:0] $end
$var wire 1 ( dwb_cyc $end
$var wire 32 ) dwb_adr [31:0] $end
$var reg 1 * clk $end
$var reg 1 + dwb_ack $end
$var reg 32 , dwb_dat_in [31:0] $end
$var reg 1 - dwb_err $end
$var reg 16 . interrupts [15:0] $end
$var reg 1 / iwb_ack $end
$var reg 32 0 iwb_dat_in [31:0] $end
$var reg 1 1 iwb_err $end
$var reg 1 2 rst_n $end
$var integer 32 3 instr_count [31:0] $end
$scope module dut $end
$var wire 1 * clk $end
$var wire 1 + dwb_ack_i $end
$var wire 32 4 dwb_dat_i [31:0] $end
$var wire 1 - dwb_err_i $end
$var wire 4 5 dwb_sel_o [3:0] $end
$var wire 16 6 interrupts [15:0] $end
$var wire 1 / iwb_ack_i $end
$var wire 32 7 iwb_dat_i [31:0] $end
$var wire 1 1 iwb_err_i $end
$var wire 1 2 rst_n $end
$var wire 1 8 mdu_start $end
$var wire 32 9 mdu_remainder [31:0] $end
$var wire 32 : mdu_quotient [31:0] $end
$var wire 64 ; mdu_product [63:0] $end
$var wire 32 < mdu_operand_b [31:0] $end
$var wire 32 = mdu_operand_a [31:0] $end
$var wire 3 > mdu_funct3 [2:0] $end
$var wire 1 ? mdu_done $end
$var wire 1 @ mdu_busy $end
$var wire 1 A mdu_ack $end
$var wire 1 " iwb_stb_o $end
$var wire 1 # iwb_cyc_o $end
$var wire 32 B iwb_adr_o [31:0] $end
$var wire 1 % dwb_we_o $end
$var wire 1 & dwb_stb_o $end
$var wire 32 C dwb_dat_o [31:0] $end
$var wire 1 ( dwb_cyc_o $end
$var wire 32 D dwb_adr_o [31:0] $end
$scope module u_core_macro $end
$var wire 32 E alu_operand_a [31:0] $end
$var wire 1 F branch_taken $end
$var wire 1 * clk $end
$var wire 3 G csr_op [2:0] $end
$var wire 1 + dwb_ack_i $end
$var wire 32 H dwb_adr_o [31:0] $end
$var wire 1 ( dwb_cyc_o $end
$var wire 32 I dwb_dat_i [31:0] $end
$var wire 32 J dwb_dat_o [31:0] $end
$var wire 1 - dwb_err_i $end
$var wire 4 K dwb_sel_o [3:0] $end
$var wire 1 & dwb_stb_o $end
$var wire 1 % dwb_we_o $end
$var wire 32 L interrupts [31:0] $end
$var wire 1 M is_zpec $end
$var wire 1 / iwb_ack_i $end
$var wire 32 N iwb_adr_o [31:0] $end
$var wire 1 # iwb_cyc_o $end
$var wire 32 O iwb_dat_i [31:0] $end
$var wire 1 " iwb_stb_o $end
$var wire 1 A mdu_ack $end
$var wire 1 P mdu_busy_int $end
$var wire 1 Q mdu_done_int $end
$var wire 3 R mdu_funct3 [2:0] $end
$var wire 32 S mdu_operand_a [31:0] $end
$var wire 32 T mdu_operand_b [31:0] $end
$var wire 64 U mdu_product_int [63:0] $end
$var wire 32 V mdu_quotient_int [31:0] $end
$var wire 32 W mdu_remainder_int [31:0] $end
$var wire 1 8 mdu_start $end
$var wire 1 X rd_wen $end
$var wire 1 2 rst_n $end
$var wire 32 Y trap_vector [31:0] $end
$var wire 32 Z rs2_data [31:0] $end
$var wire 5 [ rs2_addr [4:0] $end
$var wire 32 \ rs1_data [31:0] $end
$var wire 5 ] rs1_addr [4:0] $end
$var wire 1 ^ reg_write $end
$var wire 32 _ rd_data [31:0] $end
$var wire 5 ` rd_addr [4:0] $end
$var wire 7 a opcode [6:0] $end
$var wire 1 b mem_write $end
$var wire 1 c mem_read $end
$var wire 32 d mdu_remainder [31:0] $end
$var wire 32 e mdu_quotient [31:0] $end
$var wire 64 f mdu_product [63:0] $end
$var wire 1 ? mdu_done $end
$var wire 1 @ mdu_busy $end
$var wire 1 g is_system $end
$var wire 1 h is_mret $end
$var wire 1 i is_m $end
$var wire 1 j is_jump $end
$var wire 1 k is_ecall $end
$var wire 1 l is_ebreak $end
$var wire 1 m is_branch $end
$var wire 1 n interrupt_pending $end
$var wire 1 o interrupt_enabled $end
$var wire 32 p interrupt_cause [31:0] $end
$var wire 32 q immediate [31:0] $end
$var wire 1 r illegal_instr $end
$var wire 7 s funct7 [6:0] $end
$var wire 3 t funct3 [2:0] $end
$var wire 32 u exception_val [31:0] $end
$var wire 1 v exception_taken $end
$var wire 32 w exception_cause [31:0] $end
$var wire 32 x epc_out [31:0] $end
$var wire 32 y csr_wdata [31:0] $end
$var wire 1 z csr_valid $end
$var wire 32 { csr_rdata [31:0] $end
$var wire 12 | csr_addr [11:0] $end
$var wire 32 } branch_target [31:0] $end
$var wire 1 ~ alu_zero $end
$var wire 1 !" alu_src_imm $end
$var wire 32 "" alu_result [31:0] $end
$var wire 32 #" alu_operand_b [31:0] $end
$var wire 4 $" alu_op [3:0] $end
$var parameter 32 %" RESET_VECTOR $end
$var parameter 3 &" STATE_DECODE $end
$var parameter 3 '" STATE_EXECUTE $end
$var parameter 3 (" STATE_FETCH $end
$var parameter 3 )" STATE_MEM $end
$var parameter 3 *" STATE_MULDIV $end
$var parameter 3 +" STATE_TRAP $end
$var parameter 3 ," STATE_WRITEBACK $end
$var reg 32 -" alu_result_reg [31:0] $end
$var reg 1 ." dmem_ack_r $end
$var reg 1 /" dmem_req $end
$var reg 1 0" ifetch_ack_r $end
$var reg 1 1" ifetch_req $end
$var reg 1 2" instr_retired $end
$var reg 32 3" instruction [31:0] $end
$var reg 1 4" mdu_ack_int $end
$var reg 3 5" mdu_funct3_int [2:0] $end
$var reg 2 6" mdu_pending [1:0] $end
$var reg 32 7" mdu_result_reg [31:0] $end
$var reg 32 8" mdu_selected_temp [31:0] $end
$var reg 1 9" mdu_start_int $end
$var reg 32 :" mem_data_reg [31:0] $end
$var reg 32 ;" pc [31:0] $end
$var reg 3 <" state [2:0] $end
$var reg 32 =" trap_cause [31:0] $end
$var reg 1 >" trap_entry $end
$var reg 32 ?" trap_pc [31:0] $end
$var reg 1 @" trap_return $end
$var reg 32 A" trap_val [31:0] $end
$scope module alu_inst $end
$var wire 32 B" operand_a [31:0] $end
$var wire 32 C" operand_b [31:0] $end
$var wire 1 ~ zero $end
$var wire 4 D" alu_op [3:0] $end
$var reg 32 E" result [31:0] $end
$upscope $end
$scope module csr_inst $end
$var wire 1 * clk $end
$var wire 12 F" csr_addr [11:0] $end
$var wire 3 G" csr_op [2:0] $end
$var wire 1 z csr_valid $end
$var wire 32 H" csr_wdata [31:0] $end
$var wire 32 I" epc_out [31:0] $end
$var wire 1 2" instr_retired $end
$var wire 1 o interrupt_enabled $end
$var wire 1 n interrupt_pending $end
$var wire 32 J" interrupts_i [31:0] $end
$var wire 32 K" pending_and_enabled [31:0] $end
$var wire 1 2 rst_n $end
$var wire 32 L" trap_cause [31:0] $end
$var wire 1 >" trap_entry $end
$var wire 32 M" trap_pc [31:0] $end
$var wire 1 @" trap_return $end
$var wire 32 N" trap_val [31:0] $end
$var wire 2 O" mtvec_mode [1:0] $end
$var wire 32 P" mtvec_base [31:0] $end
$var wire 1 Q" mpie_bit $end
$var wire 1 R" mie_bit $end
$var wire 1 S" csr_write $end
$var parameter 32 T" MARCHID $end
$var parameter 32 U" MHARTID $end
$var parameter 32 V" MIMPID $end
$var parameter 32 W" MISA $end
$var parameter 32 X" MVENDORID $end
$var reg 32 Y" csr_rdata [31:0] $end
$var reg 32 Z" csr_wdata_final [31:0] $end
$var reg 32 [" interrupt_cause [31:0] $end
$var reg 32 \" mcause [31:0] $end
$var reg 64 ]" mcycle [63:0] $end
$var reg 32 ^" mepc [31:0] $end
$var reg 32 _" mie [31:0] $end
$var reg 64 `" minstret [63:0] $end
$var reg 32 a" mip [31:0] $end
$var reg 32 b" mscratch [31:0] $end
$var reg 32 c" mstatus [31:0] $end
$var reg 32 d" mtval [31:0] $end
$var reg 32 e" mtvec [31:0] $end
$var reg 32 f" trap_vector [31:0] $end
$var reg 1 g" valid $end
$var integer 32 h" i [31:0] $end
$upscope $end
$scope module decoder_inst $end
$var wire 32 i" instruction [31:0] $end
$var wire 1 M is_zpec $end
$var wire 5 j" rs2_addr [4:0] $end
$var wire 5 k" rs1_addr [4:0] $end
$var wire 5 l" rd_addr [4:0] $end
$var wire 7 m" opcode [6:0] $end
$var wire 7 n" funct7 [6:0] $end
$var wire 3 o" funct3 [2:0] $end
$var reg 4 p" alu_op [3:0] $end
$var reg 1 !" alu_src_imm $end
$var reg 1 r illegal_instr $end
$var reg 32 q" immediate [31:0] $end
$var reg 1 m is_branch $end
$var reg 1 l is_ebreak $end
$var reg 1 k is_ecall $end
$var reg 1 j is_jump $end
$var reg 1 i is_m $end
$var reg 1 h is_mret $end
$var reg 1 g is_system $end
$var reg 1 r" is_wfi $end
$var reg 1 c mem_read $end
$var reg 1 b mem_write $end
$var reg 1 ^ reg_write $end
$upscope $end
$scope module exc_unit $end
$var wire 1 - bus_error $end
$var wire 1 l ebreak $end
$var wire 1 k ecall $end
$var wire 3 s" funct3 [2:0] $end
$var wire 1 r illegal_instr $end
$var wire 32 t" instruction [31:0] $end
$var wire 32 u" mem_addr [31:0] $end
$var wire 1 c mem_read $end
$var wire 1 b mem_write $end
$var wire 32 v" pc [31:0] $end
$var reg 32 w" exception_cause [31:0] $end
$var reg 1 v exception_taken $end
$var reg 32 x" exception_val [31:0] $end
$upscope $end
$scope module regfile_inst $end
$var wire 1 * clk $end
$var wire 5 y" rd_addr [4:0] $end
$var wire 32 z" rd_data [31:0] $end
$var wire 1 X rd_wen $end
$var wire 5 {" rs1_addr [4:0] $end
$var wire 5 |" rs2_addr [4:0] $end
$var wire 1 2 rst_n $end
$var wire 32 }" rs2_data [31:0] $end
$var wire 32 ~" rs1_data [31:0] $end
$var integer 32 !# i [31:0] $end
$upscope $end
$upscope $end
$scope module u_mdu_macro $end
$var wire 1 A ack $end
$var wire 1 * clk $end
$var wire 3 "# funct3 [2:0] $end
$var wire 32 ## operand_a [31:0] $end
$var wire 32 $# operand_b [31:0] $end
$var wire 1 2 rst_n $end
$var wire 1 8 start $end
$var wire 32 %# remainder [31:0] $end
$var wire 32 &# quotient [31:0] $end
$var wire 64 '# product [63:0] $end
$var wire 1 ? done $end
$var wire 1 @ busy $end
$scope module mdu_inst $end
$var wire 32 (# a [31:0] $end
$var wire 1 A ack $end
$var wire 32 )# b [31:0] $end
$var wire 1 * clk $end
$var wire 3 *# funct3 [2:0] $end
$var wire 1 +# is_div $end
$var wire 1 ,# is_mul $end
$var wire 1 -# mul_signed_a $end
$var wire 1 2 rst_n $end
$var wire 1 8 start $end
$var wire 1 .# mul_signed_b $end
$var wire 2 /# div_op_sel [1:0] $end
$var parameter 2 0# DIV $end
$var parameter 2 1# DIV2 $end
$var parameter 2 2# IDLE $end
$var parameter 2 3# MUL $end
$var reg 32 4# a_latched [31:0] $end
$var reg 64 5# acc [63:0] $end
$var reg 32 6# b_latched [31:0] $end
$var reg 1 @ busy $end
$var reg 6 7# div_count [5:0] $end
$var reg 1 8# div_sign_q $end
$var reg 1 9# div_sign_r $end
$var reg 32 :# dividend [31:0] $end
$var reg 32 ;# divisor [31:0] $end
$var reg 1 ? done $end
$var reg 6 <# mul_count [5:0] $end
$var reg 1 =# mul_sign $end
$var reg 64 ># multiplicand [63:0] $end
$var reg 32 ?# multiplier [31:0] $end
$var reg 3 @# op_latched [2:0] $end
$var reg 64 A# product [63:0] $end
$var reg 32 B# quotient [31:0] $end
$var reg 32 C# quotient_reg [31:0] $end
$var reg 32 D# remainder [31:0] $end
$var reg 33 E# remainder_reg [32:0] $end
$var reg 2 F# state [1:0] $end
$upscope $end
$upscope $end
$upscope $end
$scope begin $ivl_for_loop0 $end
$var integer 32 G# i [31:0] $end
$upscope $end
$upscope $end
$enddefinitions $end
$comment Show the parameter values. $end
$dumpall
b1 3#
b0 2#
b11 1#
b10 0#
b0 X"
b1000000000000000000000100000000 W"
b1 V"
b0 U"
b0 T"
b100 ,"
b110 +"
b101 *"
b11 )"
b0 ("
b10 '"
b1 &"
b0 %"
$end
#0
$dumpvars
b10000000000 G#
bx F#
bx E#
bx D#
bx C#
bx B#
bx A#
bx @#
bx ?#
bx >#
x=#
bx <#
bx ;#
bx :#
x9#
x8#
bx 7#
bx 6#
bx 5#
bx 4#
bx /#
x.#
x-#
x,#
x+#
bx *#
bx )#
bx (#
bx '#
bx &#
bx %#
bx $#
bx ##
bx "#
bx !#
bx ~"
bx }"
bx |"
bx {"
bx z"
bx y"
b0 x"
b0 w"
bx v"
bx u"
bx t"
bx s"
xr"
bx q"
bx p"
bx o"
bx n"
bx m"
bx l"
bx k"
bx j"
bx i"
bx h"
xg"
bx00 f"
bx e"
bx d"
bx c"
bx b"
bx a"
bx `"
bx _"
bx ^"
bx ]"
bx \"
bx ["
bx Z"
bx Y"
xS"
xR"
xQ"
bx00 P"
bx O"
bx N"
bx M"
bx L"
bx K"
b0 J"
bx I"
bx H"
bx G"
bx F"
bx E"
bx D"
bx C"
bx B"
bx A"
x@"
bx ?"
x>"
bx ="
bx <"
bx ;"
bx :"
x9"
bx 8"
bx 7"
bx 6"
bx 5"
x4"
bx 3"
x2"
x1"
x0"
x/"
x."
bx -"
bx $"
bx #"
bx ""
x!"
x~
bx }
bx |
bx {
xz
bx y
bx x
b0 w
0v
b0 u
bx t
bx s
xr
bx q
bx p
xo
xn
xm
xl
xk
xj
xi
xh
xg
bx f
bx e
bx d
xc
xb
bx a
bx `
bx _
x^
bx ]
bx \
bx [
bx Z
bx00 Y
xX
bx W
bx V
bx U
bx T
bx S
bx R
xQ
xP
b0 O
bx N
0M
b0 L
b1111 K
bx J
b0 I
bx H
bx G
xF
bx E
bx D
bx C
bx B
xA
x@
x?
bx >
bx =
bx <
bx ;
bx :
bx 9
x8
b0 7
b0 6
b1111 5
b0 4
b0 3
02
01
b0 0
0/
b0 .
0-
b0 ,
0+
0*
bx )
x(
bx '
x&
x%
bx $
x#
x"
b1111 !
$end
#5000
1,#
0+#
b0 y
b0 H"
b0 Y
b0 f"
b11111111111111111111111111111111 h"
b0 p
b0 ["
0n
b0 _
b0 z"
0F
1~
b0 )
b0 D
b0 H
b0 ""
b0 E"
b0 u"
b0 |
b0 F"
b0 #"
b0 C"
b0 Z"
b10 w
b10 w"
1v
b0 E
b0 B"
b0 =
b0 S
b0 ##
b0 (#
b0 \
b0 ~"
b0 '
b0 C
b0 J
b0 <
b0 T
b0 $#
b0 )#
b0 Z
b0 }"
0X
0-#
b11 /#
b0 O"
b0 P"
b0 K"
0z
0g"
b0 {
b0 Y"
0o
0R"
0Q"
1r
0r"
0h
0l
0k
0i
0g
0j
0m
0^
0%
0b
0c
0!"
b0 $"
b0 D"
b0 p"
b0 }
b0 q
b0 q"
b0 a
b0 m"
0S"
b0 G
b0 G"
b0 t
b0 o"
b0 s"
b0 s
b0 n"
b0 ]
b0 k"
b0 {"
b0 [
b0 j"
b0 |"
b0 `
b0 l"
b0 y"
b0 6#
b0 4#
0.#
b0 @#
09#
08#
b0 7#
b0 E#
b0 C#
b0 ;#
b0 :#
b0 <#
b0 5#
b0 ?#
b0 >#
b0 W
b0 9
b0 d
b0 %#
b0 D#
b0 V
b0 :
b0 e
b0 &#
b0 B#
b0 U
b0 ;
b0 f
b0 '#
b0 A#
0Q
0?
0P
0@
b0 F#
b0 a"
b0 `"
b0 ]"
b0 d"
b0 \"
b0 x
b0 I"
b0 ^"
b0 b"
b0 e"
b0 _"
b0 c"
b0 >
b0 R
b0 "#
b0 *#
b0 5"
b0 6"
b0 7"
0A
04"
08
09"
02"
b0 A"
b0 N"
b0 ="
b0 L"
b0 ?"
b0 M"
0@"
0>"
b0 -"
b0 :"
0."
00"
0&
0(
0/"
0"
0#
01"
b0 3"
b0 i"
b0 t"
b0 <"
b0 $
b0 B
b0 N
b0 ;"
b0 v"
b100000 !#
1*
#10000
0*
#15000
b100000 !#
1*
#20000
0*
#25000
b100000 !#
1*
#30000
0*
#35000
b100000 !#
1*
#40000
0*
#45000
b100000 !#
1*
#50000
0*
#55000
b100000 !#
1*
#60000
0*
#65000
b100000 !#
1*
#70000
0*
#75000
b100000 !#
1*
#80000
0*
#85000
b100000 !#
1*
#90000
0*
#95000
b100000 !#
1*
#100000
0*
12
#105000
0z
0g"
b1 ]"
1"
1#
11"
1*
#110000
0*
#115000
0z
0g"
b10 ]"
b110011 0
b110011 7
b110011 O
1/
1*
#120000
0*
#125000
0z
0g"
1^
0r
b110011 a
b110011 m"
b0 u
b0 x"
b0 w
b0 w"
0v
b11 ]"
b1 <"
0"
0#
01"
b110011 3"
b110011 i"
b110011 t"
10"
0/
b1 3
1*
#130000
0*
#135000
0z
0g"
b10 <"
00"
b100 ]"
1*
#140000
0*
#145000
1X
0z
0g"
b101 ]"
b100 <"
b100 }
b100 $
b100 B
b100 N
b100 ;"
b100 v"
1*
#150000
0*
#155000
0X
0z
0g"
b0 <"
12"
b110 ]"
1*
#160000
0*
#165000
0z
0g"
b1 `"
b111 ]"
1"
1#
11"
02"
1*
#170000
0*
#175000
0z
0g"
b1000 ]"
b101000000000000100010011 0
b101000000000000100010011 7
b101000000000000100010011 O
1/
1*
#180000
0*
#185000
0~
b1010 )
b1010 D
b1010 H
b1010 ""
b1010 E"
b1010 u"
b1010 #"
b1010 C"
b1010 |
b1010 F"
0z
0g"
1!"
1^
b1110 }
b1010 q
b1010 q"
b10011 a
b10011 m"
b1010 [
b1010 j"
b1010 |"
b10 `
b10 l"
b10 y"
b1001 ]"
b1 <"
0"
0#
01"
b101000000000000100010011 3"
b101000000000000100010011 i"
b101000000000000100010011 t"
10"
0/
b10 3
1*
#190000
0*
#195000
0z
0g"
b10 <"
00"
b1010 ]"
1*
#200000
0*
#205000
b1010 _
b1010 z"
1X
0z
0g"
b1011 ]"
b100 <"
b10010 }
b1000 $
b1000 B
b1000 N
b1000 ;"
b1000 v"
b1010 -"
1*
#210000
0*
#215000
0X
0z
0g"
b0 <"
12"
b1100 ]"
1*
#220000
0*
#225000
0z
0g"
b10 `"
b1101 ]"
1"
1#
11"
02"
1*
#230000
0*
#235000
0z
0g"
b1110 ]"
b10100000000000110010011 0
b10100000000000110010011 7
b10100000000000110010011 O
1/
1*
#240000
0*
#245000
b101 )
b101 D
b101 H
b101 ""
b101 E"
b101 u"
b101 |
b101 F"
b101 #"
b101 C"
0z
0g"
1^
1!"
b1101 }
b101 q
b101 q"
b101 [
b101 j"
b101 |"
b11 `
b11 l"
b11 y"
b1111 ]"
b1 <"
0"
0#
01"
b10100000000000110010011 3"
b10100000000000110010011 i"
b10100000000000110010011 t"
10"
0/
b11 3
1*
#250000
0*
#255000
0z
0g"
b10 <"
00"
b10000 ]"
1*
#260000
0*
#265000
b101 _
b101 z"
1X
0z
0g"
b10001 ]"
b100 <"
b10001 }
b1100 $
b1100 B
b1100 N
b1100 ;"
b1100 v"
b101 -"
1*
#270000
0*
#275000
0X
0z
0g"
b0 <"
12"
b10010 ]"
1*
#280000
0*
#285000
0z
0g"
b11 `"
b10011 ]"
1"
1#
11"
02"
1*
#290000
0*
#295000
0z
0g"
b10100 ]"
b10001100010000001000110011 0
b10001100010000001000110011 7
b10001100010000001000110011 O
1/
1*
#300000
0*
#305000
b0 _
b0 z"
b1010 y
b1010 H"
x~
bx )
bx D
bx H
bx ""
bx E"
bx u"
b0 |
b0 F"
b1010 E
b1010 B"
b1010 =
b1010 S
b1010 ##
b1010 (#
b1010 \
b1010 ~"
b101 '
b101 C
b101 J
b101 <
b101 T
b101 $#
b101 )#
b101 Z
b101 }"
0z
0g"
b1010 $"
b1010 D"
b1010 p"
1i
1^
0!"
b1100 }
b0 q
b0 q"
b110011 a
b110011 m"
b1 s
b1 n"
b10 ]
b10 k"
b10 {"
b11 [
b11 j"
b11 |"
b100 `
b100 l"
b100 y"
b10101 ]"
b1 <"
0"
0#
01"
b10001100010000001000110011 3"
b10001100010000001000110011 i"
b10001100010000001000110011 t"
10"
0/
b100 3
1*
#310000
0*
#315000
0z
0g"
b10 <"
00"
b10110 ]"
1*
#320000
0*
#325000
0z
0g"
b10111 ]"
b101 <"
18
19"
1*
#330000
0*
#335000
0z
0g"
08
09"
b11000 ]"
b1 F#
1P
1@
b101 ?#
b1010 >#
0=#
b101 6#
b1010 4#
1*
#340000
0*
#345000
0z
0g"
b1 <#
b10 ?#
b10100 >#
b1010 5#
b11001 ]"
1*
#350000
0*
#355000
0z
0g"
b11010 ]"
b10 <#
b1 ?#
b101000 >#
1*
#360000
0*
#365000
0z
0g"
b11 <#
b0 ?#
b1010000 >#
b110010 5#
b11011 ]"
1*
#370000
0*
#375000
0z
0g"
b11100 ]"
b100 <#
b10100000 >#
1*
#380000
0*
#385000
0z
0g"
b101 <#
b101000000 >#
b11101 ]"
1*
#390000
0*
#395000
0z
0g"
b11110 ]"
b110 <#
b1010000000 >#
1*
#400000
0*
#405000
0z
0g"
b111 <#
b10100000000 >#
b11111 ]"
1*
#410000
0*
#415000
0z
0g"
b100000 ]"
b1000 <#
b101000000000 >#
1*
#420000
0*
#425000
0z
0g"
b1001 <#
b1010000000000 >#
b100001 ]"
1*
#430000
0*
#435000
0z
0g"
b100010 ]"
b1010 <#
b10100000000000 >#
1*
#440000
0*
#445000
0z
0g"
b1011 <#
b101000000000000 >#
b100011 ]"
1*
#450000
0*
#455000
0z
0g"
b100100 ]"
b1100 <#
b1010000000000000 >#
1*
#460000
0*
#465000
0z
0g"
b1101 <#
b10100000000000000 >#
b100101 ]"
1*
#470000
0*
#475000
0z
0g"
b100110 ]"
b1110 <#
b101000000000000000 >#
1*
#480000
0*
#485000
0z
0g"
b1111 <#
b1010000000000000000 >#
b100111 ]"
1*
#490000
0*
#495000
0z
0g"
b101000 ]"
b10000 <#
b10100000000000000000 >#
1*
#500000
0*
#505000
0z
0g"
b10001 <#
b101000000000000000000 >#
b101001 ]"
1*
#510000
0*
#515000
0z
0g"
b101010 ]"
b10010 <#
b1010000000000000000000 >#
1*
#520000
0*
#525000
0z
0g"
b10011 <#
b10100000000000000000000 >#
b101011 ]"
1*
#530000
0*
#535000
0z
0g"
b101100 ]"
b10100 <#
b101000000000000000000000 >#
1*
#540000
0*
#545000
0z
0g"
b10101 <#
b1010000000000000000000000 >#
b101101 ]"
1*
#550000
0*
#555000
0z
0g"
b101110 ]"
b10110 <#
b10100000000000000000000000 >#
1*
#560000
0*
#565000
0z
0g"
b10111 <#
b101000000000000000000000000 >#
b101111 ]"
1*
#570000
0*
#575000
0z
0g"
b110000 ]"
b11000 <#
b1010000000000000000000000000 >#
1*
#580000
0*
#585000
0z
0g"
b11001 <#
b10100000000000000000000000000 >#
b110001 ]"
1*
#590000
0*
#595000
0z
0g"
b110010 ]"
b11010 <#
b101000000000000000000000000000 >#
1*
#600000
0*
#605000
0z
0g"
b11011 <#
b1010000000000000000000000000000 >#
b110011 ]"
1*
#610000
0*
#615000
0z
0g"
b110100 ]"
b11100 <#
b10100000000000000000000000000000 >#
1*
#620000
0*
#625000
0z
0g"
b11101 <#
b101000000000000000000000000000000 >#
b110101 ]"
1*
#630000
0*
#635000
0z
0g"
b110110 ]"
b11110 <#
b1010000000000000000000000000000000 >#
1*
#640000
0*
#645000
0z
0g"
b11111 <#
b10100000000000000000000000000000000 >#
b110111 ]"
1*
#650000
0*
#655000
0z
0g"
b111000 ]"
b100000 <#
b101000000000000000000000000000000000 >#
1*
#660000
0*
#665000
0z
0g"
b0 F#
1Q
1?
0P
0@
b110010 U
b110010 ;
b110010 f
b110010 '#
b110010 A#
b111001 ]"
1*
#670000
0*
#675000
0z
0g"
b1 6"
1A
14"
b111010 ]"
b110010 8"
1*
#680000
0*
#685000
1X
b110010 _
b110010 z"
0z
0g"
0Q
0?
b111011 ]"
b100 <"
b10000 }
b10000 $
b10000 B
b10000 N
b10000 ;"
b10000 v"
b10 6"
b110010 7"
0A
04"
1*
#690000
0*
#695000
0X
0z
0g"
b0 <"
12"
b111100 ]"
1*
#700000
0*
#705000
0z
0g"
b100 `"
b111101 ]"
1"
1#
11"
02"
1*
#710000
0*
#715000
0z
0g"
b111110 ]"
b10001100100100001010110011 0
b10001100100100001010110011 7
b10001100100100001010110011 O
1/
1*
#720000
0*
#725000
b100 y
b100 H"
b110010 E
b110010 B"
b110010 =
b110010 S
b110010 ##
b110010 (#
b110010 \
b110010 ~"
0z
0g"
1i
1^
b1110 $"
b1110 D"
b1110 p"
1S"
b100 G
b100 G"
b100 t
b100 o"
b100 s"
b100 ]
b100 k"
b100 {"
b101 `
b101 l"
b101 y"
b111111 ]"
b1 <"
0"
0#
01"
b10001100100100001010110011 3"
b10001100100100001010110011 i"
b10001100100100001010110011 t"
10"
0/
b101 3
1*
#730000
0*
#735000
0z
0g"
b10 <"
00"
b1000000 ]"
1*
#740000
0*
#745000
0z
0g"
b1000001 ]"
b101 <"
b0 6"
b100 >
b100 R
b100 "#
b100 *#
b100 5"
18
19"
1*
#750000
0*
#755000
0,#
1+#
0z
0g"
b0 /#
08
09"
b1000010 ]"
b10 F#
b101 ;#
b110010 :#
1P
1@
b110010 4#
b100 @#
1*
#760000
0*
#765000
0z
0g"
b1 7#
b1000011 ]"
1*
#770000
0*
#775000
0z
0g"
b1000100 ]"
b10 7#
1*
#780000
0*
#785000
0z
0g"
b11 7#
b1000101 ]"
1*
#790000
0*
#795000
0z
0g"
b1000110 ]"
b100 7#
1*
#800000
0*
#805000
0z
0g"
b101 7#
b1000111 ]"
1*
#810000
0*
#815000
0z
0g"
b1001000 ]"
b110 7#
1*
#820000
0*
#825000
0z
0g"
b111 7#
b1001001 ]"
1*
#830000
0*
#835000
0z
0g"
b1001010 ]"
b1000 7#
1*
#840000
0*
#845000
0z
0g"
b1001 7#
b1001011 ]"
1*
#850000
0*
#855000
0z
0g"
b1001100 ]"
b1010 7#
1*
#860000
0*
#865000
0z
0g"
b1011 7#
b1001101 ]"
1*
#870000
0*
#875000
0z
0g"
b1001110 ]"
b1100 7#
1*
#880000
0*
#885000
0z
0g"
b1101 7#
b1001111 ]"
1*
#890000
0*
#895000
0z
0g"
b1010000 ]"
b1110 7#
1*
#900000
0*
#905000
0z
0g"
b1111 7#
b1010001 ]"
1*
#910000
0*
#915000
0z
0g"
b1010010 ]"
b10000 7#
1*
#920000
0*
#925000
0z
0g"
b10001 7#
b1010011 ]"
1*
#930000
0*
#935000
0z
0g"
b1010100 ]"
b10010 7#
1*
#940000
0*
#945000
0z
0g"
b10011 7#
b1010101 ]"
1*
#950000
0*
#955000
0z
0g"
b1010110 ]"
b10100 7#
1*
#960000
0*
#965000
0z
0g"
b10101 7#
b1010111 ]"
1*
#970000
0*
#975000
0z
0g"
b1011000 ]"
b10110 7#
1*
#980000
0*
#985000
0z
0g"
b10111 7#
b1011001 ]"
1*
#990000
0*
#995000
0z
0g"
b1011010 ]"
b11000 7#
1*
#1000000
0*
#1005000
0z
0g"
b11001 7#
b1011011 ]"
1*
#1010000
0*
#1015000
0z
0g"
b1011100 ]"
b11010 7#
1*
#1020000
0*
#1025000
0z
0g"
b11011 7#
b1 E#
b1011101 ]"
1*
#1030000
0*
#1035000
0z
0g"
b1011110 ]"
b11100 7#
b11 E#
1*
#1040000
0*
#1045000
0z
0g"
b11101 7#
b1 C#
b1 E#
b1011111 ]"
1*
#1050000
0*
#1055000
0z
0g"
b1100000 ]"
b11110 7#
b10 C#
b10 E#
1*
#1060000
0*
#1065000
0z
0g"
b11111 7#
b101 C#
b0 E#
b1100001 ]"
1*
#1070000
0*
#1075000
0z
0g"
b1100010 ]"
b100000 7#
b1010 C#
1*
#1080000
0*
#1085000
0z
0g"
b11 F#
b1100011 ]"
1*
#1090000
0*
#1095000
0z
0g"
b1100100 ]"
b0 F#
1Q
1?
0P
0@
b1010 V
b1010 :
b1010 e
b1010 &#
b1010 B#
1*
#1100000
0*
#1105000
0z
0g"
b1100101 ]"
b1 6"
1A
14"
b1010 8"
1*
#1110000
0*
#1115000
1X
b1010 _
b1010 z"
0z
0g"
b100 <"
b10100 }
b10100 $
b10100 B
b10100 N
b10100 ;"
b10100 v"
b10 6"
b1010 7"
0A
04"
b1100110 ]"
0Q
0?
1*
#1120000
0*
#1125000
0X
0z
0g"
b1100111 ]"
b0 <"
12"
1*
#1130000
0*
#1135000
0z
0g"
1"
1#
11"
02"
b101 `"
b1101000 ]"
1*
#1140000
0*
#1145000
0z
0g"
b1101001 ]"
b10100000010000000100011 0
b10100000010000000100011 7
b10100000010000000100011 O
1/
1*
#1150000
0*
#1155000
b101 _
b101 z"
b0 u
b0 x"
b0 w
b0 w"
0v
b0 #"
b0 C"
1~
b0 )
b0 D
b0 H
b0 ""
b0 E"
b0 u"
b0 E
b0 B"
b0 =
b0 S
b0 ##
b0 (#
b0 \
b0 ~"
b0 y
b0 H"
b1010 '
b1010 C
b1010 J
b1010 <
b1010 T
b1010 $#
b1010 )#
b1010 Z
b1010 }"
1%
1b
1!"
0i
0^
b0 $"
b0 D"
b0 p"
b100011 a
b100011 m"
b10 G
b10 G"
b10 t
b10 o"
b10 s"
b0 s
b0 n"
b0 ]
b0 k"
b0 {"
b101 [
b101 j"
b101 |"
b0 `
b0 l"
b0 y"
0z
0g"
b1 <"
0"
0#
01"
b10100000010000000100011 3"
b10100000010000000100011 i"
b10100000010000000100011 t"
10"
b1101010 ]"
0/
b110 3
1*
#1160000
0*
#1165000
0z
0g"
b1101011 ]"
b10 <"
00"
1*
#1170000
0*
