sim/testbench/csr_unit.vcd
$date
	Wed Dec 10 21:35:25 2025
$end
$version
	Icarus Verilog
$end
$timescale
	1ps
$end
$scope module tb_csr_unit $end
$var wire 32 ! trap_vector [31:0] $end
$var wire 1 " interrupt_pending $end
$var wire 1 # interrupt_enabled $end
$var wire 32 $ interrupt_cause [31:0] $end
$var wire 32 % epc_out [31:0] $end
$var wire 1 & csr_valid $end
$var wire 32 ' csr_rdata [31:0] $end
$var reg 1 ( clk $end
$var reg 12 ) csr_addr [11:0] $end
$var reg 3 * csr_op [2:0] $end
$var reg 32 + csr_wdata [31:0] $end
$var reg 1 , instr_retired $end
$var reg 32 - interrupts_i [31:0] $end
$var reg 1 . rst_n $end
$var reg 32 / trap_cause [31:0] $end
$var reg 1 0 trap_entry $end
$var reg 32 1 trap_pc [31:0] $end
$var reg 1 2 trap_return $end
$var reg 32 3 trap_val [31:0] $end
$scope module dut $end
$var wire 1 ( clk $end
$var wire 12 4 csr_addr [11:0] $end
$var wire 3 5 csr_op [2:0] $end
$var wire 1 & csr_valid $end
$var wire 32 6 csr_wdata [31:0] $end
$var wire 32 7 epc_out [31:0] $end
$var wire 1 , instr_retired $end
$var wire 1 # interrupt_enabled $end
$var wire 1 " interrupt_pending $end
$var wire 32 8 interrupts_i [31:0] $end
$var wire 32 9 pending_and_enabled [31:0] $end
$var wire 1 . rst_n $end
$var wire 32 : trap_cause [31:0] $end
$var wire 1 0 trap_entry $end
$var wire 32 ; trap_pc [31:0] $end
$var wire 1 2 trap_return $end
$var wire 32 < trap_val [31:0] $end
$var wire 2 = mtvec_mode [1:0] $end
$var wire 32 > mtvec_base [31:0] $end
$var wire 1 ? mpie_bit $end
$var wire 1 @ mie_bit $end
$var wire 1 A csr_write $end
$var parameter 32 B MARCHID $end
$var parameter 32 C MHARTID $end
$var parameter 32 D MIMPID $end
$var parameter 32 E MISA $end
$var parameter 32 F MVENDORID $end
$var reg 32 G csr_rdata [31:0] $end
$var reg 32 H csr_wdata_final [31:0] $end
$var reg 32 I interrupt_cause [31:0] $end
$var reg 32 J mcause [31:0] $end
$var reg 64 K mcycle [63:0] $end
$var reg 32 L mepc [31:0] $end
$var reg 32 M mie [31:0] $end
$var reg 64 N minstret [63:0] $end
$var reg 32 O mip [31:0] $end
$var reg 32 P mscratch [31:0] $end
$var reg 32 Q mstatus [31:0] $end
$var reg 32 R mtval [31:0] $end
$var reg 32 S mtvec [31:0] $end
$var reg 32 T trap_vector [31:0] $end
$var reg 1 U valid $end
$var integer 32 V i [31:0] $end
$upscope $end
$upscope $end
$enddefinitions $end
$comment Show the parameter values. $end
$dumpall
b0 F
b1000000000000000000000100000000 E
b1 D
b0 C
b0 B
$end
#0
$dumpvars
b11111111111111111111111111111111 V
0U
b0 T
b0 S
b0 R
b0 Q
b0 P
b0 O
b0 N
b0 M
b0 L
b0 K
b0 J
b0 I
b0 H
b0 G
0A
0@
0?
b0 >
b0 =
b0 <
b0 ;
b0 :
b0 9
b0 8
b0 7
b0 6
b0 5
b0 4
b0 3
02
b0 1
00
b0 /
0.
b0 -
0,
b0 +
b0 *
b0 )
0(
b0 '
0&
b0 %
b0 $
0#
0"
b0 !
$end
#5000
1(
#10000
0(
#15000
1(
#20000
0(
1.
#25000
0&
0U
b1 K
1(
#30000
b1000000000000000000000100000000 '
b1000000000000000000000100000000 G
1&
1U
0(
b1100000001 )
b1100000001 4
#35000
b1000000000000000000000100000000 '
b1000000000000000000000100000000 G
b10 K
1(
#40000
b0 '
b0 G
0(
b111100010001 )
b111100010001 4
#45000
b11 K
1(
#50000
b1000 H
0(
1A
b1 *
b1 5
b1000 +
b1000 6
b1100000000 )
b1100000000 4
#55000
1#
1@
b1000 '
b1000 G
b1000 Q
b100 K
1(
#60000
b0 H
0(
0A
b0 *
b0 5
#65000
b1000 '
b1000 G
b101 K
1(
#70000
b10001000 H
0(
1A
b10 *
b10 5
b10000000 +
b10000000 6
#75000
1?
b10001000 '
b10001000 G
b10001000 Q
b110 K
1(
#80000
b0 H
0(
0A
b0 *
b0 5
#85000
b10001000 '
b10001000 G
b111 K
1(
#90000
b10000000 H
0(
1A
b11 *
b11 5
b1000 +
b1000 6
#95000
0#
0@
b10000000 '
b10000000 G
b10000000 Q
b1000 K
1(
#100000
b0 H
0(
0A
b0 *
b0 5
#105000
b10000000 '
b10000000 G
b1001 K
1(
#110000
b1000000000000 H
b0 '
b0 G
0(
1A
b1 *
b1 5
b1000000000000 +
b1000000000000 6
b1100000101 )
b1100000101 4
#115000
b1000000000000 !
b1000000000000 T
b1000000000000 >
b1000000000000 '
b1000000000000 G
b1000000000000 S
b1010 K
1(
#120000
b0 H
0(
0A
b0 *
b0 5
#125000
b1000000000000 '
b1000000000000 G
b1011 K
1(
#130000
b1000 H
b10000000 '
b10000000 G
0(
1A
b1 *
b1 5
b1000 +
b1000 6
b1100000000 )
b1100000000 4
#135000
1#
1@
0?
b1000 '
b1000 G
b1000 Q
b1100 K
1(
#140000
b0 H
0(
0A
b0 *
b0 5
#145000
b1000 '
b1000 G
b1101 K
1(
#150000
0(
b10000000000000000000000000001011 /
b10000000000000000000000000001011 :
b100000000 1
b100000000 ;
10
#155000
0#
0@
1?
b1100010000000 '
b1100010000000 G
b1100010000000 Q
b10000000000000000000000000001011 J
b100000000 %
b100000000 7
b100000000 L
b1110 K
1(
#160000
0(
00
#165000
b1100010000000 '
b1100010000000 G
b1111 K
1(
#170000
b100000000 '
b100000000 G
0(
b1101000001 )
b1101000001 4
#175000
b100000000 '
b100000000 G
b10000 K
1(
#180000
b10000000000000000000000000001011 '
b10000000000000000000000000001011 G
0(
b1101000010 )
b1101000010 4
#185000
b10000000000000000000000000001011 '
b10000000000000000000000000001011 G
b10001 K
1(
#190000
b1100010000000 '
b1100010000000 G
0(
b1100000000 )
b1100000000 4
#195000
b1100010000000 '
b1100010000000 G
b10010 K
1(
#200000
0(
12
#205000
1#
1@
b1100010001000 '
b1100010001000 G
b1100010001000 Q
b10011 K
1(
#210000
0(
02
#215000
b1100010001000 '
b1100010001000 G
b10100 K
1(
#220000
0(
#225000
b1100010001000 '
b1100010001000 G
b10101 K
1(
#230000
b10000000 H
b0 '
b0 G
0(
1A
b1 *
b1 5
b10000000 +
b10000000 6
b1100000100 )
b1100000100 4
#235000
b10000000 '
b10000000 G
b10000000 M
b10110 K
1(
#240000
b0 H
0(
0A
b0 *
b0 5
#245000
b10000000 '
b10000000 G
b10111 K
1(
#250000
0(
b10000000 -
b10000000 8
#255000
b10000000000000000000000000000111 $
b10000000000000000000000000000111 I
b11111111111111111111111111111111 V
1"
b10000000 9
b10000000 '
b10000000 G
b10000000 O
b11000 K
1(
#260000
0(
#265000
b10000000 '
b10000000 G
b11001 K
1(
#270000
0(
1,
#275000
b10000000 '
b10000000 G
b1 N
b11010 K
1(
#280000
0(
0,
#285000
b10000000 '
b10000000 G
b11011 K
1(
#290000
0(
1,
#295000
b10000000 '
b10000000 G
b10 N
b11100 K
1(
#300000
0(
0,
#305000
b10000000 '
b10000000 G
b11101 K
1(
#310000
0(
1,
#315000
b10000000 '
b10000000 G
b11 N
b11110 K
1(
#320000
0(
0,
#325000
b10000000 '
b10000000 G
b11111 K
1(
#330000
0(
1,
#335000
b10000000 '
b10000000 G
b100 N
b100000 K
1(
#340000
0(
0,
#345000
b10000000 '
b10000000 G
b100001 K
1(
#350000
0(
1,
#355000
b10000000 '
b10000000 G
b101 N
b100010 K
1(
#360000
0(
0,
#365000
b10000000 '
b10000000 G
b100011 K
1(
#370000
0(
1,
#375000
b10000000 '
b10000000 G
b110 N
b100100 K
1(
#380000
0(
0,
#385000
b10000000 '
b10000000 G
b100101 K
1(
#390000
0(
1,
#395000
b10000000 '
b10000000 G
b111 N
b100110 K
1(
#400000
0(
0,
#405000
b10000000 '
b10000000 G
b100111 K
1(
#410000
0(
1,
#415000
b10000000 '
b10000000 G
b1000 N
b101000 K
1(
#420000
0(
0,
#425000
b10000000 '
b10000000 G
b101001 K
1(
#430000
0(
1,
#435000
b10000000 '
b10000000 G
b1001 N
b101010 K
1(
#440000
0(
0,
#445000
b10000000 '
b10000000 G
b101011 K
1(
#450000
0(
1,
#455000
b10000000 '
b10000000 G
b1010 N
b101100 K
1(
#460000
0(
0,
#465000
b10000000 '
b10000000 G
b101101 K
1(
#470000
b1010 '
b1010 G
0(
b101100000010 )
b101100000010 4
#475000
b1010 '
b1010 G
b101110 K
1(
#480000
b101110 '
b101110 G
0(
b101100000000 )
b101100000000 4
#485000
b101111 '
b101111 G
b101111 K
1(
#490000
0(
#495000
b110000 '
b110000 G
b110000 K
1(
#500000
0(
#505000
b110001 '
b110001 G
b110001 K
1(
#510000
0(
#515000
b110010 '
b110010 G
b110010 K
1(
#520000
0(
#525000
b110011 '
b110011 G
b110011 K
1(
#530000
0(
#535000
b110100 '
b110100 G
b110100 K
1(
#540000
0(
#545000
b110101 '
b110101 G
b110101 K
1(
#550000
0(
#555000
b110110 '
b110110 G
b110110 K
1(
#560000
0(
#565000
b110111 '
b110111 G
b110111 K
1(
#570000
0(
#575000
b111000 '
b111000 G
b111000 K
1(
#580000
0(
#585000
b111001 '
b111001 G
b111001 K
1(
