sim/testbench/exception_unit.vcd
$date
	Wed Dec 10 22:11:29 2025
$end
$version
	Icarus Verilog
$end
$timescale
	1ps
$end
$scope module tb_exception_unit $end
$var wire 32 ! exception_val [31:0] $end
$var wire 1 " exception_taken $end
$var wire 32 # exception_cause [31:0] $end
$var reg 1 $ bus_error $end
$var reg 1 % ebreak $end
$var reg 1 & ecall $end
$var reg 1 ' illegal_instr $end
$var reg 32 ( instruction [31:0] $end
$var reg 32 ) mem_addr [31:0] $end
$var reg 1 * mem_read $end
$var reg 1 + mem_write $end
$var reg 32 , pc [31:0] $end
$var integer 32 - passed_tests [31:0] $end
$var integer 32 . total_tests [31:0] $end
$scope module dut $end
$var wire 1 $ bus_error $end
$var wire 1 % ebreak $end
$var wire 1 & ecall $end
$var wire 1 ' illegal_instr $end
$var wire 32 / instruction [31:0] $end
$var wire 32 0 mem_addr [31:0] $end
$var wire 1 * mem_read $end
$var wire 1 + mem_write $end
$var wire 32 1 pc [31:0] $end
$var reg 32 2 exception_cause [31:0] $end
$var reg 1 " exception_taken $end
$var reg 32 3 exception_val [31:0] $end
$upscope $end
$scope task check $end
$var reg 1 4 actual $end
$var reg 1 5 expected $end
$var reg 256 6 test_name [255:0] $end
$upscope $end
$scope task check_32bit $end
$var reg 32 7 actual [31:0] $end
$var reg 32 8 expected [31:0] $end
$var reg 256 9 test_name [255:0] $end
$upscope $end
$scope task test_exception $end
$var reg 32 : expected_cause [31:0] $end
$var reg 32 ; expected_val [31:0] $end
$var reg 256 < test_name [255:0] $end
$upscope $end
$upscope $end
$enddefinitions $end
$comment Show the parameter values. $end
$dumpall
$end
#0
$dumpvars
bx <
bx ;
bx :
bx 9
bx 8
bx 7
bx 6
x5
x4
b0 3
b0 2
b0 1
b0 0
b0 /
b0 .
b0 -
b0 ,
0+
0*
b0 )
b0 (
0'
0&
0%
0$
b0 #
0"
b0 !
$end
#10000
b10000000000000 )
b10000000000000 0
b10011 (
b10011 /
b1000000000000 ,
b1000000000000 1
#11000
b0 7
b0 8
b101011001100001011011000010000001101001011100110010000001111010011001010111001001101111 9
b11 -
b11 .
04
05
b10000001100101011110000110001101100101011100000111010001101001011011110110111000100000011011110110111000100000011011100110111101110010011011010110000101101100001000000110100101101110011100110111010001110010011101010110001101110100011010010110111101101110 6
#21000
b1000000000001 !
b1000000000001 3
1"
b1000000000001 ;
b0 :
b10100000100001100100000011011010110100101110011011000010110110001101001011001110110111001100101011001000010000001100010011110010010000000110001 <
b1000000000001 ,
b1000000000001 1
#22000
b1000000000001 7
b1000000000001 8
b10100000100001100100000011011010110100101110011011000010110110001101001011001110110111001100101011001000010000001100010011110010010000000110001001000000010110100100000011101100110000101101100 9
b110 -
b110 .
14
15
b10100000100001100100000011011010110100101110011011000010110110001101001011001110110111001100101011001000010000001100010011110010010000000110001 6
#32000
b1000000000010 !
b1000000000010 3
1"
b1000000000010 ;
b10100000100001100100000011011010110100101110011011000010110110001101001011001110110111001100101011001000010000001100010011110010010000000110010 <
b1000000000010 ,
b1000000000010 1
#33000
b1000000000010 7
b1000000000010 8
b10100000100001100100000011011010110100101110011011000010110110001101001011001110110111001100101011001000010000001100010011110010010000000110010001000000010110100100000011101100110000101101100 9
b1001 -
b1001 .
b10100000100001100100000011011010110100101110011011000010110110001101001011001110110111001100101011001000010000001100010011110010010000000110010 6
#43000
b1000000000011 !
b1000000000011 3
1"
b1000000000011 ;
b10100000100001100100000011011010110100101110011011000010110110001101001011001110110111001100101011001000010000001100010011110010010000000110011 <
b1000000000011 ,
b1000000000011 1
#44000
b1000000000011 7
b1000000000011 8
b10100000100001100100000011011010110100101110011011000010110110001101001011001110110111001100101011001000010000001100010011110010010000000110011001000000010110100100000011101100110000101101100 9
b1100 -
b1100 .
b10100000100001100100000011011010110100101110011011000010110110001101001011001110110111001100101011001000010000001100010011110010010000000110011 6
#54000
b0 !
b0 3
0"
b1000000000100 ,
b1000000000100 1
#55000
b1101 -
b1101 .
04
05
b1010000010000110010000001100001011011000110100101100111011011100110010101100100001000000010100001101110011011110010000001100101011110000110001101100101011100000111010001101001011011110110111000101001 6
#65000
b11111111111111111111111111111111 !
b11111111111111111111111111111111 3
b10 #
b10 2
1"
b11111111111111111111111111111111 ;
b10 :
b1001001011011000110110001100101011001110110000101101100001000000110100101101110011100110111010001110010011101010110001101110100011010010110111101101110 <
1'
b11111111111111111111111111111111 (
b11111111111111111111111111111111 /
b1000000000000 ,
b1000000000000 1
#66000
b11111111111111111111111111111111 7
b11111111111111111111111111111111 8
b1001001011011000110110001100101011001110110000101101100001000000110100101101110011100110111010001110010011101010110001101110100011010010110111101101110001000000010110100100000011101100110000101101100 9
b10000 -
b10000 .
14
15
b1001001011011000110110001100101011001110110000101101100001000000110100101101110011100110111010001110010011101010110001101110100011010010110111101101110 6
#76000
b0 !
b0 3
b0 #
b0 2
0"
0'
#77000
b10001 -
b10001 .
04
05
b101011001100001011011000110100101100100001000000110100101101110011100110111010001110010011101010110001101110100011010010110111101101110001000000010100001101110011011110010000001100101011110000110001101100101011100000111010001101001011011110110111000101001 6
#87000
b10000000000000 !
b10000000000000 3
b11 #
b11 2
1"
b10000000000000 ;
b11 :
b10001010100001001010010010001010100000101001011001000000110100101101110011100110111010001110010011101010110001101110100011010010110111101101110 <
1%
b100000000000001110011 (
b100000000000001110011 /
b10000000000000 ,
b10000000000000 1
#88000
b10000000000000 7
b10000000000000 8
b10001010100001001010010010001010100000101001011001000000110100101101110011100110111010001110010011101010110001101110100011010010110111101101110001000000010110100100000011101100110000101101100 9
b10100 -
b10100 .
14
15
b10001010100001001010010010001010100000101001011001000000110100101101110011100110111010001110010011101010110001101110100011010010110111101101110 6
#98000
b0 !
b0 3
b0 #
b0 2
0"
0%
#99000
b10101 -
b10101 .
04
05
b10011100110111100100000010001010100001001010010010001010100000101001011001000000010100001101110011011110010000001100101011110000110001101100101011100000111010001101001011011110110111000101001 6
#109000
b11000000000001 !
b11000000000001 3
b100 #
b100 2
1"
b11000000000001 ;
b100 :
b10011000110111101100001011001000010000001101101011010010111001101100001011011000110100101100111011011100110010101100100 <
1*
b11000000000001 )
b11000000000001 0
b1000000000000 ,
b1000000000000 1
#110000
b11000000000001 7
b11000000000001 8
b10011000110111101100001011001000010000001101101011010010111001101100001011011000110100101100111011011100110010101100100001000000010110100100000011101100110000101101100 9
b11000 -
b11000 .
14
15
b10011000110111101100001011001000010000001101101011010010111001101100001011011000110100101100111011011100110010101100100 6
#120000
b0 !
b0 3
b0 #
b0 2
0"
b11000000000000 )
b11000000000000 0
#121000
b11001 -
b11001 .
04
05
b10011000110111101100001011001000010000001100001011011000110100101100111011011100110010101100100001000000010100001101110011011110010000001100101011110000110001101100101011100000111010001101001011011110110111000101001 6
#131000
b11000000000000 !
b11000000000000 3
b101 #
b101 2
1"
b11000000000000 ;
b101 :
b100110001101111011000010110010000100000011000010110001101100011011001010111001101110011001000000110011001100001011101010110110001110100 <
1$
#132000
b11000000000000 7
b11000000000000 8
b100110001101111011000010110010000100000011000010110001101100011011001010111001101110011001000000110011001100001011101010110110001110100001000000010110100100000011101100110000101101100 9
b11100 -
b11100 .
14
15
b100110001101111011000010110010000100000011000010110001101100011011001010111001101110011001000000110011001100001011101010110110001110100 6
#142000
b0 !
b0 3
b0 #
b0 2
0"
0$
#143000
b11101 -
b11101 .
04
05
b1001100011011110110000101100100001000000111011101101001011101000110100001101111011101010111010000100000011000100111010101110011001000000110010101110010011100100110111101110010 6
#153000
b100000000000010 !
b100000000000010 3
b110 #
b110 2
1"
b100000000000010 ;
b110 :
b1010011011101000110111101110010011001010010000001101101011010010111001101100001011011000110100101100111011011100110010101100100 <
1+
0*
b100000000000010 )
b100000000000010 0
#154000
b100000000000010 7
b100000000000010 8
b1010011011101000110111101110010011001010010000001101101011010010111001101100001011011000110100101100111011011100110010101100100001000000010110100100000011101100110000101101100 9
b100000 -
b100000 .
14
15
b1010011011101000110111101110010011001010010000001101101011010010111001101100001011011000110100101100111011011100110010101100100 6
#164000
b0 !
b0 3
b0 #
b0 2
0"
b100000000000000 )
b100000000000000 0
#165000
b100001 -
b100001 .
04
05
b1010011011101000110111101110010011001010010000001100001011011000110100101100111011011100110010101100100001000000010100001101110011011110010000001100101011110000110001101100101011100000111010001101001011011110110111000101001 6
#175000
b100000000000000 !
b100000000000000 3
b111 #
b111 2
1"
b100000000000000 ;
b111 :
b10100110111010001101111011100100110010100100000011000010110001101100011011001010111001101110011001000000110011001100001011101010110110001110100 <
1$
#176000
b100000000000000 7
b100000000000000 8
b10100110111010001101111011100100110010100100000011000010110001101100011011001010111001101110011001000000110011001100001011101010110110001110100001000000010110100100000011101100110000101101100 9
b100100 -
b100100 .
14
15
b10100110111010001101111011100100110010100100000011000010110001101100011011001010111001101110011001000000110011001100001011101010110110001110100 6
#186000
b0 !
b0 3
b0 #
b0 2
0"
0$
#187000
b100101 -
b100101 .
04
05
b101001101110100011011110111001001100101001000000111011101101001011101000110100001101111011101010111010000100000011000100111010101110011001000000110010101110010011100100110111101110010 6
#197000
b1011 #
b1011 2
1"
b0 ;
b1011 :
b100010101000011010000010100110001001100001000000110100101101110011100110111010001110010011101010110001101110100011010010110111101101110 <
1&
0+
b101000000000000 ,
b101000000000000 1
#198000
b0 7
b0 8
b100010101000011010000010100110001001100001000000110100101101110011100110111010001110010011101010110001101110100011010010110111101101110001000000010110100100000011101100110000101101100 9
b101000 -
b101000 .
14
15
b100010101000011010000010100110001001100001000000110100101101110011100110111010001110010011101010110001101110100011010010110111101101110 6
#208000
b0 #
b0 2
0"
0&
#209000
b101001 -
b101001 .
04
05
b100111001101111001000000100010101000011010000010100110001001100001000000010100001101110011011110010000001100101011110000110001101100101011100000111010001101001011011110110111000101001 6
#219000
b1000000000001 !
b1000000000001 3
1"
1'
b1000000000001 ,
b1000000000001 1
#220000
b10000110110000101110101011100110110010100111010001000000100100101101110011100110111010001110010001000000110110101101001011100110110000101101100011010010110011101101110 9
b101011 -
b101011 .
14
15
b101000001000011001000000110110101101001011100110110000101101100011010010110011101101110001000000111000001110010011010010110111101110010011010010111010001111001 6
#230000
b10 #
b10 2
b100000000000001110011 !
b100000000000001110011 3
1"
1%
b1000000000000 ,
b1000000000000 1
#231000
b10 7
b10 8
b100001101100001011101010111001101100101001110100010000001001001011011000110110001100101011001110110000101101100001000000110100101101110011100110111010001110010011101010110001101110100011010010110111101101110 9
b101101 -
b101101 .
b1001001011011000110110001100101011001110110000101101100001000000111000001110010011010010110111101110010011010010111010001111001001000000110111101110110011001010111001000100000010001010100001001010010010001010100000101001011 6
#241000
b1000000000000 !
b1000000000000 3
b11 #
b11 2
1"
1*
b11000000000001 )
b11000000000001 0
0'
#242000
b11 7
b11 8
b100001101100001011101010111001101100101001110100010000001000010011100100110010101100001011010110111000001101111011010010110111001110100 9
b101111 -
b101111 .
b1000101010000100101001001000101010000010100101100100000011100000111001001101001011011110111001001101001011101000111100100100000011011110111011001100101011100100010000001101100011011110110000101100100 6
#252000
b11000000000001 !
b11000000000001 3
b100 #
b100 2
1"
1$
0%
#253000
b100 7
b100 8
b100001101100001011101010111001101100101001110100010000001001100011011110110000101100100001000000110110101101001011100110110000101101100011010010110011101101110 9
b110001 -
b110001 .
b1001101011010010111001101100001011011000110100101100111011011100010000001110000011100100110100101101111011100100110100101110100011110010010000001101111011101100110010101110010001000000110011001100001011101010110110001110100 6
#263000
b11000000000001 !
b11000000000001 3
b100 #
b100 2
1"
0$
1+
#264000
b110011 -
b110011 .
b1001100011011110110000101100100001000000110001101101000011001010110001101101011011001010110010000100000011000100110010101100110011011110111001001100101001000000111001101110100011011110111001001100101 6
#274000
b1000000000000 !
b1000000000000 3
b11 #
b11 2
1"
1%
1&
0+
0*
#275000
b11 7
b11 8
b100001101100001011101010111001101100101001110100010000001000010011100100110010101100001011010110111000001101111011010010110111001110100 9
b110101 -
b110101 .
b100010101000010010100100100010101000001010010110010000001101111011101100110010101110010001000000100010101000011010000010100110001001100 6
#285000
b11111111111111111111111111111101 !
b11111111111111111111111111111101 3
b100 #
b100 2
1"
b11111111111111111111111111111101 ;
b100 :
b100110001101111011000010110010000100000011000010110010001100100011100100010000000110000011110000100011001000110010001100100011001000110010001100100011001000100 <
1*
b11111111111111111111111111111101 )
b11111111111111111111111111111101 0
0&
0%
#286000
b11111111111111111111111111111101 7
b11111111111111111111111111111101 8
b100110001101111011000010110010000100000011000010110010001100100011100100010000000110000011110000100011001000110010001100100011001000110010001100100011001000100001000000010110100100000011101100110000101101100 9
b111000 -
b111000 .
b100110001101111011000010110010000100000011000010110010001100100011100100010000000110000011110000100011001000110010001100100011001000110010001100100011001000100 6
#296000
b1 !
b1 3
b110 #
b110 2
1"
b1 ;
b110 :
b10100110111010001101111011100100110010100100000011000010110010001100100011100100010000000110000011110000011000000110000001100000011000000110000001100000011000000110001 <
1+
0*
b1 )
b1 0
#297000
b1 7
b1 8
b10100110111010001101111011100100110010100100000011000010110010001100100011100100010000000110000011110000011000000110000001100000011000000110000001100000011000000110001001000000010110100100000011101100110000101101100 9
b111011 -
b111011 .
b10100110111010001101111011100100110010100100000011000010110010001100100011100100010000000110000011110000011000000110000001100000011000000110000001100000011000000110001 6
#307000
b0 !
b0 3
b101 #
b101 2
1"
b0 ;
b101 :
b100110001101111011000010110010000100000011001100110000101110101011011000111010000100000011000010111010000100000011000010110010001100100011100100110010101110011011100110010000000110000 <
1$
0+
1*
b0 )
b0 0
#308000
b0 7
b0 8
b100110001101111011000010110010000100000011001100110000101110101011011000111010000100000011000010111010000100000011000010110010001100100011100100110010101110011011100110010000000110000001000000010110100100000011101100110000101101100 9
b111110 -
b111110 .
b100110001101111011000010110010000100000011001100110000101110101011011000111010000100000011000010111010000100000011000010110010001100100011100100110010101110011011100110010000000110000 6
#318000
b11111111111111111111111111111100 !
b11111111111111111111111111111100 3
b111 #
b111 2
1"
b11111111111111111111111111111100 ;
b111 :
b1010011011101000110111101110010011001010010000001100110011000010111010101101100011101000010000001100001011101000010000000110000011110000100011001000110010001100100011001000110010001100100011001000011 <
0*
1+
b11111111111111111111111111111100 )
b11111111111111111111111111111100 0
#319000
b11111111111111111111111111111100 7
b11111111111111111111111111111100 8
b1010011011101000110111101110010011001010010000001100110011000010111010101101100011101000010000001100001011101000010000000110000011110000100011001000110010001100100011001000110010001100100011001000011001000000010110100100000011101100110000101101100 9
b1000001 -
b1000001 .
b1010011011101000110111101110010011001010010000001100110011000010111010101101100011101000010000001100001011101000010000000110000011110000100011001000110010001100100011001000110010001100100011001000011 6
#329000
b11000000100010010101111010000001 !
b11000000100010010101111010000001 3
b10 #
b10 2
1"
1&
1'
0+
1*
b10000100100001001101011000001001 )
b10000100100001001101011000001001 0
b11000000100010010101111010000001 (
b11000000100010010101111010000001 /
b10010000101010011010100100100 ,
b10010000101010011010100100100 1
#334000
b111011001000111111000101110110 !
b111011001000111111000101110110 3
b100 #
b100 2
1"
0'
b111011001000111111000101110110 )
b111011001000111111000101110110 0
b110110101111100110100001101 (
b110110101111100110100001101 /
b111100111110001100000000 ,
b111100111110001100000000 1
#339000
b11010101000100111101001010101010 !
b11010101000100111101001010101010 3
b10 #
b10 2
1"
0&
1'
0$
b1110010101011111111011111100101 )
b1110010101011111111011111100101 0
b11010101000100111101001010101010 (
b11010101000100111101001010101010 /
b11100010111101111000010011000100 ,
b11100010111101111000010011000100 1
#344000
b11100010110010100100111011000101 !
b11100010110010100100111011000101 3
b10 #
b10 2
1"
1&
1$
b101110010110000100100101011100 )
b101110010110000100100101011100 0
b11100010110010100100111011000101 (
b11100010110010100100111011000101 /
b11110100000000000111101011101000 ,
b11110100000000000111101011101000 1
#349000
b10000011001000010000100100000 !
b10000011001000010000100100000 3
b10 #
b10 2
1"
1%
0$
b1010101011110000100010110101010 )
b1010101011110000100010110101010 0
b10000011001000010000100100000 (
b10000011001000010000100100000 /
b11000000001110110010001010000000 ,
b11000000001110110010001010000000 1
#354000
b11101010101001100010101011010101 !
b11101010101001100010101011010101 3
b10 #
b10 2
1"
0%
1$
1+
0*
b10000001000101110100101000000010 )
b10000001000101110100101000000010 0
b11101010101001100010101011010101 (
b11101010101001100010101011010101 /
b110101100111111101110101101000 ,
b110101100111111101110101101000 1
#359000
b11100101011100110000101011001000 !
b11100101011100110000101011001000 3
b11 #
b11 2
1"
1%
0&
0'
b1111001011010001011110111110010 )
b1111001011010001011110111110010 0
b10011110001100010100110000111100 (
b10011110001100010100110000111100 /
b11100101011100110000101011001000 ,
b11100101011100110000101011001000 1
#364000
b1110101110001010000110111101000 !
b1110101110001010000110111101000 3
b11 #
b11 2
1"
1&
0$
b1100011010010111111100111000110 )
b1100011010010111111100111000110 0
b1011011000000100110010110110110 (
b1011011000000100110010110110110 /
b1110101110001010000110111101000 ,
b1110101110001010000110111101000 1
#369000
b100111111100100101010101001111 !
b100111111100100101010101001111 3
b10 #
b10 2
1"
1'
b10011101110011000110000000111011 )
b10011101110011000110000000111011 0
b100111111100100101010101001111 (
b100111111100100101010101001111 /
b1000010111100100100000110000100 ,
b1000010111100100100000110000100 1
#374000
b100110001101011111101101001100 !
b100110001101011111101101001100 3
b10 #
b10 2
1"
0%
0+
1*
b1001111101000010101010110011111 )
b1001111101000010101010110011111 0
b100110001101011111101101001100 (
b100110001101011111101101001100 /
b110001001000110000011101100000 ,
b110001001000110000011101100000 1
#379000
b1000100110111100011011110001001 !
b1000100110111100011011110001001 3
b10 #
b10 2
1"
0&
1$
1+
0*
b10100100101011100011001001001001 )
b10100100101011100011001001001001 0
b1000100110111100011011110001001 (
b1000100110111100011011110001001 /
b10101101110010111100000001011000 ,
b10101101110010111100000001011000 1
#384000
b11100001001011001100111011000000 !
b11100001001011001100111011000000 3
b11 #
b11 2
1"
1%
1&
0'
0$
0+
1*
b10111011100000100101101001110111 )
b10111011100000100101101001110111 0
b1100100010101111110110111001000 (
b1100100010101111110110111001000 /
b11100001001011001100111011000000 ,
b11100001001011001100111011000000 1
#389000
b11101001111010111111011011010011 !
b11101001111010111111011011010011 3
b10 #
b10 2
1"
0%
1'
1$
1+
0*
b1000010110110010010111110000101 )
b1000010110110010010111110000101 0
b11101001111010111111011011010011 (
b11101001111010111111011011010011 /
b1111110100101000111100011100 ,
b1111110100101000111100011100 1
#394000
b101100000101010110001101011000 !
b101100000101010110001101011000 3
b11 #
b11 2
1"
1%
0'
0$
b11000111000110100000110010001110 )
b11000111000110100000110010001110 0
b11000011001111110011100010000110 (
b11000011001111110011100010000110 /
b101100000101010110001101011000 ,
b101100000101010110001101011000 1
#399000
b11011001110100101001001010110011 !
b11011001110100101001001010110011 3
b10 #
b10 2
1"
0%
0&
1'
1$
b10101111110110000101011001011111 )
b10101111110110000101011001011111 0
b11011001110100101001001010110011 (
b11011001110100101001001010110011 /
b10010111100110011010100000101100 ,
b10010111100110011010100000101100 1
#404000
b11110110100000101110001011101101 !
b11110110100000101110001011101101 3
b10 #
b10 2
1"
1&
0+
1*
b11101101010100110110110011011010 )
b11101101010100110110110011011010 0
b11110110100000101110001011101101 (
b11110110100000101110001011101101 /
b10100110011111100000100101000 ,
b10100110011111100000100101000 1
#409000
b11101000011101000000110011010000 !
b11101000011101000000110011010000 3
b11 #
b11 2
1"
1%
0'
0$
1+
0*
b1010101111101101010110110101011 )
b1010101111101101010110110101011 0
b10101000010010000101100101010 (
b10101000010010000101100101010 /
b11101000011101000000110011010000 ,
b11101000011101000000110011010000 1
#414000
b10110011110110010111011001100111 !
b10110011110110010111011001100111 3
b110 #
b110 2
1"
0%
b10110011110110010111011001100111 )
b10110011110110010111011001100111 0
b100111011110011110100101001110 (
b100111011110011110100101001110 /
b101011000011101110110101010100 ,
b101011000011101110110101010100 1
#419000
b1001001110001100101110110010011 !
b1001001110001100101110110010011 3
b10 #
b10 2
1"
1%
1'
1$
0+
1*
b10000010001111110010110000000100 )
b10000010001111110010110000000100 0
b1001001110001100101110110010011 (
b1001001110001100101110110010011 /
b1001010011101001011111110010100 ,
b1001010011101001011111110010100 1
#424000
b10111011010001011110001001110100 !
b10111011010001011110001001110100 3
b11 #
b11 2
1"
0'
0$
b1011011000101110010110110110110 )
b1011011000101110010110110110110 0
b1100101001110110100100111001010 (
b1100101001110110100100111001010 /
b10111011010001011110001001110100 ,
b10111011010001011110001001110100 1
#439000
b0 !
b0 3
b0 #
b0 2
0"
0%
0&
0*
b0 )
b0 0
b0 (
b0 /
b0 ,
b0 1
#440000
b0 7
b0 8
b1000011011011000110010101100001011011100010000001110011011101000110000101110100011001010010000000101101001000000111011001100001011011000010000001111010011001010111001001101111 9
b1000100 -
b1000100 .
04
05
b100001101101100011001010110000101101110001000000111001101110100011000010111010001100101001000000010110100100000011011100110111100100000011001010111100001100011011001010111000001110100011010010110111101101110 6
#450000
b11011110101011011011111011101111 !
b11011110101011011011111011101111 3
b10 #
b10 2
1"
b11011110101011011011111011101111 (
b11011110101011011011111011101111 /
1'
b10010001101000101011001111000 ,
b10010001101000101011001111000 1
#451000
b11011110101011011011111011101111 7
b11011110101011011011111011101111 8
b10101100110000101101100001000000110001101101111011011100111010001100001011010010110111001110011001000000110100101101110011100110111010001110010011101010110001101110100011010010110111101101110 9
b1000110 -
b1000110 .
14
15
b100100101101100011011000110010101100111011000010110110000100000011010010110111001110011011101000111001000100000011001010111100001100011011001010111000001110100011010010110111101101110 6
#461000
b11001010111111101011101010111110 !
b11001010111111101011101010111110 3
b100 #
b100 2
1"
1$
1*
b11001010111111101011101010111110 )
b11001010111111101011101010111110 0
0'
#462000
b11001010111111101011101010111110 7
b11001010111111101011101010111110 8
b101011001100001011011000010000001100011011011110110111001110100011000010110100101101110011100110010000001100001011001000110010001110010011001010111001101110011 9
b1001000 -
b1001000 .
b100110001101111011000010110010000100000011001100110000101110101011011000111010000100000011001010111100001100011011001010111000001110100011010010110111101101110 6
