sim/testbench/full_system.vcd
$date
	Wed Dec 10 23:07:16 2025
$end
$version
	Icarus Verilog
$end
$timescale
	1ps
$end
$scope module tb_full_system $end
$var wire 1 ! dwb_ack_i $end
$var wire 32 " dwb_dat_i [31:0] $end
$var wire 1 # dwb_err_i $end
$var wire 1 $ iwb_ack_i $end
$var wire 32 % iwb_dat_i [31:0] $end
$var wire 1 & iwb_stb_o $end
$var wire 1 ' iwb_cyc_o $end
$var wire 32 ( iwb_adr_o [31:0] $end
$var wire 1 ) dwb_we_o $end
$var wire 1 * dwb_stb_o $end
$var wire 4 + dwb_sel_o [3:0] $end
$var wire 32 , dwb_dat_o [31:0] $end
$var wire 1 - dwb_cyc_o $end
$var wire 32 . dwb_adr_o [31:0] $end
$var reg 1 / bus_error $end
$var reg 1 0 clk $end
$var reg 1 1 dmem_ack $end
$var reg 32 2 dmem_data [31:0] $end
$var reg 1 3 imem_ack $end
$var reg 32 4 imem_data [31:0] $end
$var reg 32 5 interrupts [31:0] $end
$var reg 1 6 rst_n $end
$var integer 32 7 fail_count [31:0] $end
$var integer 32 8 i [31:0] $end
$var integer 32 9 pass_count [31:0] $end
$var integer 32 : test_num [31:0] $end
$scope module dut $end
$var wire 1 0 clk $end
$var wire 1 ! dwb_ack_i $end
$var wire 32 ; dwb_adr_o [31:0] $end
$var wire 1 - dwb_cyc_o $end
$var wire 32 < dwb_dat_i [31:0] $end
$var wire 32 = dwb_dat_o [31:0] $end
$var wire 1 # dwb_err_i $end
$var wire 4 > dwb_sel_o [3:0] $end
$var wire 1 * dwb_stb_o $end
$var wire 1 ) dwb_we_o $end
$var wire 1 ? interrupt_req $end
$var wire 32 @ interrupts [31:0] $end
$var wire 1 $ iwb_ack_i $end
$var wire 32 A iwb_adr_o [31:0] $end
$var wire 1 ' iwb_cyc_o $end
$var wire 32 B iwb_dat_i [31:0] $end
$var wire 1 & iwb_stb_o $end
$var wire 1 C rd_wen $end
$var wire 1 6 rst_n $end
$var wire 1 D stall $end
$var wire 32 E trap_vector [31:0] $end
$var wire 32 F rs2_data [31:0] $end
$var wire 5 G rs2_addr [4:0] $end
$var wire 32 H rs1_data [31:0] $end
$var wire 5 I rs1_addr [4:0] $end
$var wire 1 J reg_write $end
$var wire 32 K rd_data [31:0] $end
$var wire 5 L rd_addr [4:0] $end
$var wire 7 M opcode [6:0] $end
$var wire 1 N mem_write $end
$var wire 1 O mem_read $end
$var wire 32 P mdu_remainder [31:0] $end
$var wire 32 Q mdu_quotient [31:0] $end
$var wire 64 R mdu_product [63:0] $end
$var wire 1 S mdu_done $end
$var wire 1 T mdu_busy $end
$var wire 1 U is_system $end
$var wire 1 V is_mret $end
$var wire 1 W is_m $end
$var wire 1 X is_jump $end
$var wire 1 Y is_ecall $end
$var wire 1 Z is_ebreak $end
$var wire 1 [ is_branch $end
$var wire 1 \ interrupt_pending $end
$var wire 1 ] interrupt_enabled $end
$var wire 32 ^ interrupt_cause [31:0] $end
$var wire 1 _ instr_retired $end
$var wire 32 ` immediate [31:0] $end
$var wire 1 a illegal_instr $end
$var wire 7 b funct7 [6:0] $end
$var wire 3 c funct3 [2:0] $end
$var wire 32 d exception_val [31:0] $end
$var wire 1 e exception_taken $end
$var wire 32 f exception_cause [31:0] $end
$var wire 32 g epc_out [31:0] $end
$var wire 32 h csr_wdata [31:0] $end
$var wire 1 i csr_valid $end
$var wire 32 j csr_rdata [31:0] $end
$var wire 3 k csr_op [2:0] $end
$var wire 12 l csr_addr [11:0] $end
$var wire 1 m alu_zero $end
$var wire 1 n alu_src_imm $end
$var wire 32 o alu_result [31:0] $end
$var wire 32 p alu_operand_b [31:0] $end
$var wire 32 q alu_operand_a [31:0] $end
$var wire 4 r alu_op [3:0] $end
$var parameter 32 s RESET_VECTOR $end
$var parameter 3 t STATE_DECODE $end
$var parameter 3 u STATE_EXECUTE $end
$var parameter 3 v STATE_FETCH $end
$var parameter 3 w STATE_MEM $end
$var parameter 3 x STATE_MULDIV $end
$var parameter 3 y STATE_TRAP $end
$var parameter 3 z STATE_WRITEBACK $end
$var reg 32 { alu_result_reg [31:0] $end
$var reg 32 | dwb_adr_reg [31:0] $end
$var reg 1 } dwb_cyc_reg $end
$var reg 32 ~ dwb_dat_reg [31:0] $end
$var reg 4 !" dwb_sel_reg [3:0] $end
$var reg 1 "" dwb_stb_reg $end
$var reg 1 #" dwb_we_reg $end
$var reg 32 $" instruction [31:0] $end
$var reg 1 %" iwb_cyc_reg $end
$var reg 1 &" iwb_stb_reg $end
$var reg 32 '" mdu_result_reg [31:0] $end
$var reg 1 (" mdu_start $end
$var reg 32 )" pc [31:0] $end
$var reg 3 *" state [2:0] $end
$var reg 32 +" trap_cause [31:0] $end
$var reg 1 ," trap_entry $end
$var reg 32 -" trap_pc [31:0] $end
$var reg 1 ." trap_return $end
$var reg 32 /" trap_val [31:0] $end
$scope module alu_inst $end
$var wire 32 0" operand_a [31:0] $end
$var wire 32 1" operand_b [31:0] $end
$var wire 1 m zero $end
$var wire 4 2" alu_op [3:0] $end
$var reg 32 3" result [31:0] $end
$upscope $end
$scope module csr_inst $end
$var wire 1 0 clk $end
$var wire 12 4" csr_addr [11:0] $end
$var wire 3 5" csr_op [2:0] $end
$var wire 1 i csr_valid $end
$var wire 32 6" csr_wdata [31:0] $end
$var wire 32 7" epc_out [31:0] $end
$var wire 1 _ instr_retired $end
$var wire 1 ] interrupt_enabled $end
$var wire 1 \ interrupt_pending $end
$var wire 32 8" interrupts_i [31:0] $end
$var wire 32 9" pending_and_enabled [31:0] $end
$var wire 1 6 rst_n $end
$var wire 32 :" trap_cause [31:0] $end
$var wire 1 ," trap_entry $end
$var wire 32 ;" trap_pc [31:0] $end
$var wire 1 ." trap_return $end
$var wire 32 <" trap_val [31:0] $end
$var wire 2 =" mtvec_mode [1:0] $end
$var wire 32 >" mtvec_base [31:0] $end
$var wire 1 ?" mpie_bit $end
$var wire 1 @" mie_bit $end
$var wire 1 A" csr_write $end
$var parameter 32 B" MARCHID $end
$var parameter 32 C" MHARTID $end
$var parameter 32 D" MIMPID $end
$var parameter 32 E" MISA $end
$var parameter 32 F" MVENDORID $end
$var reg 32 G" csr_rdata [31:0] $end
$var reg 32 H" csr_wdata_final [31:0] $end
$var reg 32 I" interrupt_cause [31:0] $end
$var reg 32 J" mcause [31:0] $end
$var reg 64 K" mcycle [63:0] $end
$var reg 32 L" mepc [31:0] $end
$var reg 32 M" mie [31:0] $end
$var reg 64 N" minstret [63:0] $end
$var reg 32 O" mip [31:0] $end
$var reg 32 P" mscratch [31:0] $end
$var reg 32 Q" mstatus [31:0] $end
$var reg 32 R" mtval [31:0] $end
$var reg 32 S" mtvec [31:0] $end
$var reg 32 T" trap_vector [31:0] $end
$var reg 1 U" valid $end
$var integer 32 V" i [31:0] $end
$upscope $end
$scope module decoder_inst $end
$var wire 32 W" instruction [31:0] $end
$var wire 5 X" rs2_addr [4:0] $end
$var wire 5 Y" rs1_addr [4:0] $end
$var wire 5 Z" rd_addr [4:0] $end
$var wire 7 [" opcode [6:0] $end
$var wire 7 \" funct7 [6:0] $end
$var wire 3 ]" funct3 [2:0] $end
$var reg 4 ^" alu_op [3:0] $end
$var reg 1 n alu_src_imm $end
$var reg 1 a illegal_instr $end
$var reg 32 _" immediate [31:0] $end
$var reg 1 [ is_branch $end
$var reg 1 Z is_ebreak $end
$var reg 1 Y is_ecall $end
$var reg 1 X is_jump $end
$var reg 1 W is_m $end
$var reg 1 V is_mret $end
$var reg 1 U is_system $end
$var reg 1 `" is_wfi $end
$var reg 1 O mem_read $end
$var reg 1 N mem_write $end
$var reg 1 J reg_write $end
$upscope $end
$scope module exc_unit $end
$var wire 1 # bus_error $end
$var wire 1 Z ebreak $end
$var wire 1 Y ecall $end
$var wire 1 a illegal_instr $end
$var wire 32 a" instruction [31:0] $end
$var wire 32 b" mem_addr [31:0] $end
$var wire 1 O mem_read $end
$var wire 1 N mem_write $end
$var wire 32 c" pc [31:0] $end
$var reg 32 d" exception_cause [31:0] $end
$var reg 1 e exception_taken $end
$var reg 32 e" exception_val [31:0] $end
$upscope $end
$scope module mdu_inst $end
$var wire 1 0 clk $end
$var wire 3 f" funct3 [2:0] $end
$var wire 1 g" is_div $end
$var wire 1 h" is_mul $end
$var wire 1 i" mul_signed_a $end
$var wire 1 6 rst_n $end
$var wire 1 (" start $end
$var wire 1 j" mul_signed_b $end
$var wire 2 k" div_op_sel [1:0] $end
$var wire 32 l" b [31:0] $end
$var wire 32 m" a [31:0] $end
$var parameter 2 n" DIV $end
$var parameter 2 o" IDLE $end
$var parameter 2 p" MUL $end
$var reg 32 q" a_latched [31:0] $end
$var reg 64 r" acc [63:0] $end
$var reg 32 s" b_latched [31:0] $end
$var reg 1 T busy $end
$var reg 6 t" div_count [5:0] $end
$var reg 32 u" dividend_abs [31:0] $end
$var reg 1 v" dividend_neg $end
$var reg 64 w" dividend_shift [63:0] $end
$var reg 32 x" divisor_abs [31:0] $end
$var reg 1 y" divisor_neg $end
$var reg 1 S done $end
$var reg 6 z" mul_count [5:0] $end
$var reg 1 {" mul_sign $end
$var reg 64 |" multiplicand [63:0] $end
$var reg 32 }" multiplier [31:0] $end
$var reg 3 ~" op_latched [2:0] $end
$var reg 64 !# product [63:0] $end
$var reg 32 "# quotient [31:0] $end
$var reg 32 ## quotient_reg [31:0] $end
$var reg 32 $# remainder [31:0] $end
$var reg 32 %# remainder_reg [31:0] $end
$var reg 2 &# state [1:0] $end
$upscope $end
$scope module regfile_inst $end
$var wire 1 0 clk $end
$var wire 5 '# rd_addr [4:0] $end
$var wire 32 (# rd_data [31:0] $end
$var wire 1 C rd_wen $end
$var wire 5 )# rs1_addr [4:0] $end
$var wire 5 *# rs2_addr [4:0] $end
$var wire 1 6 rst_n $end
$var wire 32 +# rs2_data [31:0] $end
$var wire 32 ,# rs1_data [31:0] $end
$var integer 32 -# i [31:0] $end
$upscope $end
$upscope $end
$scope task check_memory $end
$var reg 32 .# addr [31:0] $end
$var reg 32 /# expected [31:0] $end
$var reg 256 0# test_name [255:0] $end
$upscope $end
$scope task check_register $end
$var reg 32 1# expected [31:0] $end
$var reg 256 2# test_name [255:0] $end
$var integer 32 3# reg_num [31:0] $end
$upscope $end
$scope task load_program $end
$var reg 256 4# filename [255:0] $end
$upscope $end
$scope task wait_cycles $end
$var integer 32 5# n [31:0] $end
$upscope $end
$upscope $end
$enddefinitions $end
$comment Show the parameter values. $end
$dumpall
b1 p"
b0 o"
b10 n"
b0 F"
b1000000000000000000000100000000 E"
b1 D"
b0 C"
b0 B"
b100 z
b110 y
b101 x
b11 w
b0 v
b10 u
b1 t
b0 s
$end
#0
$dumpvars
bx 5#
bx 4#
bx 3#
bx 2#
bx 1#
bx 0#
bx /#
bx .#
b100000 -#
bx ,#
bx +#
bx *#
bx )#
bx (#
bx '#
b0 &#
b0 %#
b0 $#
b0 ##
b0 "#
b0 !#
b0 ~"
b0 }"
b0 |"
x{"
b0 z"
0y"
b0 x"
b0 w"
0v"
bx u"
b0 t"
b0 s"
b0 r"
b0 q"
bx m"
bx l"
b11 k"
0j"
0i"
1h"
0g"
bx f"
b0 e"
b0 d"
b0 c"
bx b"
bx a"
x`"
bx _"
bx ^"
bx ]"
bx \"
bx ["
bx Z"
bx Y"
bx X"
bx W"
b11111111111111111111111111111111 V"
0U"
b0 T"
b0 S"
b0 R"
b0 Q"
b0 P"
b0 O"
b0 N"
b0 M"
b0 L"
b0 K"
b0 J"
b0 I"
b0 H"
b0 G"
xA"
0@"
0?"
b0 >"
b0 ="
b0 <"
b0 ;"
b0 :"
b0 9"
b0 8"
b0 7"
bx 6"
bx 5"
bx 4"
bx 3"
bx 2"
bx 1"
bx 0"
b0 /"
0."
b0 -"
0,"
b0 +"
b0 *"
b0 )"
0("
b0 '"
0&"
0%"
bx $"
x#"
0""
bx !"
bx ~
0}
bx |
bx {
bx r
bx q
bx p
bx o
xn
xm
bx l
bx k
b0 j
0i
bx h
b0 g
b0 f
0e
b0 d
bx c
bx b
xa
bx `
0_
b0 ^
0]
0\
x[
xZ
xY
xX
xW
xV
xU
0T
0S
b0 R
b0 Q
b0 P
xO
xN
bx M
bx L
bx K
xJ
bx I
bx H
bx G
bx F
b0 E
0D
0C
b10011 B
b0 A
b0 @
0?
bx >
bx =
b0 <
bx ;
b0 :
b0 9
b10000000000 8
b0 7
06
b0 5
b10011 4
03
b0 2
01
00
0/
bx .
0-
bx ,
bx +
0*
x)
b0 (
0'
0&
b10011 %
0$
0#
b0 "
0!
$end
#5000
b100000 -#
10
#10000
00
#15000
b100000 -#
10
#20000
00
#25000
b100000 -#
10
#30000
00
#35000
b100000 -#
10
#40000
00
#45000
b100000 -#
10
#50000
00
16
#55000
0i
0U"
b1 K"
1&
1&"
1'
1%"
10
#60000
00
#65000
0i
0U"
1$
13
b10 K"
10
#70000
00
#75000
b0 h
b0 6"
1m
b0 o
b0 3"
b0 p
b0 1"
b0 q
b0 0"
0A"
b0 k
b0 5"
b0 H
b0 m"
b0 ,#
b0 F
b0 l"
b0 +#
0i
0U"
b0 l
b0 4"
0a
0`"
0V
0Z
0Y
0W
0U
0X
0[
1J
0N
0O
1n
b0 r
b0 2"
b0 ^"
b0 `
b0 _"
b10011 M
b10011 ["
b0 c
b0 ]"
b0 f"
b0 b
b0 \"
b0 I
b0 Y"
b0 )#
b0 G
b0 X"
b0 *#
b0 L
b0 Z"
b0 '#
b11 K"
b1 *"
0&
0&"
0'
0%"
b10011 $"
b10011 W"
b10011 a"
0$
03
10
#80000
00
#85000
0i
0U"
b10 *"
b100 K"
10
#90000
00
#95000
b0 K
b0 (#
1C
0i
0U"
b101 K"
1_
b100 *"
b0 {
10
#100000
00
b10100 5#
#105000
0C
0i
0U"
0_
b0 *"
b100 (
b100 A
b100 )"
b100 c"
b1 N"
b110 K"
10
#110000
00
#115000
0i
0U"
b111 K"
1&
1&"
1'
1%"
10
#120000
00
#125000
0i
0U"
1$
13
b110000010100101001000001110011 %
b110000010100101001000001110011 B
b110000010100101001000001110011 4
b1000 K"
10
#130000
00
#135000
1A"
b1 k
b1 5"
1i
1U"
b1100000101 l
b1100000101 4"
1U
0J
0n
b1110011 M
b1110011 ["
b1 c
b1 ]"
b1 f"
b11000 b
b11000 \"
b101 I
b101 Y"
b101 )#
b101 G
b101 X"
b101 *#
b1001 K"
b1 *"
0&
0&"
0'
0%"
b110000010100101001000001110011 $"
b110000010100101001000001110011 W"
b110000010100101001000001110011 a"
0$
03
10
#140000
00
#145000
b10 *"
b1010 K"
10
#150000
00
#155000
b1011 K"
1_
b100 *"
10
#160000
00
#165000
0_
b0 *"
b1000 (
b1000 A
b1000 )"
b1000 c"
b10 N"
b1100 K"
10
#170000
00
#175000
b1101 K"
1&
1&"
1'
1%"
10
#180000
00
#185000
1$
13
b10011 %
b10011 B
b10011 4
b1110 K"
10
#190000
00
#195000
0A"
b0 k
b0 5"
0i
0U"
b0 l
b0 4"
1J
1n
0U
b10011 M
b10011 ["
b0 c
b0 ]"
b0 f"
b0 b
b0 \"
b0 I
b0 Y"
b0 )#
b0 G
b0 X"
b0 *#
b1111 K"
b1 *"
0&
0&"
0'
0%"
b10011 $"
b10011 W"
b10011 a"
0$
03
10
#200000
00
#205000
0i
0U"
b10 *"
b10000 K"
10
#210000
00
#215000
1C
0i
0U"
b10001 K"
1_
b100 *"
10
#220000
00
#225000
0C
0i
0U"
0_
b0 *"
b1100 (
b1100 A
b1100 )"
b1100 c"
b11 N"
b10010 K"
10
#230000
00
#235000
0i
0U"
b10011 K"
1&
1&"
1'
1%"
10
#240000
00
#245000
0i
0U"
1$
13
b10100 K"
10
#250000
00
#255000
0i
0U"
b10101 K"
b1 *"
0&
0&"
0'
0%"
0$
03
10
#260000
00
#265000
0i
0U"
b10 *"
b10110 K"
10
#270000
00
#275000
1C
0i
0U"
b10111 K"
1_
b100 *"
10
#280000
00
#285000
0C
0i
0U"
0_
b0 *"
b10000 (
b10000 A
b10000 )"
b10000 c"
b100 N"
b11000 K"
10
#290000
00
#295000
0i
0U"
b11001 K"
1&
1&"
1'
1%"
b1100100 5#
10
#300000
00
#305000
0i
0U"
1$
13
b1000001111001010110011 %
b1000001111001010110011 B
b1000001111001010110011 4
b11010 K"
10
#310000
00
#315000
b1 h
b1 6"
0i
0U"
b10 l
b10 4"
b10 r
b10 2"
b10 ^"
1J
0n
b110011 M
b110011 ["
b111 c
b111 ]"
b111 f"
b1 I
b1 Y"
b1 )#
b10 G
b10 X"
b10 *#
b101 L
b101 Z"
b101 '#
b11011 K"
b1 *"
0&
0&"
0'
0%"
b1000001111001010110011 $"
b1000001111001010110011 W"
b1000001111001010110011 a"
0$
03
10
#320000
00
#325000
0i
0U"
b10 *"
b11100 K"
10
#330000
00
#335000
1C
0i
0U"
b11101 K"
1_
b100 *"
10
#340000
00
#345000
0C
0i
0U"
0_
b0 *"
b10100 (
b10100 A
b10100 )"
b10100 c"
b101 N"
b11110 K"
10
#350000
00
#355000
0i
0U"
b11111 K"
1&
1&"
1'
1%"
10
#360000
00
#365000
0i
0U"
1$
13
b1000001110001100110011 %
b1000001110001100110011 B
b1000001110001100110011 4
b100000 K"
10
#370000
00
#375000
0i
0U"
1J
b11 r
b11 2"
b11 ^"
b110 c
b110 ]"
b110 f"
b110 L
b110 Z"
b110 '#
b100001 K"
b1 *"
0&
0&"
0'
0%"
b1000001110001100110011 $"
b1000001110001100110011 W"
b1000001110001100110011 a"
0$
03
10
#380000
00
#385000
0i
0U"
b10 *"
b100010 K"
10
#390000
00
#395000
1C
0i
0U"
b100011 K"
1_
b100 *"
10
#400000
00
#405000
0C
0i
0U"
0_
b0 *"
b11000 (
b11000 A
b11000 )"
b11000 c"
b110 N"
b100100 K"
10
#410000
00
#415000
0i
0U"
b100101 K"
1&
1&"
1'
1%"
10
#420000
00
#425000
0i
0U"
1$
13
b1000001100001110110011 %
b1000001100001110110011 B
b1000001100001110110011 4
b100110 K"
10
#430000
00
#435000
0i
0U"
1J
b100 r
b100 2"
b100 ^"
b100 c
b100 ]"
b100 f"
b111 L
b111 Z"
b111 '#
b100111 K"
b1 *"
0&
0&"
0'
0%"
b1000001100001110110011 $"
b1000001100001110110011 W"
b1000001100001110110011 a"
0$
03
10
#440000
00
#445000
0i
0U"
b10 *"
b101000 K"
10
#450000
00
#455000
1C
0i
0U"
b101001 K"
1_
b100 *"
10
#460000
00
#465000
0C
0i
0U"
0_
b0 *"
b11100 (
b11100 A
b11100 )"
b11100 c"
b111 N"
b101010 K"
10
#470000
00
#475000
0i
0U"
b101011 K"
1&
1&"
1'
1%"
10
#480000
00
#485000
0i
0U"
1$
13
b100000000000001110011 %
b100000000000001110011 B
b100000000000001110011 4
b101100 K"
10
#490000
00
#495000
b0 h
b0 6"
b11100 d
b11100 e"
b11 f
b11 d"
1e
0i
0U"
b1 l
b1 4"
1Z
1U
0J
b0 r
b0 2"
b0 ^"
b1110011 M
b1110011 ["
b0 c
b0 ]"
b0 f"
b0 I
b0 Y"
b0 )#
b1 G
b1 X"
b1 *#
b0 L
b0 Z"
b0 '#
b101101 K"
b1 *"
0&
0&"
0'
0%"
b100000000000001110011 $"
b100000000000001110011 W"
b100000000000001110011 a"
0$
03
10
#500000
00
#505000
0i
0U"
b10 *"
b101110 K"
10
#510000
00
#515000
0i
0U"
b101111 K"
b110 *"
b11100 /"
b11100 <"
b11 +"
b11 :"
b11100 -"
b11100 ;"
1,"
10
#520000
00
#525000
b0 d
b0 e"
b11 f
b11 d"
1e
0i
0U"
b0 *"
0,"
b0 (
b0 A
b0 )"
b0 c"
b1100000000000 Q"
b11100 R"
b11 J"
b11100 g
b11100 7"
b11100 L"
b110000 K"
10
#530000
00
#535000
0i
0U"
b110001 K"
1&
1&"
1'
1%"
10
#540000
00
#545000
0i
0U"
1$
13
b101000000000000010010011 %
b101000000000000010010011 B
b101000000000000010010011 4
b110010 K"
10
#550000
00
#555000
0m
b1010 o
b1010 3"
b1010 p
b1010 1"
0i
0U"
b1010 l
b1010 4"
1J
1n
0Z
0U
b1010 `
b1010 _"
b10011 M
b10011 ["
b1010 G
b1010 X"
b1010 *#
b1 L
b1 Z"
b1 '#
b0 f
b0 d"
0e
b110011 K"
b1 *"
0&
0&"
0'
0%"
b101000000000000010010011 $"
b101000000000000010010011 W"
b101000000000000010010011 a"
0$
03
10
#560000
00
#565000
0i
0U"
b10 *"
b110100 K"
10
#570000
00
#575000
b1010 K
b1010 (#
1C
0i
0U"
b110101 K"
1_
b100 *"
b1010 {
10
#580000
00
#585000
0C
0i
0U"
0_
b0 *"
b100 (
b100 A
b100 )"
b100 c"
b1000 N"
b110110 K"
10
#590000
00
#595000
0i
0U"
b110111 K"
1&
1&"
1'
1%"
10
#600000
00
#605000
0i
0U"
1$
13
b1010000000000000100010011 %
b1010000000000000100010011 B
b1010000000000000100010011 4
b111000 K"
10
#610000
00
#615000
b10100 o
b10100 3"
b10100 p
b10100 1"
0i
0U"
b10100 l
b10100 4"
1J
1n
b10100 `
b10100 _"
b10100 G
b10100 X"
b10100 *#
b10 L
b10 Z"
b10 '#
b111001 K"
b1 *"
0&
0&"
0'
0%"
b1010000000000000100010011 $"
b1010000000000000100010011 W"
b1010000000000000100010011 a"
0$
03
10
#620000
00
#625000
0i
0U"
b10 *"
b111010 K"
10
#630000
00
#635000
b10100 K
b10100 (#
1C
0i
0U"
b111011 K"
1_
b100 *"
b10100 {
10
#640000
00
#645000
0C
0i
0U"
0_
b0 *"
b1000 (
b1000 A
b1000 )"
b1000 c"
b1001 N"
b111100 K"
10
#650000
00
#655000
0i
0U"
b111101 K"
1&
1&"
1'
1%"
10
#660000
00
#665000
0i
0U"
1$
13
b1000001000000110110011 %
b1000001000000110110011 B
b1000001000000110110011 4
b111110 K"
10
#670000
00
#675000
b11110 o
b11110 3"
b1010 h
b1010 6"
b1010 q
b1010 0"
b1010 H
b1010 m"
b1010 ,#
b10100 F
b10100 l"
b10100 +#
0i
0U"
b10 l
b10 4"
1J
0n
b0 `
b0 _"
b110011 M
b110011 ["
b1 I
b1 Y"
b1 )#
b10 G
b10 X"
b10 *#
b11 L
b11 Z"
b11 '#
b111111 K"
b1 *"
0&
0&"
0'
0%"
b1000001000000110110011 $"
b1000001000000110110011 W"
b1000001000000110110011 a"
0$
03
10
#680000
00
#685000
0i
0U"
b10 *"
b1000000 K"
10
#690000
00
#695000
b11110 K
b11110 (#
1C
0i
0U"
b1000001 K"
1_
b100 *"
b11110 {
10
#700000
00
#705000
0C
0i
0U"
0_
b0 *"
b1100 (
b1100 A
b1100 )"
b1100 c"
b1010 N"
b1000010 K"
10
#710000
00
#715000
0i
0U"
b1000011 K"
1&
1&"
1'
1%"
10
#720000
00
#725000
0i
0U"
1$
13
b1000000000100010000001000110011 %
b1000000000100010000001000110011 B
b1000000000100010000001000110011 4
b1000100 K"
10
#730000
00
#735000
b10100 h
b10100 6"
b10100 q
b10100 0"
b1010 p
b1010 1"
b1010 o
b1010 3"
b10100 H
b10100 m"
b10100 ,#
b1010 F
b1010 l"
b1010 +#
0i
0U"
b10000000001 l
b10000000001 4"
b1 r
b1 2"
b1 ^"
1J
b100000 b
b100000 \"
b10 I
b10 Y"
b10 )#
b1 G
b1 X"
b1 *#
b100 L
b100 Z"
b100 '#
b1000101 K"
b1 *"
0&
0&"
0'
0%"
b1000000000100010000001000110011 $"
b1000000000100010000001000110011 W"
b1000000000100010000001000110011 a"
0$
03
10
#740000
00
#745000
0i
0U"
b10 *"
b1000110 K"
10
#750000
00
#755000
b1010 K
b1010 (#
1C
0i
0U"
b1000111 K"
1_
b100 *"
b1010 {
10
#760000
00
#765000
0C
0i
0U"
0_
b0 *"
b10000 (
b10000 A
b10000 )"
b10000 c"
b1011 N"
b1001000 K"
10
#770000
00
#775000
0i
0U"
b1001001 K"
1&
1&"
1'
1%"
10
#780000
00
#785000
0i
0U"
1$
13
b1000001111001010110011 %
b1000001111001010110011 B
b1000001111001010110011 4
b1001010 K"
10
#790000
00
#795000
b1 h
b1 6"
b1010 q
b1010 0"
b10100 p
b10100 1"
1m
b0 o
b0 3"
b1010 H
b1010 m"
b1010 ,#
b10100 F
b10100 l"
b10100 +#
0i
0U"
b10 l
b10 4"
1J
b10 r
b10 2"
b10 ^"
b111 c
b111 ]"
b111 f"
b0 b
b0 \"
b1 I
b1 Y"
b1 )#
b10 G
b10 X"
b10 *#
b101 L
b101 Z"
b101 '#
b1001011 K"
b1 *"
0&
0&"
0'
0%"
b1000001111001010110011 $"
b1000001111001010110011 W"
b1000001111001010110011 a"
0$
03
10
#800000
00
#805000
0i
0U"
b10 *"
b1001100 K"
10
#810000
00
#815000
b0 K
b0 (#
1C
0i
0U"
b1001101 K"
1_
b100 *"
b0 {
10
#820000
00
#825000
0C
0i
0U"
0_
b0 *"
b10100 (
b10100 A
b10100 )"
b10100 c"
b1100 N"
b1001110 K"
10
#830000
00
#835000
0i
0U"
b1001111 K"
1&
1&"
1'
1%"
10
#840000
00
#845000
0i
0U"
1$
13
b1000001110001100110011 %
b1000001110001100110011 B
b1000001110001100110011 4
b1010000 K"
10
#850000
00
#855000
0m
b11110 o
b11110 3"
0i
0U"
1J
b11 r
b11 2"
b11 ^"
b110 c
b110 ]"
b110 f"
b110 L
b110 Z"
b110 '#
b1010001 K"
b1 *"
0&
0&"
0'
0%"
b1000001110001100110011 $"
b1000001110001100110011 W"
b1000001110001100110011 a"
0$
03
10
#860000
00
#865000
0i
0U"
b10 *"
b1010010 K"
10
#870000
00
#875000
b11110 K
b11110 (#
1C
0i
0U"
b1010011 K"
1_
b100 *"
b11110 {
10
#880000
00
#885000
0C
0i
0U"
0_
b0 *"
b11000 (
b11000 A
b11000 )"
b11000 c"
b1101 N"
b1010100 K"
10
#890000
00
#895000
0i
0U"
b1010101 K"
1&
1&"
1'
1%"
10
#900000
00
#905000
0i
0U"
1$
13
b1000001100001110110011 %
b1000001100001110110011 B
b1000001100001110110011 4
b1010110 K"
10
#910000
00
#915000
0i
0U"
1J
b100 r
b100 2"
b100 ^"
b100 c
b100 ]"
b100 f"
b111 L
b111 Z"
b111 '#
b1010111 K"
b1 *"
0&
0&"
0'
0%"
b1000001100001110110011 $"
b1000001100001110110011 W"
b1000001100001110110011 a"
0$
03
10
#920000
00
#925000
0i
0U"
b10 *"
b1011000 K"
10
#930000
00
#935000
1C
0i
0U"
b1011001 K"
1_
b100 *"
10
#940000
00
#945000
0C
0i
0U"
0_
b0 *"
b11100 (
b11100 A
b11100 )"
b11100 c"
b1110 N"
b1011010 K"
10
#950000
00
#955000
0i
0U"
b1011011 K"
1&
1&"
1'
1%"
10
#960000
00
#965000
0i
0U"
1$
13
b100000000000001110011 %
b100000000000001110011 B
b100000000000001110011 4
b1011100 K"
10
#970000
00
#975000
b1010 o
b1010 3"
b0 K
b0 (#
b0 q
b0 0"
b1010 p
b1010 1"
b0 h
b0 6"
b11100 d
b11100 e"
b11 f
b11 d"
1e
b0 H
b0 m"
b0 ,#
b1010 F
b1010 l"
b1010 +#
0i
0U"
b1 l
b1 4"
1Z
1U
0J
b0 r
b0 2"
b0 ^"
b1110011 M
b1110011 ["
b0 c
b0 ]"
b0 f"
b0 I
b0 Y"
b0 )#
b1 G
b1 X"
b1 *#
b0 L
b0 Z"
b0 '#
b1011101 K"
b1 *"
0&
0&"
0'
0%"
b100000000000001110011 $"
b100000000000001110011 W"
b100000000000001110011 a"
0$
03
10
#980000
00
#985000
0i
0U"
b10 *"
b1011110 K"
10
#990000
00
#995000
0i
0U"
b1011111 K"
b110 *"
1,"
10
#1000000
00
#1005000
b0 d
b0 e"
b11 f
b11 d"
1e
0i
0U"
b0 *"
0,"
b0 (
b0 A
b0 )"
b0 c"
b1100000 K"
10
#1010000
00
#1015000
0i
0U"
b1100001 K"
1&
1&"
1'
1%"
10
#1020000
00
#1025000
0i
0U"
1$
13
b101000000000000010010011 %
b101000000000000010010011 B
b101000000000000010010011 4
b1100010 K"
10
#1030000
00
#1035000
b11110 K
b11110 (#
b0 F
b0 l"
b0 +#
0i
0U"
b1010 l
b1010 4"
1J
1n
0Z
0U
b1010 `
b1010 _"
b10011 M
b10011 ["
b1010 G
b1010 X"
b1010 *#
b1 L
b1 Z"
b1 '#
b0 f
b0 d"
0e
b1100011 K"
b1 *"
0&
0&"
0'
0%"
b101000000000000010010011 $"
b101000000000000010010011 W"
b101000000000000010010011 a"
0$
03
10
#1040000
00
#1045000
0i
0U"
b10 *"
b1100100 K"
10
#1050000
00
#1055000
b1010 K
b1010 (#
1C
0i
0U"
b1100101 K"
1_
b100 *"
b1010 {
10
#1060000
00
#1065000
0C
0i
0U"
0_
b0 *"
b100 (
b100 A
b100 )"
b100 c"
b1111 N"
b1100110 K"
10
#1070000
00
#1075000
0i
0U"
b1100111 K"
1&
1&"
1'
1%"
10
#1080000
00
#1085000
0i
0U"
1$
13
b1010000000000000100010011 %
b1010000000000000100010011 B
b1010000000000000100010011 4
b1101000 K"
10
#1090000
00
#1095000
b10100 o
b10100 3"
b10100 p
b10100 1"
0i
0U"
b10100 l
b10100 4"
1J
1n
b10100 `
b10100 _"
b10100 G
b10100 X"
b10100 *#
b10 L
b10 Z"
b10 '#
b1101001 K"
b1 *"
0&
0&"
0'
0%"
b1010000000000000100010011 $"
b1010000000000000100010011 W"
b1010000000000000100010011 a"
0$
03
10
#1100000
00
#1105000
0i
0U"
b10 *"
b1101010 K"
10
#1110000
00
#1115000
b10100 K
b10100 (#
1C
0i
0U"
b1101011 K"
1_
b100 *"
b10100 {
10
#1120000
00
#1125000
0C
0i
0U"
0_
b0 *"
b1000 (
b1000 A
b1000 )"
b1000 c"
b10000 N"
b1101100 K"
10
#1130000
00
