sim/testbench/interrupt_controller.vcd
$date
	Wed Dec 10 22:15:27 2025
$end
$version
	Icarus Verilog
$end
$timescale
	1ps
$end
$scope module tb_interrupt_controller $end
$var wire 1 ! interrupt_req $end
$var wire 32 " interrupt_lines [31:0] $end
$var wire 32 # interrupt_cause [31:0] $end
$var reg 1 $ clk $end
$var reg 1 % external_int $end
$var reg 1 & global_int_en $end
$var reg 32 ' mie [31:0] $end
$var reg 16 ( peripheral_ints [15:0] $end
$var reg 1 ) rst_n $end
$var reg 1 * software_int $end
$var reg 1 + timer_int $end
$var integer 32 , passed_tests [31:0] $end
$var integer 32 - total_tests [31:0] $end
$scope module dut $end
$var wire 1 $ clk $end
$var wire 1 % external_int $end
$var wire 1 & global_int_en $end
$var wire 32 . mie [31:0] $end
$var wire 32 / pending_and_enabled [31:0] $end
$var wire 16 0 peripheral_ints [15:0] $end
$var wire 1 ) rst_n $end
$var wire 1 * software_int $end
$var wire 1 + timer_int $end
$var reg 32 1 interrupt_cause [31:0] $end
$var reg 32 2 interrupt_lines [31:0] $end
$var reg 1 ! interrupt_req $end
$scope begin $unm_blk_19 $end
$var integer 32 3 i [31:0] $end
$upscope $end
$upscope $end
$scope task check $end
$var reg 1 4 actual $end
$var reg 1 5 expected $end
$var reg 256 6 test_name [255:0] $end
$upscope $end
$scope task check_32bit $end
$var reg 32 7 actual [31:0] $end
$var reg 32 8 expected [31:0] $end
$var reg 256 9 test_name [255:0] $end
$upscope $end
$upscope $end
$enddefinitions $end
$comment Show the parameter values. $end
$dumpall
$end
#0
$dumpvars
bx 9
bx 8
bx 7
bx 6
x5
x4
bx 3
b0 2
b0 1
b0 0
b0 /
b0 .
b0 -
b0 ,
0+
0*
0)
b0 (
b0 '
0&
0%
0$
b0 #
b0 "
0!
$end
#5000
1$
#10000
0$
#15000
1$
#20000
0$
1)
#25000
1$
#30000
b10000000 "
b10000000 2
0$
1+
#31000
b100000000000 "
b100000000000 2
1%
0+
b1 ,
b1 -
b10000000 7
b10000000 8
b10101000110100101101101011001010111001000100000011010010110111001110100011001010111001001110010011101010111000001110100001000000110000101110100001000000110001001101001011101000010000000110111 9
#32000
b1000 "
b1000 2
1*
0%
b10 ,
b10 -
b100000000000 7
b100000000000 8
b1000101011110000111010001100101011100100110111001100001011011000010000001101001011011100111010001100101011100100111001001110101011100000111010000100000011000010111010000100000011000100110100101110100001000000011000100110001 9
#33000
b10101011110011010000000000000000 "
b10101011110011010000000000000000 2
b1010101111001101 (
b1010101111001101 0
0*
b11 ,
b11 -
b1000 7
b1000 8
b10100110110111101100110011101000111011101100001011100100110010100100000011010010110111001110100011001010111001001110010011101010111000001110100001000000110000101110100001000000110001001101001011101000010000000110011 9
#34000
b100 ,
b100 -
b10101011110011010000000000000000 7
b10101011110011010000000000000000 8
b110100101110000011010000110010101110010011000010110110000100000011010010110111001110100011001010111001001110010011101010111000001110100011100110010000001100001011101000010000001100010011010010111010001110011001000000011001100110001001110100011000100110110 9
#35000
1$
#40000
0$
#44000
b10101011110011010000100010001000 /
b10101011110011010000100010001000 "
b10101011110011010000100010001000 2
b11111111111111111111111111111111 '
b11111111111111111111111111111111 .
1*
1%
1+
#45000
b101 ,
b101 -
04
05
b110100101101110011101000110010101110010011100100111010101110000011101000010000001110111011010000110010101101110001000000110011101101100011011110110001001100001011011000110110001111001001000000110010001101001011100110110000101100010011011000110010101100100 6
1$
#50000
0$
#55000
b0 /
b0 #
b0 1
0!
1$
b0 '
b0 .
1&
#56000
b110 ,
b110 -
b10011100110111100100000011010010110111001110100011001010111001001110010011101010111000001110100001000000111011101101000011001010110111000100000011011010110000101110011011010110110010101100100 6
#60000
0$
#65000
1$
#66000
b10000000000000000000000000000111 #
b10000000000000000000000000000111 1
1!
b10000000 /
b10000000 "
b10000000 2
b10001000 '
b10001000 .
b0 (
b0 0
0*
0%
#67000
b10000000000000000000000000000111 7
b10000000000000000000000000000111 8
b10101000110100101101101011001010111001000100000011010010110111001110100011001010111001001110010011101010111000001110100001000000110001101100001011101010111001101100101 9
b1000 ,
b1000 -
14
15
b101010001101001011011010110010101110010001000000110100101101110011101000110010101110010011100100111010101110000011101000010000001110010011001010111000101110101011001010111001101110100 6
#70000
0$
#75000
1$
#77000
b10000000000000000000000000001011 #
b10000000000000000000000000001011 1
1!
b100000000000 /
b100000000000 "
b100000000000 2
b100000001000 '
b100000001000 .
1%
0+
#78000
b10000000000000000000000000001011 7
b10000000000000000000000000001011 8
b10001010111100001110100011001010111001001101110011000010110110000100000011010010110111001110100011001010111001001110010011101010111000001110100001000000110001101100001011101010111001101100101 9
b1010 ,
b1010 -
b100010101111000011101000110010101110010011011100110000101101100001000000110100101101110011101000110010101110010011100100111010101110000011101000010000001110010011001010111000101110101011001010111001101110100 6
#80000
0$
#85000
1$
#88000
b10000000000000000000000000000011 #
b10000000000000000000000000000011 1
1!
b1000 /
b1000 "
b1000 2
b1000 '
b1000 .
1*
0%
#89000
b10000000000000000000000000000011 7
b10000000000000000000000000000011 8
b10100110110111101100110011101000111011101100001011100100110010100100000011010010110111001110100011001010111001001110010011101010111000001110100001000000110001101100001011101010111001101100101 9
b1100 ,
b1100 -
b101001101101111011001100111010001110111011000010111001001100101001000000110100101101110011101000110010101110010011100100111010101110000011101000010000001110010011001010111000101110101011001010111001101110100 6
#90000
0$
#95000
1$
#99000
b10000000000000000000000000001011 #
b10000000000000000000000000001011 1
1!
b100000001000 /
b100000001000 "
b100000001000 2
b100000001000 '
b100000001000 .
1%
#100000
b10000000000000000000000000001011 7
b10000000000000000000000000001011 8
b1000011011000010111010101110011011001010011101000100000010001010111100001110100011001010111001001101110011000010110110000100000011010010110111001110100011001010111001001110010011101010111000001110100 9
b1110 ,
b1110 -
b101000001110010011010010110111101110010011010010111010001111001001110100010000001000101011110000111010001100101011100100110111001100001011011000010000001101111011101100110010101110010001000000101001101101111011001100111010001110111011000010111001001100101 6
0$
#105000
1$
#110000
b10000000000000000000000000001011 #
b10000000000000000000000000001011 1
1!
b100010000000 /
b100010000000 "
b100010000000 2
0$
b100010001000 '
b100010001000 .
0*
1+
#111000
b10000 ,
b10000 -
b101000001110010011010010110111101110010011010010111010001111001001110100010000001000101011110000111010001100101011100100110111001100001011011000010000001101111011101100110010101110010001000000101010001101001011011010110010101110010 6
#115000
1$
#120000
0$
#121000
b10000000000000000000000000000011 #
b10000000000000000000000000000011 1
1!
b10001000 /
b10001000 "
b10001000 2
b10001000 '
b10001000 .
1*
0%
#122000
b10000000000000000000000000000011 7
b10000000000000000000000000000011 8
b1000011011000010111010101110011011001010011101000100000010100110110111101100110011101000111011101100001011100100110010100100000011010010110111001110100011001010111001001110010011101010111000001110100 9
b10010 ,
b10010 -
b101000001110010011010010110111101110010011010010111010001111001001110100010000001010011011011110110011001110100011101110110000101110010011001010010000001101111011101100110010101110010001000000101010001101001011011010110010101110010 6
#125000
1$
#130000
0$
#132000
b10000000000000000000000000001011 #
b10000000000000000000000000001011 1
1!
b100010001000 /
b100010001000 "
b100010001000 2
b100010001000 '
b100010001000 .
1%
#133000
b10000000000000000000000000001011 7
b10000000000000000000000000001011 8
b1000011011000010111010101110011011001010011101000100000010001010111100001110100011001010111001001101110011000010110110000100000011010010110111001110100011001010111001001110010011101010111000001110100 9
b10100 ,
b10100 -
b100000101101100011011000010000001110000011001010110111001100100011010010110111001100111001110100010000001000101011110000111010001100101011100100110111001100001011011000010000001110111011010010110111001110011 6
#135000
1$
#140000
0$
#143000
b11111111111111111111111111111110 3
b10000000000000000000000000010000 #
b10000000000000000000000000010000 1
1!
b10000000000000000 /
b10000000000000000 "
b10000000000000000 2
b10000000000000000 '
b10000000000000000 .
b1 (
b1 0
0*
0%
0+
#144000
b10000000000000000000000000010000 7
b10000000000000000000000000010000 8
b101000001100101011100100110100101110000011010000110010101110010011000010110110000100000011010010110111001110100011001010111001001110010011101010111000001110100001000000110001101100001011101010111001101100101 9
b10110 ,
b10110 -
b1010000011001010111001001101001011100000110100001100101011100100110000101101100001000000110100101101110011101000110010101110010011100100111010101110000011101000010000001110010011001010111000101110101011001010111001101110100 6
#145000
1$
#150000
0$
#154000
b11111111111111111111111111111110 3
b10000000000000000000000000011111 #
b10000000000000000000000000011111 1
1!
b10000000000000000000000000000000 /
b10000000000000000000000000000000 "
b10000000000000000000000000000000 2
b10000000000000000000000000000000 '
b10000000000000000000000000000000 .
b1000000000000000 (
b1000000000000000 0
#155000
b10000000000000000000000000011111 7
b10000000000000000000000000011111 8
b1001000011010010110011101101000001000000111000001100101011100100110100101110000011010000110010101110010011000010110110000100000011010010110111001110100011001010111001001110010011101010111000001110100001000000110001101100001011101010111001101100101 9
b11000 ,
b11000 -
b110100101100111011010000010000001110000011001010111001001101001011100000110100001100101011100100110000101101100001000000110100101101110011101000110010101110010011100100111010101110000011101000010000001110010011001010111000101110101011001010111001101110100 6
1$
#160000
0$
#165000
b11111111111111111111111111111110 3
b10000000000000000000000000011111 #
b10000000000000000000000000011111 1
1!
b11111111111111110000000000000000 /
b11111111111111110000000000000000 "
b11111111111111110000000000000000 2
1$
b11111111111111110000000000000000 '
b11111111111111110000000000000000 .
b1111111111111111 (
b1111111111111111 0
#166000
b1000011011000010111010101110011011001010011101000100000010000100110100101110100001000000011001100110001 9
b11010 ,
b11010 -
b110110001110100011010010111000001101100011001010010000001110000011001010111001001101001011100000110100001100101011100100110000101101100011100110011101000100000010010000110100101100111011010000110010101110011011101000010000001110111011010010110111001110011 6
#170000
0$
#175000
1$
#176000
b10000000000000000000000000001011 #
b10000000000000000000000000001011 1
1!
b11111111111111110000100000000000 /
b11111111111111110000100000000000 "
b11111111111111110000100000000000 2
b11111111111111110000100010001000 '
b11111111111111110000100010001000 .
1%
#177000
b10000000000000000000000000001011 7
b10000000000000000000000000001011 8
b100001101100001011101010111001101100101001110100010000001000101011110000111010001100101011100100110111001100001011011000010000000101000011011100110111101110100001000000111000001100101011100100110100101110000011010000110010101110010011000010110110000101001 9
b11100 ,
b11100 -
b10100110111010001100001011011100110010001100001011100100110010000100000011011110111011001100101011100100010000001110000011001010111001001101001011100000110100001100101011100100110000101101100 6
#180000
0$
#185000
1$
#187000
b10000000000000000000000000001011 #
b10000000000000000000000000001011 1
1!
b100000000000 /
b100000000000 '
b100000000000 .
#188000
b0 #
b0 1
0!
b0 /
b11111111111111110000000000000000 "
b11111111111111110000000000000000 2
0%
b11101 ,
b11101 -
b100100101101110011101000110010101110010011100100111010101110000011101000010000001110000011001010110111001100100011010010110111001100111 6
#189000
b11110 ,
b11110 -
04
05
b100100101101110011101000110010101110010011100100111010101110000011101000010000001100011011011000110010101100001011100100110010101100100 6
#190000
0$
#195000
1$
#199000
b10000000000000000000000000000111 #
b10000000000000000000000000000111 1
1!
b10000000 /
b11111111111111110000000010000000 "
b11111111111111110000000010000000 2
b10000000 '
b10000000 .
1+
#200000
b0 #
b0 1
0!
b0 /
b0 '
b0 .
b11111 ,
b11111 -
14
15
b1010100011010010110110101100101011100100010000001101001011011100111010001100101011100100111001001110101011100000111010000100000011000010110001101110100011010010111011001100101 6
0$
#201000
b10000000000000000000000000000111 #
b10000000000000000000000000000111 1
1!
b10000000 /
b10000000 '
b10000000 .
b100000 ,
b100000 -
04
05
b1010100011010010110110101100101011100100010000001101001011011100111010001100101011100100111001001110101011100000111010000100000011011010110000101110011011010110110010101100100 6
#202000
b100001 ,
b100001 -
14
15
b1010100011010010110110101100101011100100010000001101001011011100111010001100101011100100111001001110101011100000111010000100000011000010110001101110100011010010111011001100101001000000110000101100111011000010110100101101110 6
#205000
1$
#210000
0$
#213000
b0 #
b0 1
0!
0&
b100010 ,
b100010 -
b1001001011011100111010001100101011100100111001001110101011100000111010000100000011101110110100101110100011010000010000001100111011011000110111101100010011000010110110000100000011001010110111001100001011000100110110001100101 6
#214000
b10000000000000000000000000000111 #
b10000000000000000000000000000111 1
1!
1&
b100011 ,
b100011 -
04
05
b110010101110010011100100111010101110000011101000010000001100010011011000110111101100011011010110110010101100100001000000110001001111001001000000110011101101100011011110110001001100001011011000010000001100100011010010111001101100001011000100110110001100101 6
#215000
b100100 ,
b100100 -
14
15
b111001001110101011100000111010000100000011100100110010101110011011101000110111101110010011001010110010000100000011101110110100101110100011010000010000001100111011011000110111101100010011000010110110000100000011001010110111001100001011000100110110001100101 6
1$
#220000
0$
#225000
b0 #
b0 1
0!
b0 /
b0 "
b0 2
1$
b11111111111111111111111111111111 '
b11111111111111111111111111111111 .
b0 (
b0 0
0+
#226000
b0 7
b0 8
b1000011011000010111010101110011011001010010000001101001011100110010000001111010011001010111001001101111 9
b100110 ,
b100110 -
04
05
b10011100110111100100000011010010110111001110100011001010111001001110010011101010111000001110100001000000111011101101000011001010110111000100000011011100110111100100000011100110110111101110101011100100110001101100101 6
#230000
0$
#235000
1$
#236000
b10000000000000000000000000001011 #
b10000000000000000000000000001011 1
1!
b110001000010000100000001000 /
b1010110011000110000100000001000 "
b1010110011000110000100000001000 2
b110101110010111101100001101 '
b110101110010111101100001101 .
b101011001100011 (
b101011001100011 0
1*
1%
#240000
0$
#245000
1$
#246000
b11111111111111111111111111111110 3
b10000000000000000000000000011011 #
b10000000000000000000000000011011 1
1!
b1001000000010000000000000000 /
b11001101000011010000000010001000 "
b11001101000011010000000010001000 2
b111011001000111111000101110110 '
b111011001000111111000101110110 .
b1100110100001101 (
b1100110100001101 0
0%
1+
#250000
0$
#255000
1$
#256000
b0 #
b0 1
0!
b100000110001100000000010000000 /
b100100110001100000000010001000 "
b100100110001100000000010001000 2
0&
b11100010111101111000010011000101 '
b11100010111101111000010011000101 .
b10010011000110 (
b10010011000110 0
#260000
0$
#265000
1$
#266000
b1011001000000000000100010000000 /
b11011011100011110000100010000000 "
b11011011100011110000100010000000 2
b1111001001100000110100111110010 '
b1111001001100000110100111110010 .
b1101101110001111 (
b1101101110001111 0
0*
1%
#270000
0$
#275000
1$
#276000
b10000000000000000000000000001011 #
b10000000000000000000000000001011 1
1!
b101010010000100000000000 /
b101000101111010000100000000000 "
b101000101111010000100000000000 2
1&
b10010110101010110101100000101101 '
b10010110101010110101100000101101 .
b10100010111101 (
b10100010111101 0
0+
#280000
0$
#285000
1$
#286000
b10000000000000000000000000000111 #
b10000000000000000000000000000111 1
1!
b1001000000000000010000000 /
b100001001000000000000010000000 "
b100001001000000000000010000000 2
b1010101011110000100010110101010 '
b1010101011110000100010110101010 .
b10000100100000 (
b10000100100000 0
0%
1+
#290000
0$
#295000
1$
#296000
b10000000000000000000000000001011 #
b10000000000000000000000000001011 1
1!
b10100000100110000100000001000 /
b11010110010100110000100000001000 "
b11010110010100110000100000001000 2
b110101100111111101110101101011 '
b110101100111111101110101101011 .
b1101011001010011 (
b1101011001010011 0
1*
1%
0+
#300000
0$
#305000
1$
#306000
b0 #
b0 1
0!
b10000100001000000000000000000 /
b1110010110011110000000000001000 "
b1110010110011110000000000001000 2
0&
b10001100001000100100100100011 '
b10001100001000100100100100011 .
b111001011001111 (
b111001011001111 0
0%
#310000
0$
#315000
1$
#316000
b100000100000000000000000000000 /
b1100001100010100000000000000000 "
b1100001100010100000000000000000 2
b100000110001001011001101000001 '
b100000110001001011001101000001 .
b110000110001010 (
b110000110001010 0
0*
#320000
0$
#325000
1$
#326000
b1100001000000100000100000000000 /
b1100101101101100000100000001000 "
b1100101101101100000100000001000 2
b1100011010010111111100111000110 '
b1100011010010111111100111000110 .
b110010110110110 (
b110010110110110 0
1*
1%
