sim/testbench/simple_branch.vcd
$date
	Wed Dec 10 23:02:47 2025
$end
$version
	Icarus Verilog
$end
$timescale
	1ps
$end
$scope module tb_simple_branch $end
$var wire 32 ! dwb_dat_i [31:0] $end
$var wire 1 " dwb_err_i $end
$var wire 32 # iwb_dat_i [31:0] $end
$var wire 1 $ iwb_stb_o $end
$var wire 1 % iwb_cyc_o $end
$var wire 32 & iwb_adr_o [31:0] $end
$var wire 1 ' dwb_we_o $end
$var wire 1 ( dwb_stb_o $end
$var wire 4 ) dwb_sel_o [3:0] $end
$var wire 32 * dwb_dat_o [31:0] $end
$var wire 1 + dwb_cyc_o $end
$var wire 32 , dwb_adr_o [31:0] $end
$var reg 1 - clk $end
$var reg 1 . dwb_ack_i $end
$var reg 32 / interrupts [31:0] $end
$var reg 1 0 iwb_ack_i $end
$var reg 1 1 rst_n $end
$scope module dut $end
$var wire 1 - clk $end
$var wire 1 . dwb_ack_i $end
$var wire 32 2 dwb_adr_o [31:0] $end
$var wire 1 + dwb_cyc_o $end
$var wire 32 3 dwb_dat_i [31:0] $end
$var wire 32 4 dwb_dat_o [31:0] $end
$var wire 1 " dwb_err_i $end
$var wire 4 5 dwb_sel_o [3:0] $end
$var wire 1 ( dwb_stb_o $end
$var wire 1 ' dwb_we_o $end
$var wire 1 6 interrupt_req $end
$var wire 32 7 interrupts [31:0] $end
$var wire 1 0 iwb_ack_i $end
$var wire 32 8 iwb_adr_o [31:0] $end
$var wire 1 % iwb_cyc_o $end
$var wire 32 9 iwb_dat_i [31:0] $end
$var wire 1 $ iwb_stb_o $end
$var wire 1 : rd_wen $end
$var wire 1 1 rst_n $end
$var wire 1 ; stall $end
$var wire 32 < trap_vector [31:0] $end
$var wire 32 = rs2_data [31:0] $end
$var wire 5 > rs2_addr [4:0] $end
$var wire 32 ? rs1_data [31:0] $end
$var wire 5 @ rs1_addr [4:0] $end
$var wire 1 A reg_write $end
$var wire 32 B rd_data [31:0] $end
$var wire 5 C rd_addr [4:0] $end
$var wire 7 D opcode [6:0] $end
$var wire 1 E mem_write $end
$var wire 1 F mem_read $end
$var wire 32 G mdu_remainder [31:0] $end
$var wire 32 H mdu_quotient [31:0] $end
$var wire 64 I mdu_product [63:0] $end
$var wire 1 J mdu_done $end
$var wire 1 K mdu_busy $end
$var wire 1 L is_system $end
$var wire 1 M is_mret $end
$var wire 1 N is_m $end
$var wire 1 O is_jump $end
$var wire 1 P is_ecall $end
$var wire 1 Q is_ebreak $end
$var wire 1 R is_branch $end
$var wire 1 S interrupt_pending $end
$var wire 1 T interrupt_enabled $end
$var wire 32 U interrupt_cause [31:0] $end
$var wire 1 V instr_retired $end
$var wire 32 W immediate [31:0] $end
$var wire 1 X illegal_instr $end
$var wire 7 Y funct7 [6:0] $end
$var wire 3 Z funct3 [2:0] $end
$var wire 32 [ exception_val [31:0] $end
$var wire 1 \ exception_taken $end
$var wire 32 ] exception_cause [31:0] $end
$var wire 32 ^ epc_out [31:0] $end
$var wire 32 _ csr_wdata [31:0] $end
$var wire 1 ` csr_valid $end
$var wire 32 a csr_rdata [31:0] $end
$var wire 3 b csr_op [2:0] $end
$var wire 12 c csr_addr [11:0] $end
$var wire 1 d alu_zero $end
$var wire 1 e alu_src_imm $end
$var wire 32 f alu_result [31:0] $end
$var wire 32 g alu_operand_b [31:0] $end
$var wire 32 h alu_operand_a [31:0] $end
$var wire 4 i alu_op [3:0] $end
$var parameter 32 j RESET_VECTOR $end
$var parameter 3 k STATE_DECODE $end
$var parameter 3 l STATE_EXECUTE $end
$var parameter 3 m STATE_FETCH $end
$var parameter 3 n STATE_MEM $end
$var parameter 3 o STATE_MULDIV $end
$var parameter 3 p STATE_TRAP $end
$var parameter 3 q STATE_WRITEBACK $end
$var reg 32 r alu_result_reg [31:0] $end
$var reg 32 s dwb_adr_reg [31:0] $end
$var reg 1 t dwb_cyc_reg $end
$var reg 32 u dwb_dat_reg [31:0] $end
$var reg 4 v dwb_sel_reg [3:0] $end
$var reg 1 w dwb_stb_reg $end
$var reg 1 x dwb_we_reg $end
$var reg 32 y instruction [31:0] $end
$var reg 1 z iwb_cyc_reg $end
$var reg 1 { iwb_stb_reg $end
$var reg 32 | mdu_result_reg [31:0] $end
$var reg 1 } mdu_start $end
$var reg 32 ~ pc [31:0] $end
$var reg 3 !" state [2:0] $end
$var reg 32 "" trap_cause [31:0] $end
$var reg 1 #" trap_entry $end
$var reg 32 $" trap_pc [31:0] $end
$var reg 1 %" trap_return $end
$var reg 32 &" trap_val [31:0] $end
$scope module alu_inst $end
$var wire 32 '" operand_a [31:0] $end
$var wire 32 (" operand_b [31:0] $end
$var wire 1 d zero $end
$var wire 4 )" alu_op [3:0] $end
$var reg 32 *" result [31:0] $end
$upscope $end
$scope module csr_inst $end
$var wire 1 - clk $end
$var wire 12 +" csr_addr [11:0] $end
$var wire 3 ," csr_op [2:0] $end
$var wire 1 ` csr_valid $end
$var wire 32 -" csr_wdata [31:0] $end
$var wire 32 ." epc_out [31:0] $end
$var wire 1 V instr_retired $end
$var wire 1 T interrupt_enabled $end
$var wire 1 S interrupt_pending $end
$var wire 32 /" interrupts_i [31:0] $end
$var wire 32 0" pending_and_enabled [31:0] $end
$var wire 1 1 rst_n $end
$var wire 32 1" trap_cause [31:0] $end
$var wire 1 #" trap_entry $end
$var wire 32 2" trap_pc [31:0] $end
$var wire 1 %" trap_return $end
$var wire 32 3" trap_val [31:0] $end
$var wire 2 4" mtvec_mode [1:0] $end
$var wire 32 5" mtvec_base [31:0] $end
$var wire 1 6" mpie_bit $end
$var wire 1 7" mie_bit $end
$var wire 1 8" csr_write $end
$var parameter 32 9" MARCHID $end
$var parameter 32 :" MHARTID $end
$var parameter 32 ;" MIMPID $end
$var parameter 32 <" MISA $end
$var parameter 32 =" MVENDORID $end
$var reg 32 >" csr_rdata [31:0] $end
$var reg 32 ?" csr_wdata_final [31:0] $end
$var reg 32 @" interrupt_cause [31:0] $end
$var reg 32 A" mcause [31:0] $end
$var reg 64 B" mcycle [63:0] $end
$var reg 32 C" mepc [31:0] $end
$var reg 32 D" mie [31:0] $end
$var reg 64 E" minstret [63:0] $end
$var reg 32 F" mip [31:0] $end
$var reg 32 G" mscratch [31:0] $end
$var reg 32 H" mstatus [31:0] $end
$var reg 32 I" mtval [31:0] $end
$var reg 32 J" mtvec [31:0] $end
$var reg 32 K" trap_vector [31:0] $end
$var reg 1 L" valid $end
$var integer 32 M" i [31:0] $end
$upscope $end
$scope module decoder_inst $end
$var wire 32 N" instruction [31:0] $end
$var wire 5 O" rs2_addr [4:0] $end
$var wire 5 P" rs1_addr [4:0] $end
$var wire 5 Q" rd_addr [4:0] $end
$var wire 7 R" opcode [6:0] $end
$var wire 7 S" funct7 [6:0] $end
$var wire 3 T" funct3 [2:0] $end
$var reg 4 U" alu_op [3:0] $end
$var reg 1 e alu_src_imm $end
$var reg 1 X illegal_instr $end
$var reg 32 V" immediate [31:0] $end
$var reg 1 R is_branch $end
$var reg 1 Q is_ebreak $end
$var reg 1 P is_ecall $end
$var reg 1 O is_jump $end
$var reg 1 N is_m $end
$var reg 1 M is_mret $end
$var reg 1 L is_system $end
$var reg 1 W" is_wfi $end
$var reg 1 F mem_read $end
$var reg 1 E mem_write $end
$var reg 1 A reg_write $end
$upscope $end
$scope module exc_unit $end
$var wire 1 " bus_error $end
$var wire 1 Q ebreak $end
$var wire 1 P ecall $end
$var wire 1 X illegal_instr $end
$var wire 32 X" instruction [31:0] $end
$var wire 32 Y" mem_addr [31:0] $end
$var wire 1 F mem_read $end
$var wire 1 E mem_write $end
$var wire 32 Z" pc [31:0] $end
$var reg 32 [" exception_cause [31:0] $end
$var reg 1 \ exception_taken $end
$var reg 32 \" exception_val [31:0] $end
$upscope $end
$scope module mdu_inst $end
$var wire 1 - clk $end
$var wire 3 ]" funct3 [2:0] $end
$var wire 1 ^" is_div $end
$var wire 1 _" is_mul $end
$var wire 1 `" mul_signed_a $end
$var wire 1 1 rst_n $end
$var wire 1 } start $end
$var wire 1 a" mul_signed_b $end
$var wire 2 b" div_op_sel [1:0] $end
$var wire 32 c" b [31:0] $end
$var wire 32 d" a [31:0] $end
$var parameter 2 e" DIV $end
$var parameter 2 f" IDLE $end
$var parameter 2 g" MUL $end
$var reg 32 h" a_latched [31:0] $end
$var reg 64 i" acc [63:0] $end
$var reg 32 j" b_latched [31:0] $end
$var reg 1 K busy $end
$var reg 6 k" div_count [5:0] $end
$var reg 32 l" dividend_abs [31:0] $end
$var reg 1 m" dividend_neg $end
$var reg 64 n" dividend_shift [63:0] $end
$var reg 32 o" divisor_abs [31:0] $end
$var reg 1 p" divisor_neg $end
$var reg 1 J done $end
$var reg 6 q" mul_count [5:0] $end
$var reg 1 r" mul_sign $end
$var reg 64 s" multiplicand [63:0] $end
$var reg 32 t" multiplier [31:0] $end
$var reg 3 u" op_latched [2:0] $end
$var reg 64 v" product [63:0] $end
$var reg 32 w" quotient [31:0] $end
$var reg 32 x" quotient_reg [31:0] $end
$var reg 32 y" remainder [31:0] $end
$var reg 32 z" remainder_reg [31:0] $end
$var reg 2 {" state [1:0] $end
$upscope $end
$scope module regfile_inst $end
$var wire 1 - clk $end
$var wire 5 |" rd_addr [4:0] $end
$var wire 32 }" rd_data [31:0] $end
$var wire 1 : rd_wen $end
$var wire 5 ~" rs1_addr [4:0] $end
$var wire 5 !# rs2_addr [4:0] $end
$var wire 1 1 rst_n $end
$var wire 32 "# rs2_data [31:0] $end
$var wire 32 ## rs1_data [31:0] $end
$var integer 32 $# i [31:0] $end
$upscope $end
$upscope $end
$upscope $end
$enddefinitions $end
$comment Show the parameter values. $end
$dumpall
b1 g"
b0 f"
b10 e"
b0 ="
b1000000000000000000000100000000 <"
b1 ;"
b0 :"
b0 9"
b100 q
b110 p
b101 o
b11 n
b0 m
b10 l
b1 k
b0 j
$end
#0
$dumpvars
b100000 $#
bx ##
bx "#
bx !#
bx ~"
bx }"
bx |"
b0 {"
b0 z"
b0 y"
b0 x"
b0 w"
b0 v"
b0 u"
b0 t"
b0 s"
xr"
b0 q"
0p"
b0 o"
b0 n"
0m"
bx l"
b0 k"
b0 j"
b0 i"
b0 h"
bx d"
bx c"
b11 b"
0a"
0`"
1_"
0^"
bx ]"
b0 \"
b0 ["
b0 Z"
bx Y"
bx X"
xW"
bx V"
bx U"
bx T"
bx S"
bx R"
bx Q"
bx P"
bx O"
bx N"
b11111111111111111111111111111111 M"
0L"
b0 K"
b0 J"
b0 I"
b0 H"
b0 G"
b0 F"
b0 E"
b0 D"
b0 C"
b0 B"
b0 A"
b0 @"
b0 ?"
b0 >"
x8"
07"
06"
b0 5"
b0 4"
b0 3"
b0 2"
b0 1"
b0 0"
b0 /"
b0 ."
bx -"
bx ,"
bx +"
bx *"
bx )"
bx ("
bx '"
b0 &"
0%"
b0 $"
0#"
b0 ""
b0 !"
b0 ~
0}
b0 |
0{
0z
bx y
xx
0w
bx v
bx u
0t
bx s
bx r
bx i
bx h
bx g
bx f
xe
xd
bx c
bx b
b0 a
0`
bx _
b0 ^
b0 ]
0\
b0 [
bx Z
bx Y
xX
bx W
0V
b0 U
0T
0S
xR
xQ
xP
xO
xN
xM
xL
0K
0J
b0 I
b0 H
b0 G
xF
xE
bx D
bx C
bx B
xA
bx @
bx ?
bx >
bx =
b0 <
0;
0:
b101000000000000010010011 9
b0 8
b0 7
06
bx 5
bx 4
b0 3
bx 2
01
00
b0 /
0.
0-
bx ,
0+
bx *
bx )
0(
x'
b0 &
0%
0$
b101000000000000010010011 #
0"
b0 !
$end
#5000
b100000 $#
1-
#10000
0-
#15000
b100000 $#
1-
#20000
0-
11
#25000
0`
0L"
1$
1{
1%
1z
b1 B"
1-
#30000
0-
#35000
0`
0L"
b10 B"
10
1-
#40000
0-
#45000
b0 _
b0 -"
0d
b1010 f
b1010 *"
b1010 g
b1010 ("
b0 h
b0 '"
08"
b0 b
b0 ,"
b0 ?
b0 d"
b0 ##
b0 =
b0 c"
b0 "#
b1010 c
b1010 +"
0X
0W"
0M
0Q
0P
0N
0L
0O
0R
1A
0E
0F
1e
b0 i
b0 )"
b0 U"
b1010 W
b1010 V"
b10011 D
b10011 R"
b0 Z
b0 T"
b0 ]"
b0 Y
b0 S"
b0 @
b0 P"
b0 ~"
b1010 >
b1010 O"
b1010 !#
b1 C
b1 Q"
b1 |"
0`
0L"
b1 !"
0$
0{
0%
0z
b101000000000000010010011 y
b101000000000000010010011 N"
b101000000000000010010011 X"
b11 B"
1-
#50000
0-
#55000
0`
0L"
b100 B"
b10 !"
00
1-
#60000
0-
#65000
b1010 B
b1010 }"
1:
0`
0L"
1V
b100 !"
b1010 r
b101 B"
1-
#70000
0-
#75000
0:
0`
0L"
b101000000000000100010011 #
b101000000000000100010011 9
b1 E"
b110 B"
0V
b0 !"
b100 &
b100 8
b100 ~
b100 Z"
1-
#80000
0-
#85000
0`
0L"
1$
1{
1%
1z
b111 B"
1-
#90000
0-
#95000
0`
0L"
b1000 B"
10
1-
#100000
0-
#105000
1A
1e
b10 C
b10 Q"
b10 |"
0`
0L"
b1 !"
0$
0{
0%
0z
b101000000000000100010011 y
b101000000000000100010011 N"
b101000000000000100010011 X"
b1001 B"
1-
#110000
0-
#115000
0`
0L"
b1010 B"
b10 !"
00
1-
#120000
0-
#125000
1:
0`
0L"
1V
b100 !"
b1011 B"
1-
#130000
0-
#135000
0:
0`
0L"
b1000001000011001100011 #
b1000001000011001100011 9
b10 E"
b1100 B"
0V
b0 !"
b1000 &
b1000 8
b1000 ~
b1000 Z"
1-
#140000
0-
#145000
0`
0L"
1$
1{
1%
1z
b1101 B"
1-
#150000
0-
#155000
0`
0L"
b1110 B"
10
1-
#160000
0-
#165000
1d
b1010 _
b1010 -"
b1010 h
b1010 '"
b0 f
b0 *"
b1010 ?
b1010 d"
b1010 ##
b1010 =
b1010 c"
b1010 "#
b10 c
b10 +"
1R
b1 i
b1 )"
b1 U"
0A
0e
b1100 W
b1100 V"
b1100011 D
b1100011 R"
b1 @
b1 P"
b1 ~"
b10 >
b10 O"
b10 !#
b1100 C
b1100 Q"
b1100 |"
0`
0L"
b1 !"
0$
0{
0%
0z
b1000001000011001100011 y
b1000001000011001100011 N"
b1000001000011001100011 X"
b1111 B"
1-
#170000
0-
#175000
0`
0L"
b10000 B"
b10 !"
00
1-
#180000
0-
#185000
b0 B
b0 }"
0`
0L"
1V
b100 !"
b0 r
b10001 B"
1-
#190000
0-
#195000
0`
0L"
b100110100000000001010010011 #
b100110100000000001010010011 9
b11 E"
b10010 B"
0V
b0 !"
b10100 &
b10100 8
b10100 ~
b10100 Z"
1-
#200000
0-
#205000
0`
0L"
1$
1{
1%
1z
b10011 B"
1-
#210000
0-
#215000
0`
0L"
b10100 B"
10
1-
#220000
0-
#225000
b0 _
b0 -"
b0 h
b0 '"
b1001101 g
b1001101 ("
0d
b1001101 f
b1001101 *"
b0 ?
b0 d"
b0 ##
b0 =
b0 c"
b0 "#
b1001101 c
b1001101 +"
1A
1e
0R
b0 i
b0 )"
b0 U"
b1001101 W
b1001101 V"
b10011 D
b10011 R"
b10 Y
b10 S"
b0 @
b0 P"
b0 ~"
b1101 >
b1101 O"
b1101 !#
b101 C
b101 Q"
b101 |"
0`
0L"
b1 !"
0$
0{
0%
0z
b100110100000000001010010011 y
b100110100000000001010010011 N"
b100110100000000001010010011 X"
b10101 B"
1-
#230000
0-
#235000
0`
0L"
b10110 B"
b10 !"
00
1-
#240000
0-
#245000
b1001101 B
b1001101 }"
1:
0`
0L"
1V
b100 !"
b1001101 r
b10111 B"
1-
#250000
0-
#255000
0:
0`
0L"
b100000000000001110011 #
b100000000000001110011 9
b100 E"
b11000 B"
0V
b0 !"
b11000 &
b11000 8
b11000 ~
b11000 Z"
1-
#260000
0-
#265000
0`
0L"
1$
1{
1%
1z
b11001 B"
1-
#270000
0-
#275000
0`
0L"
b11010 B"
10
1-
#280000
0-
#285000
b0 B
b0 }"
b1010 f
b1010 *"
b11000 [
b11000 \"
b11 ]
b11 ["
1\
b1010 g
b1010 ("
b1010 =
b1010 c"
b1010 "#
b1 c
b1 +"
1Q
1L
0A
0e
b0 W
b0 V"
b1110011 D
b1110011 R"
b0 Y
b0 S"
b1 >
b1 O"
b1 !#
b0 C
b0 Q"
b0 |"
0`
0L"
b1 !"
0$
0{
0%
0z
b100000000000001110011 y
b100000000000001110011 N"
b100000000000001110011 X"
b11011 B"
1-
#290000
0-
#295000
0`
0L"
b11100 B"
b10 !"
00
1-
#300000
0-
#305000
0`
0L"
b110 !"
b11000 &"
b11000 3"
b11 ""
b11 1"
b11000 $"
b11000 2"
1#"
b11101 B"
1-
#310000
0-
#315000
0`
0L"
b0 [
b0 \"
b11 ]
b11 ["
1\
b101000000000000010010011 #
b101000000000000010010011 9
b1100000000000 H"
b11000 I"
b11 A"
b11000 ^
b11000 ."
b11000 C"
b11110 B"
b0 !"
0#"
b0 &
b0 8
b0 ~
b0 Z"
1-
#320000
0-
#325000
0`
0L"
1$
1{
1%
1z
b11111 B"
1-
#330000
0-
#335000
0`
0L"
b100000 B"
10
1-
#340000
0-
#345000
b1001101 B
b1001101 }"
b0 =
b0 c"
b0 "#
b1010 c
b1010 +"
1A
1e
0Q
0L
b1010 W
b1010 V"
b10011 D
b10011 R"
b1010 >
b1010 O"
b1010 !#
b1 C
b1 Q"
b1 |"
b0 ]
b0 ["
0\
0`
0L"
b1 !"
0$
0{
0%
0z
b101000000000000010010011 y
b101000000000000010010011 N"
b101000000000000010010011 X"
b100001 B"
1-
#350000
0-
#355000
0`
0L"
b100010 B"
b10 !"
00
1-
#360000
0-
#365000
b1010 B
b1010 }"
1:
0`
0L"
1V
b100 !"
b1010 r
b100011 B"
1-
#370000
0-
#375000
0:
0`
0L"
b101000000000000100010011 #
b101000000000000100010011 9
b101 E"
b100100 B"
0V
b0 !"
b100 &
b100 8
b100 ~
b100 Z"
1-
#380000
0-
#385000
0`
0L"
1$
1{
1%
1z
b100101 B"
1-
#390000
0-
#395000
0`
0L"
b100110 B"
10
1-
#400000
0-
#405000
1A
1e
b10 C
b10 Q"
b10 |"
0`
0L"
b1 !"
0$
0{
0%
0z
b101000000000000100010011 y
b101000000000000100010011 N"
b101000000000000100010011 X"
b100111 B"
1-
#410000
0-
#415000
0`
0L"
b101000 B"
b10 !"
00
1-
#420000
0-
#425000
1:
0`
0L"
1V
b100 !"
b101001 B"
1-
#430000
0-
#435000
0:
0`
0L"
b1000001000011001100011 #
b1000001000011001100011 9
b110 E"
b101010 B"
0V
b0 !"
b1000 &
b1000 8
b1000 ~
b1000 Z"
1-
#440000
0-
#445000
0`
0L"
1$
1{
1%
1z
b101011 B"
1-
#450000
0-
#455000
0`
0L"
b101100 B"
10
1-
#460000
0-
#465000
1d
b1010 _
b1010 -"
b1010 h
b1010 '"
b0 f
b0 *"
b1010 ?
b1010 d"
b1010 ##
b1010 =
b1010 c"
b1010 "#
b10 c
b10 +"
1R
b1 i
b1 )"
b1 U"
0A
0e
b1100 W
b1100 V"
b1100011 D
b1100011 R"
b1 @
b1 P"
b1 ~"
b10 >
b10 O"
b10 !#
b1100 C
b1100 Q"
b1100 |"
0`
0L"
b1 !"
0$
0{
0%
0z
b1000001000011001100011 y
b1000001000011001100011 N"
b1000001000011001100011 X"
b101101 B"
1-
#470000
0-
#475000
0`
0L"
b101110 B"
b10 !"
00
1-
#480000
0-
#485000
b0 B
b0 }"
0`
0L"
1V
b100 !"
b0 r
b101111 B"
1-
#490000
0-
#495000
0`
0L"
b100110100000000001010010011 #
b100110100000000001010010011 9
b111 E"
b110000 B"
0V
b0 !"
b10100 &
b10100 8
b10100 ~
b10100 Z"
1-
#500000
0-
#505000
0`
0L"
1$
1{
1%
1z
b110001 B"
1-
#510000
0-
#515000
0`
0L"
b110010 B"
10
1-
#520000
0-
#525000
b0 _
b0 -"
b0 h
b0 '"
b1001101 g
b1001101 ("
0d
b1001101 f
b1001101 *"
b0 ?
b0 d"
b0 ##
b0 =
b0 c"
b0 "#
b1001101 c
b1001101 +"
1A
1e
0R
b0 i
b0 )"
b0 U"
b1001101 W
b1001101 V"
b10011 D
b10011 R"
b10 Y
b10 S"
b0 @
b0 P"
b0 ~"
b1101 >
b1101 O"
b1101 !#
b101 C
b101 Q"
b101 |"
0`
0L"
b1 !"
0$
0{
0%
0z
b100110100000000001010010011 y
b100110100000000001010010011 N"
b100110100000000001010010011 X"
b110011 B"
1-
#530000
0-
#535000
0`
0L"
b110100 B"
b10 !"
00
1-
#540000
0-
#545000
b1001101 B
b1001101 }"
1:
0`
0L"
1V
b100 !"
b1001101 r
b110101 B"
1-
#550000
0-
#555000
0:
0`
0L"
b100000000000001110011 #
b100000000000001110011 9
b1000 E"
b110110 B"
0V
b0 !"
b11000 &
b11000 8
b11000 ~
b11000 Z"
1-
#560000
0-
#565000
0`
0L"
1$
1{
1%
1z
b110111 B"
1-
#570000
0-
#575000
0`
0L"
b111000 B"
10
1-
#580000
0-
#585000
b0 B
b0 }"
b1010 f
b1010 *"
b11000 [
b11000 \"
b11 ]
b11 ["
1\
b1010 g
b1010 ("
b1010 =
b1010 c"
b1010 "#
b1 c
b1 +"
1Q
1L
0A
0e
b0 W
b0 V"
b1110011 D
b1110011 R"
b0 Y
b0 S"
b1 >
b1 O"
b1 !#
b0 C
b0 Q"
b0 |"
0`
0L"
b1 !"
0$
0{
0%
0z
b100000000000001110011 y
b100000000000001110011 N"
b100000000000001110011 X"
b111001 B"
1-
#590000
0-
#595000
0`
0L"
b111010 B"
b10 !"
00
1-
#600000
0-
#605000
0`
0L"
b110 !"
1#"
b111011 B"
1-
#610000
0-
#615000
0`
0L"
b0 [
b0 \"
b11 ]
b11 ["
1\
b101000000000000010010011 #
b101000000000000010010011 9
b111100 B"
b0 !"
0#"
b0 &
b0 8
b0 ~
b0 Z"
1-
#620000
0-
#625000
0`
0L"
1$
1{
1%
1z
b111101 B"
1-
#630000
0-
#635000
0`
0L"
b111110 B"
10
1-
#640000
0-
#645000
b1001101 B
b1001101 }"
b0 =
b0 c"
b0 "#
b1010 c
b1010 +"
1A
1e
0Q
0L
b1010 W
b1010 V"
b10011 D
b10011 R"
b1010 >
b1010 O"
b1010 !#
b1 C
b1 Q"
b1 |"
b0 ]
b0 ["
0\
0`
0L"
b1 !"
0$
0{
0%
0z
b101000000000000010010011 y
b101000000000000010010011 N"
b101000000000000010010011 X"
b111111 B"
1-
#650000
0-
#655000
0`
0L"
b1000000 B"
b10 !"
00
1-
#660000
0-
#665000
b1010 B
b1010 }"
1:
0`
0L"
1V
b100 !"
b1010 r
b1000001 B"
1-
#670000
0-
#675000
0:
0`
0L"
b101000000000000100010011 #
b101000000000000100010011 9
b1001 E"
b1000010 B"
0V
b0 !"
b100 &
b100 8
b100 ~
b100 Z"
1-
#680000
0-
#685000
0`
0L"
1$
1{
1%
1z
b1000011 B"
1-
#690000
0-
#695000
0`
0L"
b1000100 B"
10
1-
#700000
0-
#705000
1A
1e
b10 C
b10 Q"
b10 |"
0`
0L"
b1 !"
0$
0{
0%
0z
b101000000000000100010011 y
b101000000000000100010011 N"
b101000000000000100010011 X"
b1000101 B"
1-
#710000
0-
#715000
0`
0L"
b1000110 B"
b10 !"
00
1-
#720000
0-
#725000
1:
0`
0L"
1V
b100 !"
b1000111 B"
1-
#730000
0-
#735000
0:
0`
0L"
b1000001000011001100011 #
b1000001000011001100011 9
b1010 E"
b1001000 B"
0V
b0 !"
b1000 &
b1000 8
b1000 ~
b1000 Z"
1-
#740000
0-
#745000
0`
0L"
1$
1{
1%
1z
b1001001 B"
1-
#750000
0-
#755000
0`
0L"
b1001010 B"
10
1-
#760000
0-
#765000
1d
b1010 _
b1010 -"
b1010 h
b1010 '"
b0 f
b0 *"
b1010 ?
b1010 d"
b1010 ##
b1010 =
b1010 c"
b1010 "#
b10 c
b10 +"
1R
b1 i
b1 )"
b1 U"
0A
0e
b1100 W
b1100 V"
b1100011 D
b1100011 R"
b1 @
b1 P"
b1 ~"
b10 >
b10 O"
b10 !#
b1100 C
b1100 Q"
b1100 |"
0`
0L"
b1 !"
0$
0{
0%
0z
b1000001000011001100011 y
b1000001000011001100011 N"
b1000001000011001100011 X"
b1001011 B"
1-
#770000
0-
#775000
0`
0L"
b1001100 B"
b10 !"
00
1-
#780000
0-
#785000
b0 B
b0 }"
0`
0L"
1V
b100 !"
b0 r
b1001101 B"
1-
#790000
0-
#795000
0`
0L"
b100110100000000001010010011 #
b100110100000000001010010011 9
b1011 E"
b1001110 B"
0V
b0 !"
b10100 &
b10100 8
b10100 ~
b10100 Z"
1-
#800000
0-
#805000
0`
0L"
1$
1{
1%
1z
b1001111 B"
1-
#810000
0-
#815000
0`
0L"
b1010000 B"
10
1-
#820000
0-
#825000
b0 _
b0 -"
b0 h
b0 '"
b1001101 g
b1001101 ("
0d
b1001101 f
b1001101 *"
b0 ?
b0 d"
b0 ##
b0 =
b0 c"
b0 "#
b1001101 c
b1001101 +"
1A
1e
0R
b0 i
b0 )"
b0 U"
b1001101 W
b1001101 V"
b10011 D
b10011 R"
b10 Y
b10 S"
b0 @
b0 P"
b0 ~"
b1101 >
b1101 O"
b1101 !#
b101 C
b101 Q"
b101 |"
0`
0L"
b1 !"
0$
0{
0%
0z
b100110100000000001010010011 y
b100110100000000001010010011 N"
b100110100000000001010010011 X"
b1010001 B"
1-
#830000
0-
#835000
0`
0L"
b1010010 B"
b10 !"
00
1-
#840000
0-
#845000
b1001101 B
b1001101 }"
1:
0`
0L"
1V
b100 !"
b1001101 r
b1010011 B"
1-
#850000
0-
#855000
0:
0`
0L"
b100000000000001110011 #
b100000000000001110011 9
b1100 E"
b1010100 B"
0V
b0 !"
b11000 &
b11000 8
b11000 ~
b11000 Z"
1-
#860000
0-
#865000
0`
0L"
1$
1{
1%
1z
b1010101 B"
1-
#870000
0-
#875000
0`
0L"
b1010110 B"
10
1-
#880000
0-
#885000
b0 B
b0 }"
b1010 f
b1010 *"
b11000 [
b11000 \"
b11 ]
b11 ["
1\
b1010 g
b1010 ("
b1010 =
b1010 c"
b1010 "#
b1 c
b1 +"
1Q
1L
0A
0e
b0 W
b0 V"
b1110011 D
b1110011 R"
b0 Y
b0 S"
b1 >
b1 O"
b1 !#
b0 C
b0 Q"
b0 |"
0`
0L"
b1 !"
0$
0{
0%
0z
b100000000000001110011 y
b100000000000001110011 N"
b100000000000001110011 X"
b1010111 B"
1-
#890000
0-
#895000
0`
0L"
b1011000 B"
b10 !"
00
1-
#900000
0-
#905000
0`
0L"
b110 !"
1#"
b1011001 B"
1-
#910000
0-
#915000
0`
0L"
b0 [
b0 \"
b11 ]
b11 ["
1\
b101000000000000010010011 #
b101000000000000010010011 9
b1011010 B"
b0 !"
0#"
b0 &
b0 8
b0 ~
b0 Z"
1-
#920000
0-
#925000
0`
0L"
1$
1{
1%
1z
b1011011 B"
1-
#930000
0-
#935000
0`
0L"
b1011100 B"
10
1-
#940000
0-
#945000
b1001101 B
b1001101 }"
b0 =
b0 c"
b0 "#
b1010 c
b1010 +"
1A
1e
0Q
0L
b1010 W
b1010 V"
b10011 D
b10011 R"
b1010 >
b1010 O"
b1010 !#
b1 C
b1 Q"
b1 |"
b0 ]
b0 ["
0\
0`
0L"
b1 !"
0$
0{
0%
0z
b101000000000000010010011 y
b101000000000000010010011 N"
b101000000000000010010011 X"
b1011101 B"
1-
#950000
0-
#955000
0`
0L"
b1011110 B"
b10 !"
00
1-
#960000
0-
#965000
b1010 B
b1010 }"
1:
0`
0L"
1V
b100 !"
b1010 r
b1011111 B"
1-
#970000
0-
#975000
0:
0`
0L"
b101000000000000100010011 #
b101000000000000100010011 9
b1101 E"
b1100000 B"
0V
b0 !"
b100 &
b100 8
b100 ~
b100 Z"
1-
#980000
0-
#985000
0`
0L"
1$
1{
1%
1z
b1100001 B"
1-
#990000
0-
#995000
0`
0L"
b1100010 B"
10
1-
#1000000
0-
#1005000
1A
1e
b10 C
b10 Q"
b10 |"
0`
0L"
b1 !"
0$
0{
0%
0z
b101000000000000100010011 y
b101000000000000100010011 N"
b101000000000000100010011 X"
b1100011 B"
1-
#1010000
0-
#1015000
0`
0L"
b1100100 B"
b10 !"
00
1-
#1020000
0-
#1025000
1:
0`
0L"
1V
b100 !"
b1100101 B"
1-
#1030000
0-
#1035000
0:
0`
0L"
b1000001000011001100011 #
b1000001000011001100011 9
b1110 E"
b1100110 B"
0V
b0 !"
b1000 &
b1000 8
b1000 ~
b1000 Z"
1-
#1040000
0-
#1045000
0`
0L"
1$
1{
1%
1z
b1100111 B"
1-
#1050000
0-
#1055000
0`
0L"
b1101000 B"
10
1-
#1060000
0-
#1065000
1d
b1010 _
b1010 -"
b1010 h
b1010 '"
b0 f
b0 *"
b1010 ?
b1010 d"
b1010 ##
b1010 =
b1010 c"
b1010 "#
b10 c
b10 +"
1R
b1 i
b1 )"
b1 U"
0A
0e
b1100 W
b1100 V"
b1100011 D
b1100011 R"
b1 @
b1 P"
b1 ~"
b10 >
b10 O"
b10 !#
b1100 C
b1100 Q"
b1100 |"
0`
0L"
b1 !"
0$
0{
0%
0z
b1000001000011001100011 y
b1000001000011001100011 N"
b1000001000011001100011 X"
b1101001 B"
1-
#1070000
0-
#1075000
0`
0L"
b1101010 B"
b10 !"
00
1-
#1080000
0-
#1085000
b0 B
b0 }"
0`
0L"
1V
b100 !"
b0 r
b1101011 B"
1-
#1090000
0-
#1095000
0`
0L"
b100110100000000001010010011 #
b100110100000000001010010011 9
b1111 E"
b1101100 B"
0V
b0 !"
b10100 &
b10100 8
b10100 ~
b10100 Z"
1-
#1100000
0-
#1105000
0`
0L"
1$
1{
1%
1z
b1101101 B"
1-
#1110000
0-
